<?xml version="1.0" encoding="UTF-8" standalone="no"?>
<svg
   xmlns:dc="http://purl.org/dc/elements/1.1/"
   xmlns:cc="http://creativecommons.org/ns#"
   xmlns:rdf="http://www.w3.org/1999/02/22-rdf-syntax-ns#"
   xmlns:svg="http://www.w3.org/2000/svg"
   xmlns="http://www.w3.org/2000/svg"
   xmlns:sodipodi="http://sodipodi.sourceforge.net/DTD/sodipodi-0.dtd"
   xmlns:inkscape="http://www.inkscape.org/namespaces/inkscape"
   sodipodi:docname="shapes-f03.svg"
   inkscape:version="1.0beta1 (08a003b, 2019-11-10)"
   sodipodi:version="0.32"
   id="svg3737"
   viewBox="0 0 300 157"
   height="157"
   width="300"
   version="1.1">
  <defs
     id="defs3" />
  <sodipodi:namedview
     inkscape:window-maximized="1"
     inkscape:window-y="27"
     inkscape:window-x="54"
     inkscape:window-height="1016"
     inkscape:window-width="1866"
     inkscape:guide-bbox="true"
     showguides="true"
     units="px"
     showgrid="false"
     inkscape:document-rotation="0"
     inkscape:current-layer="layer1"
     inkscape:document-units="px"
     inkscape:cy="77"
     inkscape:cx="160"
     inkscape:zoom="1.4"
     inkscape:pageshadow="2"
     inkscape:pageopacity="0.0"
     borderopacity="1.0"
     bordercolor="#666666"
     pagecolor="#ffffff"
     id="base"
     inkscape:lockguides="true" />
  <metadata
     id="metadata4">
    <rdf:RDF>
      <cc:Work
         rdf:about="">
        <dc:format>image/svg+xml</dc:format>
        <dc:type
           rdf:resource="http://purl.org/dc/dcmitype/StillImage" />
        <dc:title></dc:title>
      </cc:Work>
    </rdf:RDF>
  </metadata>
  <g
     id="layer1"
     inkscape:groupmode="layer"
     inkscape:label="Layer 1">
    <text
       id="text3161"
       y="145.20607"
       x="37.091438"
       style="font-style:normal;font-variant:normal;font-weight:normal;font-stretch:normal;line-height:0%;font-family:'Liberation Sans',Arial,sans-serif;writing-mode:lr-tb;text-anchor:start;fill:#000000;fill-opacity:1;stroke:none;stroke-width:1pt;stroke-linecap:butt;stroke-linejoin:miter;stroke-opacity:1"
       xml:space="preserve"><tspan
         y="145.20607"
         x="37.091438"
         id="tspan3162"
         sodipodi:role="line"
         style="font-size:6px;line-height:1.4">Scaling rounded rectangles </tspan><tspan
         y="153.54851"
         x="37.091438"
         id="tspan3166"
         sodipodi:role="line"
         style="font-size:6px;line-height:1.4">with &quot;Scale rounded corners&quot; OFF</tspan></text>
    <rect
       rx="6.6371522"
       ry="16.969765"
       y="0.32250684"
       x="69.227531"
       height="122.77399"
       width="196.90794"
       id="rect2134"
       style="font-size:12px;fill:#0000ff;fill-opacity:0.110368;fill-rule:evenodd;stroke:#000000;stroke-width:0.625;stroke-miterlimit:4;stroke-dasharray:0.625, 1.25;stroke-dashoffset:0" />
    <rect
       rx="6.6371522"
       ry="16.96977"
       y="0.32091993"
       x="69.227531"
       height="63.105938"
       width="196.90794"
       id="rect2133"
       style="font-size:12px;fill:#0000ff;fill-opacity:0.110368;fill-rule:evenodd;stroke:#000000;stroke-width:0.625;stroke-miterlimit:4;stroke-dasharray:0.625, 1.25;stroke-dashoffset:0" />
    <rect
       rx="6.6371512"
       ry="16.969772"
       y="0.32848829"
       x="114.80495"
       height="105.77767"
       width="151.46671"
       id="rect2756"
       style="font-size:12px;fill:#0000ff;fill-opacity:0.110368;fill-rule:evenodd;stroke:#000000;stroke-width:0.625;stroke-miterlimit:4;stroke-dasharray:0.625, 1.25;stroke-dashoffset:0" />
    <rect
       rx="6.6371536"
       ry="16.96977"
       y="0.32091993"
       x="183.42854"
       height="63.105938"
       width="82.83017"
       id="rect2130"
       style="font-size:12px;fill:#ff0004;fill-opacity:0.75;fill-rule:evenodd;stroke:#000000;stroke-width:0.625;stroke-miterlimit:4;stroke-dashoffset:0" />
    <rect
       rx="6.6371431"
       ry="16.969759"
       y="0.33190626"
       x="205.55838"
       height="55.114822"
       width="60.755871"
       id="rect2757"
       style="font-size:12px;fill:#0000ff;fill-opacity:0.110368;fill-rule:evenodd;stroke:#000000;stroke-width:0.625;stroke-miterlimit:4;stroke-dasharray:0.625, 1.25;stroke-dashoffset:0" />
    <rect
       rx="6.6371565"
       ry="16.969774"
       y="0.33080763"
       x="218.33806"
       height="149.51537"
       width="47.954056"
       id="rect2759"
       style="font-size:12px;fill:#0000ff;fill-opacity:0.110368;fill-rule:evenodd;stroke:#000000;stroke-width:0.625;stroke-miterlimit:4;stroke-dasharray:0.625, 1.25;stroke-dashoffset:0" />
    <rect
       rx="6.6371417"
       ry="16.969746"
       y="0.31225294"
       x="227.63776"
       height="28.790329"
       width="38.351963"
       id="rect2758"
       style="font-size:12px;fill:#0000ff;fill-opacity:0.110368;fill-rule:evenodd;stroke:#000000;stroke-width:0.625;stroke-miterlimit:4;stroke-dasharray:0.625, 1.25;stroke-dashoffset:0" />
    <rect
       rx="6.6371417"
       ry="16.969742"
       y="0.35815138"
       x="36.352345"
       height="41.086792"
       width="229.81862"
       id="rect1911"
       style="font-size:12px;fill:#0000ff;fill-opacity:0.110368;fill-rule:evenodd;stroke:#000000;stroke-width:0.625;stroke-miterlimit:4;stroke-dasharray:0.625, 1.25;stroke-dashoffset:0" />
  </g>
</svg>
