<?xml version="1.0" encoding="UTF-8" standalone="no"?>
<svg
   xmlns:dc="http://purl.org/dc/elements/1.1/"
   xmlns:cc="http://creativecommons.org/ns#"
   xmlns:rdf="http://www.w3.org/1999/02/22-rdf-syntax-ns#"
   xmlns:svg="http://www.w3.org/2000/svg"
   xmlns="http://www.w3.org/2000/svg"
   xmlns:sodipodi="http://sodipodi.sourceforge.net/DTD/sodipodi-0.dtd"
   xmlns:inkscape="http://www.inkscape.org/namespaces/inkscape"
   version="1.1"
   inkscape:output_extension="org.inkscape.output.svg.inkscape"
   sodipodi:docname="interpolate-f15.svg"
   inkscape:version="1.0beta1 (08a003b, 2019-11-10)"
   sodipodi:version="0.32"
   viewBox="0 0 300 31"
   id="svg15699"
   height="31"
   width="300">
  <defs
     id="defs15701" />
  <sodipodi:namedview
     inkscape:lockguides="true"
     id="base"
     pagecolor="#ffffff"
     bordercolor="#666666"
     borderopacity="1.0"
     inkscape:pageopacity="0.0"
     inkscape:pageshadow="2"
     inkscape:zoom="1.4"
     inkscape:cx="324.77314"
     inkscape:cy="-2.7978518"
     inkscape:document-units="px"
     inkscape:current-layer="svg15699"
     inkscape:document-rotation="0"
     showgrid="false"
     units="px"
     showguides="true"
     inkscape:guide-bbox="true"
     inkscape:window-width="1866"
     inkscape:window-height="1016"
     inkscape:window-x="54"
     inkscape:window-y="27"
     inkscape:window-maximized="1" />
  <metadata
     id="metadata15704">
    <rdf:RDF>
      <cc:Work
         rdf:about="">
        <dc:format>image/svg+xml</dc:format>
        <dc:type
           rdf:resource="http://purl.org/dc/dcmitype/StillImage" />
        <dc:title></dc:title>
      </cc:Work>
    </rdf:RDF>
  </metadata>
  <g
     id="layer1"
     inkscape:groupmode="layer"
     inkscape:label="Layer 1">
    <g
       transform="translate(-14.74963,-19.105216)"
       id="g2738">
      <path
         inkscape:connector-curvature="0"
         style="fill:#00ff00;fill-opacity:1;stroke:#17a500;stroke-width:0.868842;stroke-linejoin:round;stroke-miterlimit:4;stroke-opacity:1"
         id="path6652"
         d="m 272.34757,46.546389 h -10.65339 l -5.32669,-9.2261 5.3267,-9.2261 h 10.65338 l 5.32669,9.2261 z" />
      <path
         inkscape:connector-curvature="0"
         style="fill:#00ff00;fill-opacity:1;stroke:#17a500;stroke-width:0.796746;stroke-linejoin:round;stroke-miterlimit:4;stroke-opacity:1"
         d="m 47.746956,47.724389 c 0,0 -3.490159,-3.2745 -3.620998,-3.2745 -0.06542,0 -0.78972,4.8295 -0.871494,4.8295 -0.08178,0 -2.393507,-4.1658 -2.480734,-4.1658 -0.08723,0 -2.283111,4.3929 -2.364887,4.3929 -0.08177,0 -0.986426,-4.6493 -1.051846,-4.6493 -0.130839,0 -3.580998,3.5263 -3.580998,3.5263 0,0 0.605319,-4.7533 0.539899,-4.8666 -0.03271,-0.0567 -4.358886,2.1917 -4.399773,2.1209 -0.04089,-0.0708 1.978166,-4.3946 1.934555,-4.4702 -0.04361,-0.0755 -4.880586,0.7251 -4.921474,0.6543 -0.04089,-0.0709 3.195449,-3.5399 3.162738,-3.5966 -0.06542,-0.1133 -4.938528,-0.8367 -4.938528,-0.8367 0,0 4.209411,-2.3001 4.274831,-2.4134 0.03271,-0.0567 -4.322017,-2.2315 -4.28113,-2.3023 0.02044,-0.0354 4.690886,-0.9003 4.712352,-0.9375 0.02147,-0.0372 -3.483,-3.4378 -3.461193,-3.4756 0.02181,-0.0378 4.721344,0.5734 4.74281,0.5362 0.02147,-0.0372 -2.27189,-4.3618 -2.251446,-4.3972 0.04089,-0.0708 4.327304,1.9258 4.360015,1.8691 0.06542,-0.1133 -0.767102,-4.9822 -0.767102,-4.9822 0,0 3.490159,3.2745 3.620998,3.2745 0.06542,0 0.78972,-4.8295 0.871495,-4.8295 0.08177,0 2.393507,4.1658 2.480733,4.1658 0.08723,0 2.283112,-4.3929 2.364885,-4.3929 0.08178,0 0.986428,4.6493 1.051848,4.6493 0.130839,0 3.580995,-3.5263 3.580995,-3.5263 0,0 -0.605316,4.7533 -0.539898,4.8666 0.03271,0.0567 4.358887,-2.1917 4.399774,-2.1209 0.04089,0.0709 -1.978168,4.3946 -1.934553,4.4702 0.02181,0.0377 4.836971,-0.8006 4.858437,-0.7635 0.02147,0.0372 -3.231906,3.4767 -3.211463,3.5122 0.04089,0.0708 4.908545,0.7849 4.941254,0.8415 0.06542,0.1133 -4.056764,2.4134 -4.056764,2.4134 0,0 4.349276,2.1842 4.283855,2.2975 -0.03271,0.0567 -4.72019,0.951 -4.761077,1.0219 -0.02044,0.0354 3.484705,3.4349 3.463239,3.4721 -0.02147,0.0372 -4.721004,-0.574 -4.74281,-0.5362 -0.04361,0.0755 2.227255,4.4391 2.186368,4.5099 -0.04089,0.0708 -4.327303,-1.9257 -4.360015,-1.8691 -0.06542,0.1133 0.767102,4.9822 0.767102,4.9822 0,0 0,0 0,0"
         id="path6654" />
      <g
         id="g7705"
         transform="matrix(0.5218716,0,0,0.5218716,15.53092,-723.58311)">
        <path
           inkscape:connector-curvature="0"
           style="fill:#00ff00;fill-opacity:1;stroke:#17a500;stroke-width:1.52671;stroke-linejoin:round;stroke-miterlimit:4;stroke-opacity:1"
           id="path7707"
           d="m 70.514903,1477.9181 c 0,0 -6.576147,-6.1464 -6.859311,-6.1464 -0.14116,0 -1.522122,9.0653 -1.698635,9.0653 -0.173271,0 -4.533527,-7.8195 -4.718519,-7.8195 -0.184998,0 -4.328402,8.2457 -4.502863,8.2457 -0.174745,0 -1.893472,-8.727 -2.035344,-8.727 -0.270308,0 -6.768615,6.6191 -6.786068,6.6191 -0.02495,0 0.375633,-3.2669 0.677004,-5.8942 0.196678,-1.7146 0.340446,-3.1638 0.28494,-3.2599 -0.06891,-0.1194 -8.200341,4.0821 -8.289934,3.9269 -0.08624,-0.1493 3.693107,-8.2838 3.60017,-8.4447 -0.09216,-0.1597 -9.182249,1.3245 -9.269714,1.1731 -0.08711,-0.1509 5.977387,-6.6805 5.906061,-6.8041 -0.134246,-0.2325 -9.292323,-1.6093 -9.302014,-1.6261 -0.01321,-0.023 7.877176,-4.3594 7.992803,-4.5845 0.01617,-0.048 -1.017276,-0.5996 -2.346735,-1.2916 -2.390121,-1.2441 -5.739172,-2.9748 -5.676315,-3.0837 0.04689,-0.081 8.824176,-1.723 8.876136,-1.8129 0.0501,-0.087 -6.517422,-6.4886 -6.465562,-6.5784 0.05097,-0.088 8.882647,1.0411 8.933102,0.9537 0.05112,-0.089 -4.242995,-8.2247 -4.194568,-8.3085 0.08784,-0.1521 8.144082,3.5777 8.214409,3.4559 0.133952,-0.232 -1.212215,-8.2578 -1.389193,-9.2965 -0.01229,-0.072 -0.01862,-0.1106 -0.01812,-0.1106 0.0045,0 6.579562,6.1464 6.859297,6.1464 0.14119,0 1.522143,-9.0653 1.698623,-9.0653 0.173279,0 4.533539,7.8195 4.718519,7.8195 0.185012,0 4.328419,-8.2458 4.502868,-8.2458 0.174771,0 1.893506,8.7271 2.03537,8.7271 0.270352,0 6.768657,-6.6191 6.786045,-6.6191 0.02451,0 -0.364713,3.1753 -0.664916,5.7825 -0.203022,1.7633 -0.354179,3.274 -0.297388,3.3724 0.06897,0.1195 8.200392,-4.0822 8.289931,-3.9271 0.08625,0.1495 -3.693096,8.2838 -3.600161,8.4448 0.05113,0.089 9.100183,-1.4667 9.151085,-1.3785 0.05058,0.088 -6.04597,6.5616 -5.997741,6.6452 0.0882,0.1527 9.236042,1.512 9.307137,1.6351 0.135288,0.2343 -7.591845,4.5699 -7.584651,4.5824 0.0066,0.011 1.234386,0.6327 2.727387,1.3984 2.362818,1.2118 5.391409,2.8156 5.30337,2.968 -0.06993,0.1212 -8.879358,1.8185 -8.968021,1.9721 -0.04816,0.083 6.520653,6.483 6.469424,6.5717 -0.05032,0.087 -8.882007,-1.0422 -8.933117,-0.9537 -0.09285,0.1609 4.158893,8.3704 4.071938,8.521 -0.08783,0.1521 -8.144076,-3.5777 -8.214422,-3.4559 -0.142139,0.2462 1.407692,9.4077 1.407692,9.4077 0,0 0,0 0,0" />
        <path
           inkscape:connector-curvature="0"
           style="fill:#00ff00;fill-opacity:1;stroke:#17a500;stroke-width:1.52671;stroke-linejoin:round;stroke-miterlimit:4;stroke-opacity:1"
           id="path7709"
           d="m 96.86441,1477.7799 c 0,0 -6.241261,-5.7623 -6.621786,-5.7623 -0.188569,0 -1.548752,8.4988 -1.784721,8.4988 -0.22299,0 -4.374935,-7.3308 -4.613479,-7.3308 -0.238568,0 -4.189049,7.7304 -4.416801,7.7304 -0.228895,0 -1.903378,-8.1817 -2.094795,-8.1817 -0.329099,0 -6.488949,6.2054 -6.558761,6.2054 -0.09979,0 0.228442,-3.0626 0.510977,-5.5257 0.184386,-1.6074 0.306684,-2.9877 0.233172,-3.115 -0.0876,-0.1518 -7.744134,3.7294 -7.867464,3.5158 -0.10992,-0.1904 3.400859,-7.8724 3.279814,-8.0821 -0.117922,-0.2042 -8.672745,1.1303 -8.787565,0.9314 -0.113398,-0.1964 5.540378,-6.3728 5.443119,-6.5413 -0.160926,-0.2787 -8.779964,-1.6272 -8.818731,-1.6944 -0.05284,-0.091 7.31074,-4.2152 7.397171,-4.4643 -0.0025,-0.076 -0.981475,-0.6103 -2.227843,-1.2591 -2.240739,-1.1662 -5.3545,-2.8338 -5.254106,-3.0077 0.07004,-0.1214 8.330955,-1.7162 8.415397,-1.8625 0.07701,-0.1334 -6.047521,-6.1913 -5.965438,-6.3335 0.07852,-0.1361 8.389751,0.8681 8.468174,0.7323 0.0811,-0.1405 -3.911931,-7.8247 -3.835743,-7.9566 0.116297,-0.2015 7.700647,3.2405 7.793911,3.0789 0.184169,-0.319 -1.038963,-7.9104 -1.204879,-8.8842 -0.01152,-0.068 -0.01667,-0.1038 -0.01465,-0.1038 0.01788,0 6.254925,5.7623 6.621734,5.7623 0.188683,0 1.548831,-8.4988 1.78467,-8.4988 0.223035,0 4.374981,7.3308 4.613478,7.3308 0.238622,0 4.189116,-7.7303 4.416833,-7.7303 0.228988,0 1.903505,8.1816 2.094886,8.1816 0.329277,0 6.489131,-6.2054 6.558685,-6.2054 0.09803,0 -0.220499,2.9768 -0.501939,5.4211 -0.190333,1.653 -0.319097,3.0918 -0.243652,3.2225 0.08785,0.1522 7.744322,-3.7293 7.867442,-3.516 0.10997,0.1906 -3.400802,7.8725 -3.279781,8.0822 0.07918,0.1371 8.595201,-1.2646 8.675411,-1.1257 0.0789,0.1368 -5.60514,6.2606 -5.52974,6.3912 0.11775,0.204 8.7272,1.536 8.82355,1.7028 0.16508,0.286 -7.04691,4.4064 -7.01813,4.4563 0.0263,0.045 1.18901,0.6481 2.5887,1.366 2.21514,1.136 5.03011,2.6817 4.90841,2.8925 -0.0917,0.1588 -8.38323,1.8067 -8.50284,2.0139 -0.0751,0.1301 6.05065,6.186 5.96913,6.3272 -0.0779,0.1349 -8.389141,-0.8692 -8.468228,-0.7323 -0.120696,0.2091 3.832098,7.9631 3.719318,8.1584 -0.11626,0.2014 -7.700618,-3.2405 -7.793957,-3.0789 -0.192496,0.3335 1.221051,8.9906 1.221051,8.9906 0,0 0,0 0,0" />
        <path
           inkscape:connector-curvature="0"
           style="fill:#00ff00;fill-opacity:1;stroke:#17a500;stroke-width:1.52671;stroke-linejoin:round;stroke-miterlimit:4;stroke-opacity:1"
           id="path7711"
           d="m 140.78025,1477.5496 c 0,0 -5.68311,-5.122 -6.22591,-5.122 -0.26758,0 -1.59313,7.5544 -1.9282,7.5544 -0.30585,0 -4.11061,-6.5162 -4.43841,-6.5162 -0.32785,0 -3.95679,6.8714 -4.27336,6.8714 -0.31915,0 -1.91989,-7.2726 -2.19388,-7.2726 -0.42708,0 -6.02284,5.5159 -6.17992,5.5159 -0.22452,0 -0.0169,-2.7224 0.23427,-4.9117 0.1639,-1.4289 0.25041,-2.6942 0.14689,-2.8735 -0.11876,-0.2058 -6.98379,3.1416 -7.16335,2.8306 -0.14938,-0.2587 2.91378,-7.1868 2.74589,-7.4776 -0.16086,-0.2786 -7.82357,0.8064 -7.98398,0.5286 -0.15721,-0.2723 4.81203,-5.86 4.67155,-6.1034 -0.2054,-0.3557 -7.92604,-1.6571 -8.01326,-1.8082 -0.1189,-0.2059 6.36668,-3.9751 6.40445,-4.2641 -0.0336,-0.1217 -0.92181,-0.6281 -2.02969,-1.2047 -1.99177,-1.0367 -4.713381,-2.599 -4.55042,-2.8812 0.10862,-0.1882 7.50892,-1.7051 7.64749,-1.945 0.12185,-0.2111 -5.26435,-5.6961 -5.1319,-5.9256 0.12445,-0.2155 7.56826,0.58 7.6933,0.3634 0.13106,-0.227 -3.36016,-7.1581 -3.2377,-7.3702 0.16373,-0.2836 6.96159,2.6786 7.09308,2.4508 0.26786,-0.4639 -0.75021,-7.3317 -0.89769,-8.1973 -0.0102,-0.06 -0.0134,-0.092 -0.009,-0.092 0.0402,0 5.71386,5.122 6.2258,5.122 0.26783,0 1.59331,-7.5544 1.92808,-7.5544 0.30596,0 4.11072,6.5162 4.43841,6.5162 0.32797,0 3.95694,-6.8714 4.27344,-6.8714 0.31935,0 1.92017,7.2725 2.19408,7.2725 0.42748,0 6.02325,-5.5159 6.17975,-5.5159 0.22057,0 0.0199,2.6461 -0.23031,4.8188 -0.16919,1.4693 -0.26063,2.7881 -0.15409,2.9726 0.1193,0.2067 6.98423,-3.141 7.1633,-2.8308 0.1495,0.259 -2.91365,7.1871 -2.74582,7.4778 0.12591,0.2181 7.75357,-0.9276 7.88263,-0.7041 0.12616,0.2185 -4.87041,5.7588 -4.74974,5.9679 0.16701,0.2892 7.87913,1.5759 8.01756,1.8157 0.21475,0.3719 -6.13866,4.1337 -6.07392,4.2458 0.0592,0.1025 1.11339,0.674 2.35756,1.3121 1.96902,1.0098 4.42795,2.4587 4.25014,2.7667 -0.12792,0.2216 -7.55634,1.7871 -7.72753,2.0836 -0.12003,0.2079 5.2673,5.691 5.1353,5.9196 -0.12385,0.2146 -7.56771,-0.5809 -7.69342,-0.3632 -0.16711,0.2895 3.28745,7.2842 3.13163,7.5541 -0.16366,0.2834 -6.96154,-2.6787 -7.0932,-2.4507 -0.27642,0.4788 0.90998,8.2955 0.90998,8.2955 0,0 0,0 0,0" />
        <path
           inkscape:connector-curvature="0"
           style="fill:#00ff00;fill-opacity:1;stroke:#17a500;stroke-width:1.52671;stroke-linejoin:round;stroke-miterlimit:4;stroke-opacity:1"
           id="path7713"
           d="m 202.26244,1477.2271 c 0,0 -4.90172,-4.2257 -5.67169,-4.2257 -0.3782,0 -1.65527,6.2325 -2.12907,6.2325 -0.42186,0 -3.74056,-5.3759 -4.19331,-5.3759 -0.45285,0 -3.63164,5.6689 -4.07255,5.6689 -0.4455,0 -1.94301,-5.9999 -2.3326,-5.9999 -0.56427,0 -5.37029,4.5506 -5.64954,4.5506 -0.39916,0 -0.36032,-2.2459 -0.15312,-4.0522 0.13521,-1.1787 0.17163,-2.2832 0.0261,-2.5353 -0.16237,-0.2813 -5.91931,2.3188 -6.17758,1.8714 -0.20464,-0.3544 2.23186,-6.2271 1.99839,-6.6314 -0.22097,-0.3828 -6.63473,0.353 -6.85897,-0.035 -0.21855,-0.3785 3.79234,-5.1421 3.59135,-5.4902 -0.26765,-0.4636 -6.73053,-1.6989 -6.8856,-1.9675 -0.21136,-0.3661 5.04499,-3.6389 5.01465,-3.9839 -0.0772,-0.186 -0.83828,-0.6528 -1.75228,-1.1286 -1.64321,-0.8552 -3.81581,-2.2701 -3.56527,-2.7041 0.16264,-0.2817 6.35807,-1.6893 6.57244,-2.0606 0.18463,-0.3198 -4.16791,-5.0026 -3.96494,-5.3542 0.18873,-0.3269 6.41817,0.1764 6.60846,-0.1531 0.201,-0.3482 -2.58767,-6.225 -2.40045,-6.5493 0.23015,-0.3986 5.92691,1.8919 6.11193,1.5714 0.38503,-0.6669 -0.34596,-6.5215 -0.46763,-7.2356 -0.008,-0.05 -0.009,-0.076 -7.9e-4,-0.076 0.0715,0 4.95638,4.2257 5.67148,4.2257 0.37866,0 1.65559,-6.2324 2.12886,-6.2324 0.42206,0 3.74075,5.3759 4.19331,5.3759 0.45307,0 3.63191,-5.6689 4.0727,-5.6689 0.44585,0 1.9435,5.9998 2.33295,5.9998 0.56497,0 5.37103,-4.5506 5.64924,-4.5506 0.39212,0 0.35636,2.183 0.14997,3.9755 -0.13958,1.2122 -0.17877,2.363 -0.0287,2.6229 0.16334,0.2829 5.92009,-2.3175 6.17751,-1.8717 0.20484,0.3549 -2.23165,6.2275 -1.99828,6.6317 0.19135,0.3314 6.57528,-0.456 6.77274,-0.114 0.19229,0.3331 -3.84181,5.0564 -3.65774,5.3753 0.23596,0.4086 6.69182,1.6319 6.88919,1.9737 0.28426,0.4923 -4.86714,3.752 -4.75205,3.9513 0.10521,0.1822 1.00753,0.7102 2.03397,1.2366 1.62444,0.8331 3.58492,2.1465 3.32857,2.5905 -0.17867,0.3095 -6.39872,1.7597 -6.64212,2.1812 -0.18291,0.3169 4.17062,4.9981 3.96795,5.3491 -0.18818,0.326 -6.4177,-0.1773 -6.60869,0.1535 -0.23208,0.402 2.52494,6.3337 2.30887,6.7079 -0.23002,0.3984 -5.92682,-1.892 -6.11213,-1.571 -0.39392,0.6823 0.47449,7.3222 0.47449,7.3222 0,0 0,0 0,0" />
        <path
           inkscape:connector-curvature="0"
           style="fill:#00ff00;fill-opacity:1;stroke:#17a500;stroke-width:1.52671;stroke-linejoin:round;stroke-miterlimit:4;stroke-opacity:1"
           id="path7715"
           d="m 281.31096,1476.8125 c 0,0 -3.89706,-3.0732 -4.95911,-3.0732 -0.52043,0 -1.73516,4.5327 -2.38733,4.5327 -0.57102,0 -3.26479,-3.9098 -3.87819,-3.9098 -0.61356,0 -3.21358,4.1229 -3.81437,4.1229 -0.60795,0 -1.97272,-4.3636 -2.51095,-4.3636 -0.74064,0 -4.53129,3.3096 -4.96761,3.3096 -0.62369,0 -0.8019,-1.6335 -0.65121,-2.9471 0.0983,-0.8573 0.0703,-1.7549 -0.12921,-2.1005 -0.21846,-0.3784 -4.55069,1.2607 -4.91018,0.6381 -0.27568,-0.4775 1.35513,-4.9931 1.03733,-5.5435 -0.29825,-0.5166 -5.10622,-0.2299 -5.41252,-0.7604 -0.29742,-0.5152 2.48131,-4.2191 2.20252,-4.702 -0.34769,-0.6022 -5.19346,-1.7526 -5.43575,-2.1723 -0.33026,-0.572 3.34568,-3.2066 3.22775,-3.6235 -0.13328,-0.2689 -0.73087,-0.6848 -1.3956,-1.0308 -1.19506,-0.622 -2.6618,-1.8473 -2.29864,-2.4763 0.23209,-0.402 4.87841,-1.6691 5.19022,-2.2092 0.26535,-0.4596 -2.75821,-4.1112 -2.46457,-4.6198 0.27139,-0.4701 4.93948,-0.3423 5.21368,-0.8172 0.29093,-0.5039 -1.59448,-5.0251 -1.32398,-5.4937 0.31554,-0.5465 4.59661,0.8803 4.85043,0.4407 0.53569,-0.9279 0.17381,-5.4797 0.0853,-5.9991 -0.006,-0.036 -0.003,-0.055 0.01,-0.055 0.11177,0 3.98246,3.0732 4.95878,3.0732 0.52114,0 1.73566,-4.5327 2.38701,-4.5327 0.57132,0 3.26508,3.9098 3.87819,3.9098 0.61389,0 3.21399,-4.1229 3.81458,-4.1229 0.60851,0 1.9735,4.3636 2.51151,4.3636 0.74175,0 4.53245,-3.3096 4.96716,-3.3096 0.61268,0 0.789,1.5877 0.6389,2.8913 -0.10152,0.8816 -0.0735,1.8164 0.1325,2.1732 0.21996,0.381 4.5519,-1.2587 4.91005,-0.6384 0.27599,0.4781 -1.35478,4.9937 -1.03715,5.5439 0.27548,0.4771 5.06034,0.1504 5.34574,0.6447 0.2773,0.4803 -2.51932,4.1532 -2.25374,4.6132 0.32461,0.5623 5.16528,1.7039 5.43841,2.177 0.37365,0.6471 -3.23232,3.2611 -3.05248,3.5726 0.16438,0.2847 0.87141,0.7567 1.61791,1.1395 1.18141,0.6059 2.50103,1.745 2.14369,2.3639 -0.2439,0.4225 -4.91033,1.7245 -5.24657,2.3069 -0.26376,0.4568 2.7606,4.107 2.46707,4.6154 -0.27091,0.4692 -4.93912,0.3417 -5.21404,0.8178 -0.31562,0.5467 1.54457,5.1117 1.25102,5.6201 -0.31532,0.5461 -4.59646,-0.8806 -4.85074,-0.4401 -0.545,0.944 -0.0854,6.0709 -0.0854,6.0709 0,0 0,0 0,0" />
        <path
           inkscape:connector-curvature="0"
           style="fill:#00ff00;fill-opacity:1;stroke:#17a500;stroke-width:1.52671;stroke-linejoin:round;stroke-miterlimit:4;stroke-opacity:1"
           id="path7717"
           d="m 377.92581,1476.3058 c 0,0 -2.66914,-1.6647 -4.08818,-1.6647 -0.69426,0 -1.8328,2.4552 -2.70298,2.4552 -0.75331,0 -2.68328,-2.1178 -3.49304,-2.1178 -0.80998,0 -2.70261,2.2332 -3.4988,2.2332 -0.80651,0 -2.00905,-2.3635 -2.72895,-2.3635 -0.9562,0 -3.50584,1.7926 -4.13415,1.7926 -0.89811,0 -1.34159,-0.8847 -1.25997,-1.5963 0.0533,-0.4644 -0.0534,-1.1091 -0.31903,-1.5691 -0.287,-0.4971 -2.87793,-0.032 -3.36112,-0.8693 -0.3625,-0.6279 0.28355,-3.4849 -0.13731,-4.2138 -0.39271,-0.6802 -3.23804,-0.9423 -3.64464,-1.6466 -0.39381,-0.6821 0.87895,-3.0909 0.50506,-3.7385 -0.44551,-0.7716 -3.3148,-1.8182 -3.66371,-2.4225 -0.47557,-0.8238 1.26875,-2.6783 1.04377,-3.1832 -0.20178,-0.3701 -0.5996,-0.7238 -0.95967,-0.9112 -0.64732,-0.3369 -1.25132,-1.3305 -0.75053,-2.1979 0.31697,-0.549 3.06993,-1.6445 3.50084,-2.3909 0.36401,-0.6305 -1.03524,-3.0215 -0.63079,-3.7221 0.37243,-0.645 3.1322,-0.9763 3.50895,-1.6288 0.40084,-0.6943 -0.38058,-3.5588 -0.008,-4.2036 0.4199,-0.7273 2.97067,-0.356 3.3086,-0.9413 0.71981,-1.2468 0.80906,-4.2065 0.76113,-4.4878 -0.003,-0.019 0.004,-0.03 0.0223,-0.03 0.16096,0 2.79212,1.6647 4.08772,1.6647 0.69528,0 1.83351,-2.4552 2.70251,-2.4552 0.75376,0 2.6837,2.1178 3.49304,2.1178 0.81046,0 2.70322,-2.2332 3.49912,-2.2332 0.8073,0 2.01016,2.3636 2.72973,2.3636 0.95781,0 3.50753,-1.7927 4.13351,-1.7927 0.88226,0 1.31778,0.86 1.23648,1.5661 -0.055,0.4775 0.0551,1.1483 0.32953,1.6236 0.28917,0.5009 2.87968,0.035 3.36095,0.869 0.36295,0.6287 -0.28305,3.4857 0.13755,4.2142 0.37832,0.6552 3.20875,0.8916 3.60163,1.5721 0.38122,0.6603 -0.90293,3.0493 -0.53774,3.6819 0.43297,0.7499 3.29952,1.7918 3.66525,2.4252 0.48289,0.8364 -1.2342,2.6614 -0.97523,3.1099 0.2367,0.41 0.70504,0.8135 1.1094,1.0209 0.63993,0.3282 1.17626,1.2543 0.6955,2.087 -0.32365,0.5605 -3.09119,1.6813 -3.54091,2.4602 -0.36257,0.628 1.03725,3.0181 0.63266,3.7188 -0.37201,0.6444 -3.13196,0.976 -3.50947,1.6298 -0.41771,0.7235 0.34634,3.618 -0.0419,4.2905 -0.41959,0.7267 -2.97047,0.3556 -3.30906,0.9421 -0.72965,1.2638 -0.7698,4.5416 -0.7698,4.5416 0,0 0,0 0,0" />
      </g>
    </g>
  </g>
</svg>
