<?xml version="1.0" encoding="UTF-8" standalone="no"?>
<svg
   xmlns:dc="http://purl.org/dc/elements/1.1/"
   xmlns:cc="http://creativecommons.org/ns#"
   xmlns:rdf="http://www.w3.org/1999/02/22-rdf-syntax-ns#"
   xmlns:svg="http://www.w3.org/2000/svg"
   xmlns="http://www.w3.org/2000/svg"
   xmlns:xlink="http://www.w3.org/1999/xlink"
   xmlns:sodipodi="http://sodipodi.sourceforge.net/DTD/sodipodi-0.dtd"
   xmlns:inkscape="http://www.inkscape.org/namespaces/inkscape"
   sodipodi:docname="elements-f12.svg"
   inkscape:version="1.0beta1 (a4ee55bc41, 2019-11-15)"
   sodipodi:version="0.32"
   id="svg1978"
   viewBox="0 0 300 120"
   height="120"
   width="300"
   version="1.1">
  <style
     id="style2744" />
  <defs
     id="defs3">
    <linearGradient
       y2="-1.3071896"
       x2="0.3649635"
       y1="0.41830066"
       x1="0.24087591"
       id="linearGradient1515"
       xlink:href="#linearGradient1516" />
    <linearGradient
       id="linearGradient2728">
      <stop
         id="stop2729"
         offset="0.0000000"
         style="stop-color:#f7f7f7;stop-opacity:0.0000000;" />
      <stop
         id="stop2731"
         offset="0.45062014"
         style="stop-color:#fbfbfb;stop-opacity:0.073446326;" />
      <stop
         id="stop2730"
         offset="1.0000000"
         style="stop-color:#ffffff;stop-opacity:0.78531075;" />
    </linearGradient>
    <radialGradient
       fy="0.18300654"
       fx="0.66423357"
       r="1.027791"
       cy="0.18300654"
       cx="0.66423357"
       id="radialGradient1578"
       xlink:href="#linearGradient2728" />
    <linearGradient
       y2="-1.2222222"
       x2="0.92727274"
       y1="0.503268"
       x1="0.40606061"
       id="linearGradient1734"
       xlink:href="#linearGradient1516" />
    <linearGradient
       y2="-1.6209151"
       x2="0.59183675"
       y1="0.44444445"
       x1="0.25850341"
       id="linearGradient1731"
       xlink:href="#linearGradient1516" />
    <linearGradient
       id="linearGradient1516">
      <stop
         id="stop1517"
         offset="0.0000000"
         style="stop-color:#f7f7f7;stop-opacity:0.0000000;" />
      <stop
         id="stop1518"
         offset="1"
         style="stop-color:#fff;stop-opacity:1;" />
    </linearGradient>
    <linearGradient
       y2="-0.11111111"
       x2="0.8652482"
       y1="0.40522876"
       x1="0.60992908"
       id="linearGradient1729"
       xlink:href="#linearGradient1516" />
    <radialGradient
       fy="0.1923077"
       fx="0.54355401"
       r="0.46014288"
       cy="0.50649351"
       cx="0.49032259"
       id="radialGradient1528"
       xlink:href="#linearGradient1806" />
    <linearGradient
       y2="0.1953125"
       x2="0.9130435"
       y1="0.9140625"
       x1="0.89855075"
       id="linearGradient1557"
       xlink:href="#linearGradient1806" />
    <linearGradient
       spreadMethod="pad"
       y2="0.3359375"
       x2="1.0724638"
       y1="0.8359375"
       x1="1.0144928"
       id="linearGradient1760"
       xlink:href="#linearGradient1806" />
    <linearGradient
       id="linearGradient1626">
      <stop
         id="stop1627"
         offset="0.0000000"
         style="stop-color:#ffffff;stop-opacity:0.0000000;" />
      <stop
         id="stop1628"
         offset="1"
         style="stop-color:#fff;stop-opacity:1;" />
    </linearGradient>
    <linearGradient
       y2="-0.1484375"
       x2="1.1724138"
       y1="0.640625"
       x1="0.36781609"
       id="linearGradient1517"
       xlink:href="#linearGradient1626" />
    <linearGradient
       id="linearGradient1749"
       xlink:href="#linearGradient1752" />
    <linearGradient
       id="linearGradient1752">
      <stop
         id="stop1753"
         offset="0.0000000"
         style="stop-color:#556d4a;stop-opacity:1.0000000;" />
      <stop
         id="stop1754"
         offset="0.64777780"
         style="stop-color:#778670;stop-opacity:0.97175139;" />
      <stop
         id="stop1755"
         offset="1.0000000"
         style="stop-color:#8b9f82;stop-opacity:1.0000000;" />
    </linearGradient>
    <linearGradient
       y2="1.0074621"
       x2="1.3811841"
       y1="0.21323216"
       x1="-0.011526314"
       id="linearGradient1751"
       xlink:href="#linearGradient1752" />
    <linearGradient
       y2="2.219641"
       x2="1.1766033"
       y1="-0.51972455"
       x1="0.83159232"
       id="linearGradient1630"
       xlink:href="#linearGradient1756" />
    <radialGradient
       fy="0.4765625"
       fx="0.2682927"
       r="0.78083962"
       cy="0.5390625"
       cx="0.29268292"
       id="radialGradient1527"
       xlink:href="#linearGradient1514" />
    <linearGradient
       id="linearGradient1514">
      <stop
         id="stop1515"
         offset="0.0000000"
         style="stop-color:#484848;stop-opacity:1.0000000;" />
      <stop
         id="stop1631"
         offset="0.68666667"
         style="stop-color:#929292;stop-opacity:1.0000000;" />
      <stop
         id="stop1516"
         offset="1.0000000"
         style="stop-color:#d8d8d8;stop-opacity:1.0000000;" />
    </linearGradient>
    <radialGradient
       fy="0.5078125"
       fx="0.37777779"
       r="0.77875805"
       cy="0.5234375"
       cx="0.33333334"
       id="radialGradient1522"
       xlink:href="#linearGradient1514" />
    <linearGradient
       id="linearGradient1756">
      <stop
         id="stop1757"
         offset="0.0000000"
         style="stop-color:#495942;stop-opacity:1.0000000;" />
      <stop
         id="stop1758"
         offset="0.32111111"
         style="stop-color:#778670;stop-opacity:0.97254902;" />
      <stop
         id="stop1759"
         offset="1.0000000"
         style="stop-color:#a9c19e;stop-opacity:1.0000000;" />
    </linearGradient>
    <linearGradient
       y2="0.1438365"
       x2="0.90200359"
       y1="1.0609801"
       x1="0.45133072"
       id="linearGradient1747"
       xlink:href="#linearGradient1756" />
    <radialGradient
       fy="0.21794872"
       fx="0.64111501"
       r="0.46014288"
       cy="0.50649351"
       cx="0.49032259"
       id="radialGradient1505"
       xlink:href="#linearGradient1806" />
    <linearGradient
       id="linearGradient1806">
      <stop
         id="stop1807"
         offset="0.0000000"
         style="stop-color:#000000;stop-opacity:0.40784314;" />
      <stop
         id="stop3276"
         offset="0.64777780"
         style="stop-color:#000000;stop-opacity:0.079096042;" />
      <stop
         id="stop1808"
         offset="1.0000000"
         style="stop-color:#000000;stop-opacity:0.0000000;" />
    </linearGradient>
    <radialGradient
       fy="0.095238097"
       fx="0.49027237"
       r="0.46014288"
       cy="0.50649351"
       cx="0.49032259"
       id="radialGradient1502"
       xlink:href="#linearGradient1806" />
    <radialGradient
       gradientUnits="userSpaceOnUse"
       r="51.667702"
       fy="130.38605"
       fx="24.819925"
       cy="176.56438"
       cx="24.825565"
       id="radialGradient2163"
       xlink:href="#linearGradient1806"
       inkscape:collect="always" />
    <radialGradient
       gradientUnits="userSpaceOnUse"
       r="51.667702"
       fy="144.16476"
       fx="41.757477"
       cy="176.56438"
       cx="24.825565"
       id="radialGradient2165"
       xlink:href="#linearGradient1806"
       inkscape:collect="always" />
    <linearGradient
       gradientUnits="userSpaceOnUse"
       gradientTransform="scale(1.883162,0.531022)"
       y2="565.30963"
       x2="181.2795"
       y1="705.078"
       x1="112.59907"
       id="linearGradient2167"
       xlink:href="#linearGradient1756"
       inkscape:collect="always" />
    <radialGradient
       gradientUnits="userSpaceOnUse"
       gradientTransform="scale(0.579628,1.725246)"
       r="25.301256"
       fy="224.16281"
       fx="453.18573"
       cy="224.67046"
       cx="451.74176"
       id="radialGradient2169"
       xlink:href="#linearGradient1514"
       inkscape:collect="always" />
    <radialGradient
       gradientUnits="userSpaceOnUse"
       gradientTransform="scale(0.562112,1.779006)"
       r="14.902598"
       fy="224.52409"
       fx="629.09351"
       cy="225.71693"
       cx="629.55896"
       id="radialGradient2171"
       xlink:href="#linearGradient1514"
       inkscape:collect="always" />
    <linearGradient
       gradientUnits="userSpaceOnUse"
       gradientTransform="scale(1.205886,0.829266)"
       y2="605.24182"
       x2="326.30951"
       y1="297.56552"
       x1="287.55905"
       id="linearGradient2173"
       xlink:href="#linearGradient1756"
       inkscape:collect="always" />
    <linearGradient
       gradientUnits="userSpaceOnUse"
       gradientTransform="scale(0.998217,1.001787)"
       y2="74.42794"
       x2="131.6011"
       y1="49.942966"
       x1="88.66584"
       id="linearGradient2175"
       xlink:href="#linearGradient1752"
       inkscape:collect="always" />
    <linearGradient
       gradientUnits="userSpaceOnUse"
       y2="336.10696"
       x2="253.37865"
       y1="336.10696"
       x1="187.35052"
       gradientTransform="scale(1.179368,0.847912)"
       id="linearGradient2177"
       xlink:href="#linearGradient1752"
       inkscape:collect="always" />
    <linearGradient
       gradientUnits="userSpaceOnUse"
       gradientTransform="scale(0.856613,1.167389)"
       y2="45.005119"
       x2="131.12428"
       y1="53.278374"
       x1="122.68814"
       id="linearGradient2179"
       xlink:href="#linearGradient1626"
       inkscape:collect="always" />
    <linearGradient
       gradientUnits="userSpaceOnUse"
       gradientTransform="scale(0.73169,1.3667)"
       y2="64.208908"
       x2="130.81171"
       y1="77.592667"
       x1="129.25996"
       spreadMethod="pad"
       id="linearGradient2181"
       xlink:href="#linearGradient1806"
       inkscape:collect="always" />
    <linearGradient
       gradientUnits="userSpaceOnUse"
       gradientTransform="scale(0.726403,1.376647)"
       y2="65.690712"
       x2="172.70305"
       y1="77.259346"
       x1="172.46979"
       id="linearGradient2183"
       xlink:href="#linearGradient1806"
       inkscape:collect="always" />
    <radialGradient
       gradientUnits="userSpaceOnUse"
       r="51.667702"
       fy="141.28563"
       fx="30.802719"
       cy="176.56438"
       cx="24.825565"
       id="radialGradient2185"
       xlink:href="#linearGradient1806"
       inkscape:collect="always" />
    <linearGradient
       gradientUnits="userSpaceOnUse"
       gradientTransform="scale(0.958107,1.043724)"
       y2="84.428337"
       x2="162.72618"
       y1="97.763397"
       x1="156.13226"
       id="linearGradient2187"
       xlink:href="#linearGradient1516"
       inkscape:collect="always" />
    <linearGradient
       gradientUnits="userSpaceOnUse"
       gradientTransform="scale(0.978488,1.021985)"
       y2="103.88062"
       x2="115.20684"
       y1="135.0722"
       x1="110.17276"
       id="linearGradient2189"
       xlink:href="#linearGradient1516"
       inkscape:collect="always" />
    <linearGradient
       gradientUnits="userSpaceOnUse"
       gradientTransform="scale(1.035315,0.96589)"
       y2="91.335999"
       x2="130.71721"
       y1="123.45138"
       x1="121.01625"
       id="linearGradient2191"
       xlink:href="#linearGradient1516"
       inkscape:collect="always" />
    <radialGradient
       gradientUnits="userSpaceOnUse"
       gradientTransform="scale(0.945443,1.057705)"
       r="34.084785"
       fy="71.93708"
       fx="64.958763"
       cy="71.93708"
       cx="64.958763"
       id="radialGradient2193"
       xlink:href="#linearGradient2728"
       inkscape:collect="always" />
    <linearGradient
       gradientUnits="userSpaceOnUse"
       gradientTransform="scale(0.9461,1.056971)"
       y2="42.421089"
       x2="54.702099"
       y1="74.473274"
       x1="52.397083"
       id="linearGradient2195"
       xlink:href="#linearGradient1516"
       inkscape:collect="always" />
  </defs>
  <sodipodi:namedview
     inkscape:window-maximized="1"
     inkscape:window-y="0"
     inkscape:window-x="1920"
     inkscape:window-height="1163"
     inkscape:window-width="1920"
     inkscape:guide-bbox="true"
     showguides="true"
     units="px"
     showgrid="false"
     inkscape:document-rotation="0"
     inkscape:current-layer="layer1"
     inkscape:document-units="px"
     inkscape:cy="55"
     inkscape:cx="160"
     inkscape:zoom="1.4"
     inkscape:pageshadow="2"
     inkscape:pageopacity="0.0"
     borderopacity="1.0"
     bordercolor="#666666"
     pagecolor="#ffffff"
     id="base"
     inkscape:lockguides="true" />
  <metadata
     id="metadata4">
    <rdf:RDF>
      <cc:Work
         rdf:about="">
        <dc:format>image/svg+xml</dc:format>
        <dc:type
           rdf:resource="http://purl.org/dc/dcmitype/StillImage" />
        <dc:title />
      </cc:Work>
    </rdf:RDF>
  </metadata>
  <g
     id="layer1"
     inkscape:groupmode="layer"
     inkscape:label="Layer 1">
    <rect
       y="0.2446565"
       x="149.98863"
       height="99.168579"
       width="149.76773"
       id="rect2588"
       style="fill:#ffffff;fill-opacity:1;fill-rule:evenodd;stroke:#000000;stroke-width:0.489313" />
    <rect
       y="0.2446565"
       x="0.2446565"
       height="99.168579"
       width="149.76773"
       id="rect2590"
       style="fill:#ffffff;fill-opacity:1;fill-rule:evenodd;stroke:#000000;stroke-width:0.489313" />
    <g
       transform="matrix(0.51048951,0,0,0.51048951,19.516765,-1652.3231)"
       id="g2952">
      <path
         transform="matrix(0.966739,0,0,0.233544,113.9646,3337.076)"
         style="fill:url(#radialGradient2163);fill-opacity:0.75;fill-rule:evenodd;stroke-width:1pt"
         d="m 82.055313,175.83524 c 0,31.00698 -25.136126,56.1431 -56.143108,56.1431 -31.0069828,0 -56.143109,-25.13612 -56.143109,-56.1431 0,-31.00699 25.1361262,-56.14311 56.143109,-56.14311 31.006982,0 56.143108,25.13612 56.143108,56.14311 z"
         id="path3277"
         inkscape:connector-curvature="0" />
      <path
         transform="matrix(1.080927,0,0,0.286993,162.8851,3326.394)"
         style="fill:url(#radialGradient2165);fill-opacity:0.75;fill-rule:evenodd;stroke-width:1pt"
         d="m 82.055313,175.83524 c 0,31.00698 -25.136126,56.1431 -56.143108,56.1431 -31.0069828,0 -56.143109,-25.13612 -56.143109,-56.1431 0,-31.00699 25.1361262,-56.14311 56.143109,-56.14311 31.006982,0 56.143108,25.13612 56.143108,56.14311 z"
         id="path1809"
         inkscape:connector-curvature="0" />
      <g
         transform="matrix(1.201983,0,0,1.201983,73.32285,3220.77)"
         id="g1682">
        <path
           transform="matrix(0.377833,-0.02395712,0.02395712,0.377833,-16.04194,-27.91078)"
           sodipodi:nodetypes="czzzzzzzz"
           d="m 298.95068,267.70153 c 0.10375,-1.13528 2.04701,-2.50876 3.00498,-1.83553 l 15.29804,10.751 c 1.44725,1.01708 2.0993,3.00023 2.18543,4.71996 l 1.36591,27.27084 c 0.0752,1.50207 -2.40697,3.26251 -3.82451,2.6222 l -18.5762,-8.39103 c -1.7748,-0.80169 -2.35683,-3.3688 -2.18543,-5.24439 z"
           style="fill:#586051;fill-rule:evenodd;stroke-width:1pt"
           id="path1623"
           inkscape:connector-curvature="0" />
        <path
           transform="matrix(0.377833,-0.02395712,0.02395712,0.377833,-16.04194,-27.91078)"
           sodipodi:nodetypes="cczzzczccccccc"
           id="path1531"
           d="m 368.7863,386.44876 1.29532,23.74533 -70.23699,-9.67031 c -2.21463,-0.30492 -1.35724,11.79099 -10.68824,17.30477 -7.15733,4.22932 -15.14678,4.46946 -20.86751,0.50896 l -33.08265,-22.90337 -81.0389,-5.68461 c -3.58106,-0.2512 -1.53602,14.14576 -12.09784,21.71701 -40.78969,19.51481 -55.308826,-30.992 -44.157155,-38.56234 l -19.19877,-13.80721 138.918205,-1.43957 41.02766,-41.74743 108.6873,37.42873 z"
           style="fill:#393939;fill-rule:evenodd;stroke:#000000;stroke-width:1.9235pt"
           inkscape:connector-curvature="0" />
        <path
           transform="matrix(0.377833,-0.02395712,0.02395712,0.377833,-16.04194,-27.91078)"
           sodipodi:nodetypes="czzzzzzzz"
           id="path1545"
           d="m 316.47195,281.55569 0.16848,16.96341 c 0.012,1.21002 -1.58953,2.28391 -2.7993,2.3114 l -5.5986,0.12724 c -1.24463,0.0283 -3.05752,-0.8134 -3.1174,-2.05691 l -0.80469,-16.70893 c -0.0637,-1.32222 1.47803,-2.73596 2.7993,-2.81685 l 6.2348,-0.38173 c 1.3426,-0.0822 3.10405,1.21733 3.11741,2.56237 z"
           style="fill:#292e23;fill-rule:evenodd;stroke-width:1pt"
           inkscape:connector-curvature="0" />
        <path
           transform="matrix(0.377833,-0.02395712,0.02395712,0.377833,-16.04194,-27.91078)"
           id="path1624"
           d="m 322.2987,279.99063 -1.01091,36.72963 34.03388,11.45695 -3.36969,-7.41332 0.33697,-6.73938 3.70666,-2.69575 8.42423,2.69575 -1.34788,-7.75029 -14.48967,-9.09816 v 23.58783 h -2.69575 l -16.84846,-9.43513 -2.02181,-6.73938 -0.33697,-16.17452 4.3806,-2.02181 z"
           style="fill:#a5ae9d;fill-rule:evenodd;stroke-width:1pt"
           inkscape:connector-curvature="0" />
        <path
           transform="matrix(0.377833,-0.02395712,0.02395712,0.377833,-16.04194,-27.91078)"
           sodipodi:nodetypes="cccccccccccccc"
           id="path2869"
           d="m 85.570879,349.6274 2.544819,-39.69917 8.652383,-8.65239 123.678199,-12.72409 24.43026,3.56275 124.6256,51.99723 -1.15641,5.92051 -78.17142,19.44475 -3.05378,-34.60954 -7.12549,-9.67031 -24.43026,-5.5986 -20.86752,38.17228 -152.180164,-0.50896 z"
           style="fill:url(#linearGradient2167);fill-rule:evenodd;stroke-width:1pt"
           inkscape:connector-curvature="0" />
        <path
           transform="matrix(0.377833,-0.02395712,0.02395712,0.377833,-16.04194,-27.91078)"
           sodipodi:nodetypes="cczcczc"
           id="path2870"
           d="m 263.26099,431.93045 c -6.97642,1.17699 -14.52855,1.24124 -22.45616,0.14908 -5.76826,-7.21032 -13.05164,-21.327 -11.79349,-48.44948 1.20816,-26.04508 9.71647,-39.04613 16.88313,-45.19985 4.64742,-3.63448 18.18921,-1.47513 20.35855,0 5.40836,4.71416 14.9296,28.95667 14.25098,49.87844 -0.67862,20.56188 -11.70616,41.36515 -17.24301,43.62181 z"
           style="fill:#8b8b8b;fill-rule:evenodd;stroke-width:1pt"
           inkscape:connector-curvature="0" />
        <path
           transform="matrix(0.377833,-0.02395712,0.02395712,0.377833,-16.04194,-27.91078)"
           sodipodi:nodetypes="czzzz"
           id="path1495"
           d="m 263.19923,339.62278 c -7.61476,0.97032 -13.72143,20.56377 -14.25098,43.26192 -0.52955,23.05804 7.06375,44.99712 14.31274,45.42126 6.89035,0.40315 16.77521,-19.81841 16.94486,-41.43689 0.16966,-21.97836 -9.03785,-48.26173 -17.00662,-47.24629 z"
           style="fill:#5b5b5b;fill-rule:evenodd;stroke-width:1pt"
           inkscape:connector-curvature="0" />
        <path
           transform="matrix(0.377833,-0.02395712,0.02395712,0.377833,-16.04194,-27.91078)"
           sodipodi:nodetypes="czzzz"
           id="path1494"
           d="m 255.56478,386.27279 c 0,-9.331 3.79988,-27.55244 10.17927,-27.99301 6.73753,-0.4653 8.65239,20.1889 8.65239,29.5199 0,9.331 -4.07421,25.28103 -8.65239,26.46612 -4.91624,1.2726 -10.17927,-18.66201 -10.17927,-27.99301 z"
           style="fill:url(#radialGradient2169);fill-opacity:0.75;fill-rule:evenodd;stroke-width:1pt"
           inkscape:connector-curvature="0" />
        <path
           transform="matrix(0.377833,-0.02395712,0.02395712,0.377833,-16.04194,-27.91078)"
           sodipodi:nodetypes="czzzz"
           id="path2873"
           d="m 260.45889,366.29482 c 2.09937,0.35989 8.27751,6.23813 7.91762,21.9534 -0.35989,15.35538 -5.81825,16.55502 -7.91762,16.19513 -2.09937,-0.35989 -4.67859,-11.99639 -4.67859,-18.35448 0,-6.35809 2.57922,-20.15394 4.67859,-19.79405 z"
           style="fill:#d9d9d9;fill-rule:evenodd;stroke-width:1pt"
           inkscape:connector-curvature="0" />
        <path
           transform="matrix(0.377833,-0.02395712,0.02395712,0.377833,-16.04194,-27.91078)"
           sodipodi:nodetypes="cczcczc"
           id="path1506"
           d="m 354.63983,427.86686 c -4.16399,0.71295 -8.6716,0.75187 -13.40333,0.0903 -3.44288,-4.36759 -7.79009,-12.91864 -7.03914,-29.34784 0.72111,-15.77657 5.79944,-23.65184 10.07698,-27.3794 2.77389,-2.20155 10.85653,-0.89355 12.15133,0 3.22807,2.85556 8.91098,17.54024 8.50594,30.21342 -0.40505,12.45517 -6.98702,25.05656 -10.29178,26.42352 z"
           style="fill:#707070;fill-rule:evenodd;stroke-width:0.601287pt"
           inkscape:connector-curvature="0" />
        <path
           transform="matrix(0.377833,-0.02395712,0.02395712,0.377833,-16.04194,-27.91078)"
           sodipodi:nodetypes="czzzz"
           id="path1505"
           d="m 355.0918,371.95232 c -4.338,0.58776 -7.81687,12.45632 -8.11855,26.20552 -0.30168,13.9672 4.0241,27.2566 8.15374,27.51352 3.92532,0.2442 9.55657,-12.00483 9.65321,-25.10003 0.0967,-13.31319 -5.14871,-29.23411 -9.6884,-28.61901 z"
           style="fill:#545454;fill-rule:evenodd;stroke-width:1pt"
           inkscape:connector-curvature="0" />
        <path
           transform="matrix(0.377833,-0.02395712,0.02395712,0.377833,-16.04194,-27.91078)"
           sodipodi:nodetypes="czzzz"
           id="path1504"
           d="m 350.74258,400.21014 c 0,-5.65217 2.16473,-16.68964 5.79897,-16.95651 3.83826,-0.28185 4.92913,12.22924 4.92913,17.88141 0,5.65217 -2.32102,15.31376 -4.92913,16.03162 -2.80071,0.77086 -5.79897,-11.30435 -5.79897,-16.95652 z"
           style="fill:url(#radialGradient2171);fill-opacity:0.75;fill-rule:evenodd;stroke-width:1pt"
           inkscape:connector-curvature="0" />
        <path
           transform="matrix(0.377833,-0.02395712,0.02395712,0.377833,-16.04194,-27.91078)"
           sodipodi:nodetypes="czzzz"
           id="path1507"
           d="m 353.53068,388.10867 c 1.19597,0.218 4.71556,3.77869 4.51054,13.29807 -0.20503,9.30138 -3.31457,10.02806 -4.51054,9.81006 -1.19598,-0.21801 -2.66532,-7.26671 -2.66532,-11.11807 0,-3.85135 1.46934,-12.20806 2.66532,-11.99006 z"
           style="fill:#b6b6b6;fill-rule:evenodd;stroke-width:1pt"
           inkscape:connector-curvature="0" />
        <path
           transform="matrix(0.377833,-0.02395712,0.02395712,0.377833,-16.04194,-27.91078)"
           sodipodi:nodetypes="czzzzzzzz"
           id="path2878"
           d="m 88.430642,312.31107 c 0.129517,-2.54718 3.2187,-4.80293 5.758267,-5.03849 L 218.35156,295.75605 c 3.24942,-0.3014 7.96,2.49517 7.91762,5.75827 l -0.3599,27.71166 c -0.0497,3.82538 -3.73302,8.54973 -7.55772,8.6374 l -125.602218,2.87913 c -2.998309,0.0687 -5.550675,-4.2026 -5.398375,-7.19783 z"
           style="fill:#5f7161;fill-rule:evenodd;stroke-width:1pt"
           inkscape:connector-curvature="0" />
        <path
           transform="matrix(0.377833,-0.02395712,0.02395712,0.377833,-16.04194,-27.91078)"
           sodipodi:nodetypes="czzzz"
           id="path2879"
           d="m 99.947177,322.38803 c 0.179943,-4.37868 3.658903,-9.77705 7.917613,-9.71707 4.43867,0.06 4.85854,5.87823 4.6786,8.99729 -0.17995,3.11906 -2.57923,9.77706 -6.658,9.71708 -4.0801,-0.06 -6.110777,-4.79825 -5.938213,-8.9973 z"
           style="fill:#aeb89b;fill-rule:evenodd;stroke-width:1pt"
           inkscape:connector-curvature="0" />
        <path
           transform="matrix(0.377833,-0.02395712,0.02395712,0.377833,-16.04194,-27.91078)"
           sodipodi:nodetypes="czzzz"
           id="path2880"
           d="m 194.5987,316.26988 c 0,-5.60832 4.43752,-11.14083 9.17724,-11.51654 4.91852,-0.38988 9.19091,4.64754 9.53713,9.17724 0.35989,4.70858 -1.91942,13.10605 -8.45745,13.67588 -6.35946,0.55427 -10.25692,-5.54833 -10.25692,-11.33658 z"
           style="fill:#aeb89b;fill-rule:evenodd;stroke-width:1pt"
           inkscape:connector-curvature="0" />
        <path
           transform="matrix(0.377833,-0.02395712,0.02395712,0.377833,-16.04194,-27.91078)"
           sodipodi:nodetypes="ccccccczzccczz"
           id="path2881"
           d="m 234.1883,340.97501 4.07171,-41.73502 9.16135,-4.07171 122.1513,50.89637 v 42.24399 l -4.45343,-2.29033 0.12724,-23.66682 -10.05204,-5.85308 c -3.61198,-2.10318 -7.23089,5.66036 -7.82532,9.79755 l -2.38576,16.60495 -56.33593,-11.89703 -2.54482,-39.69918 -30.53782,-13.23305 c -9.58209,-4.15224 -22.3905,33.29707 -21.37648,22.90336 z"
           style="fill:url(#linearGradient2173);fill-rule:evenodd;stroke-width:1pt"
           inkscape:connector-curvature="0" />
        <path
           transform="matrix(0.377833,-0.02395712,0.02395712,0.377833,-16.04194,-27.91078)"
           sodipodi:nodetypes="cccccczzzzcccczzzzcc"
           id="path2882"
           d="m 230.11659,364.38735 -7.12549,-1.52689 -148.617424,-1.52689 1.017928,-10.17928 144.545706,-3.05378 12.7241,1.01793 10.68824,-28.50198 c 2.33616,-6.22977 12.76795,-9.35497 18.83166,-6.61652 l 15.77787,7.12549 c 7.37644,3.3313 12.70632,12.28192 13.23306,20.35855 l 1.52689,23.41233 25.95715,7.12549 -2.03585,6.61653 -28.50197,-5.08963 -2.03586,-27.48405 c -0.46082,-6.22108 -1.20749,-15.3321 -7.12549,-17.30477 l -13.74202,-4.58067 c -4.83114,-1.61038 -11.68901,2.78172 -13.23306,7.63446 l -10.68824,33.59161 z"
           style="fill:#4d4d4d;fill-rule:evenodd;stroke-width:1pt"
           inkscape:connector-curvature="0" />
        <path
           transform="matrix(0.377833,-0.02395712,0.02395712,0.377833,-16.04194,-27.91078)"
           sodipodi:nodetypes="ccczzzzzzzz"
           id="path1533"
           d="m 325.64837,309.56675 16.14605,0.22508 0.71978,9.35718 3.95881,1.79946 c 0.69929,0.31786 1.43824,-1.03131 1.43957,-1.79946 l 0.0302,-17.48412 c 0.004,-2.32927 -2.1167,-4.3327 -3.9588,-5.75826 l -16.62876,-12.86861 c -1.45128,-1.12311 -5.50744,-0.75217 -5.39838,1.07967 l 1.17228,19.69079 c 0.12451,2.09137 0.42437,5.72906 2.51924,5.75827 z"
           style="fill:#505947;fill-rule:evenodd;stroke-width:1pt"
           inkscape:connector-curvature="0" />
        <path
           transform="translate(11.66552,18.45222)"
           sodipodi:nodetypes="cccccccczzzzzzzzczcczzzzzczzzzzzzz"
           d="m 91.386906,44.457098 -1.99914,15.669415 -0.525345,3.894841 30.773589,10.309101 -2.34458,-14.138991 -25.196275,-16.744656 z m 0.405685,3.353116 c 0.01012,-0.418604 0.662161,-0.965608 1.014992,-0.740123 l 5.634457,3.600802 c 0.533038,0.340649 0.80865,1.053286 0.878951,1.681959 l 1.114819,9.96929 c 0.0614,0.549104 -0.77134,1.250024 -1.285163,1.04687 l -6.733406,-2.66228 c -0.643318,-0.25436 -0.907865,-1.182689 -0.891144,-1.874261 z m 9.675619,6.433793 c -0.0563,-0.576216 0.90916,-1.388042 1.3813,-1.052966 l 6.36849,4.519646 1.28794,2.042176 0.59469,6.333811 c 0.05,0.532158 -0.29431,1.624113 -0.78001,1.400994 l -6.46325,-2.969023 c -0.72957,-0.335148 -1.48613,-1.032517 -1.5642,-1.831581 z m 10.42653,6.096563 c -0.0245,-0.385941 0.49316,-1.03607 0.8166,-0.824081 l 3.22317,2.112545 c 0.52976,0.347215 0.98241,0.945632 1.06516,1.573611 l 0.74431,5.648561 c 0.0593,0.45028 -0.48422,1.203966 -0.90055,1.022479 l -3.67345,-1.601303 c -0.66157,-0.288384 -0.85157,-1.250164 -0.89724,-1.970412 z"
           style="fill:url(#linearGradient2175);fill-rule:evenodd;stroke-width:1pt"
           id="path1535"
           inkscape:connector-curvature="0" />
        <path
           transform="matrix(0.377833,-0.02395712,0.02395712,0.377833,-16.04194,-27.91078)"
           sodipodi:nodetypes="ccccccccc"
           id="path1534"
           d="m 220.95524,288.70835 66.16529,-2.64269 7.12549,-29.06966 4.58068,0.52854 -7.12549,43.30107 5.5986,4.22831 -3.56274,7.92809 -51.91431,-21.10242 z"
           style="fill:url(#linearGradient2177);fill-rule:evenodd;stroke-width:1pt"
           inkscape:connector-curvature="0" />
        <path
           transform="matrix(0.377833,-0.02395712,0.02395712,0.377833,-16.04194,-27.91078)"
           id="path1532"
           d="m 189.56022,286.03897 3.23903,-7.91762 24.11274,11.51654 72.33824,-1.43957 6.83794,-30.59079 -2.51924,-3.23903 -102.20925,14.75556 -10.79675,18.35448 z"
           style="fill:#545b4d;fill-rule:evenodd;stroke-width:1pt"
           inkscape:connector-curvature="0" />
        <path
           transform="matrix(0.377833,-0.02395712,0.02395712,0.377833,-16.04194,-27.91078)"
           sodipodi:nodetypes="czzzzzc"
           id="path1529"
           d="m 117.12663,299.49447 2.29034,-4.32619 c 1.5846,-2.99315 6.0441,-3.49887 9.41583,-3.81723 l 59.29428,-5.5986 c 7.2942,-0.68872 15.67246,-1.84726 21.88544,2.03585 6.21298,3.88312 5.66513,2.39426 4.07171,2.54482 z"
           style="fill:#415b42;fill-rule:evenodd;stroke-width:1pt"
           inkscape:connector-curvature="0" />
        <path
           transform="matrix(0.377833,-0.02395712,0.02395712,0.377833,-16.04194,-27.91078)"
           sodipodi:nodetypes="czzzzzzzzzzz"
           id="path1530"
           d="m 365.18738,306.19291 c 1.50504,1.09689 -0.10525,-6.52295 -1.61407,-7.61463 L 302.39172,254.3116 c -3.56576,-2.57993 -8.24022,-4.58819 -12.59621,-3.95881 l -94.65152,13.67589 c -3.70927,0.53595 -6.35192,5.60628 -6.8145,8.2585 -0.48637,2.78864 4.30345,-2.71075 7.70878,-3.16312 l 97.53066,-12.9561 c 1.59547,-0.21194 0.58819,3.96955 2.15935,4.3187 l 3.23902,0.71978 c 0.94415,0.20982 1.73763,-2.00922 2.51925,-1.43956 z"
           style="fill:#d6d6d6;fill-rule:evenodd;stroke-width:1pt"
           inkscape:connector-curvature="0" />
        <path
           transform="matrix(0.377833,-0.02395712,0.02395712,0.377833,-16.04194,-27.91078)"
           id="path1544"
           d="m 306.46115,282.1897 0.76345,16.28684 6.61653,0.25449 0.76344,-16.79581 z"
           style="fill:#ffffff;fill-opacity:0.895288;fill-rule:evenodd;stroke-width:1pt"
           inkscape:connector-curvature="0" />
        <path
           transform="matrix(0.377833,-0.02395712,0.02395712,0.377833,-16.04194,-27.91078)"
           sodipodi:nodetypes="ccccccccc"
           id="path1547"
           d="m 311.0023,300.2619 v 2.25 l -13.9375,-0.28125 0.20702,3.29291 14.51173,-1.38666 h 0.84375 v -0.8125 -3.0625 z"
           style="fill-rule:evenodd;stroke-width:1.625"
           inkscape:connector-curvature="0" />
        <path
           transform="translate(11.66552,18.45222)"
           sodipodi:nodetypes="czzccz"
           id="path1625"
           d="m 101.79977,54.873297 c -0.18179,-2.290697 3.17319,3.676307 4.66787,5.072885 1.49468,1.396574 4.46152,1.505615 4.30022,3.306574 l -0.29938,3.342561 -8.0328,-3.709054 z"
           style="fill:url(#linearGradient2179);fill-opacity:0.75;fill-rule:evenodd;stroke-width:1pt"
           inkscape:connector-curvature="0" />
        <path
           transform="matrix(0.377833,-0.02395712,0.02395712,0.377833,-16.04194,-27.91078)"
           sodipodi:nodetypes="czzzzzzzz"
           id="path1632"
           d="m 117.5052,314.97451 c 0.19096,-2.6098 2.49843,-5.77913 5.10892,-5.96041 l 61.30706,-4.25744 c 2.6028,-0.18075 5.58684,2.92612 5.53467,5.53467 l -0.42575,21.28717 c -0.0647,3.2355 -4.42756,5.91418 -7.66338,5.96041 l -59.60409,0.85148 c -2.711,0.0387 -5.73252,-3.25637 -5.53466,-5.96041 z"
           style="fill:#474747;fill-opacity:0.623037;fill-rule:evenodd;stroke-width:1pt"
           inkscape:connector-curvature="0" />
        <path
           transform="translate(5,17.5)"
           sodipodi:nodetypes="cczcczc"
           id="path970"
           d="m 88.813516,111.36618 c -2.607724,0.61184 -5.459629,0.81705 -8.481107,0.59431 -2.352177,-2.5861 -5.442274,-7.74536 -5.61668,-18.023268 -0.167482,-9.86964 2.735771,-14.985695 5.296146,-17.482466 1.668877,-1.484566 6.837144,-0.993114 7.692132,-0.487733 2.156394,1.651597 6.334614,10.583119 6.579434,18.504309 0.236199,7.785208 -3.431984,15.909558 -5.469925,16.894848 z"
           style="fill:url(#linearGradient2181);fill-rule:evenodd;stroke-width:1pt"
           inkscape:connector-curvature="0" />
        <path
           transform="translate(5,17.5)"
           sodipodi:nodetypes="cczcczc"
           id="path1556"
           d="m 123.20621,107.85357 c -1.55621,0.36913 -3.2584,0.49183 -5.06205,0.35522 -1.40547,-1.56773 -3.25285,-4.69446 -3.36271,-10.919943 -0.1055,-5.978186 1.62459,-9.075385 3.15148,-10.586258 0.99533,-0.898272 4.08055,-0.597704 4.59118,-0.291111 1.28808,1.00159 3.78707,6.4138 3.93765,11.211849 0.14535,4.715683 -2.03965,9.634583 -3.25555,10.230243 z"
           style="fill:url(#linearGradient2183);fill-rule:evenodd;stroke-width:0.601287pt"
           inkscape:connector-curvature="0" />
      </g>
      <path
         transform="matrix(1.080927,0,0,0.286993,146.763,3332.854)"
         style="fill:url(#radialGradient2185);fill-opacity:0.75;fill-rule:evenodd;stroke-width:1pt"
         d="m 82.055313,175.83524 c 0,31.00698 -25.136126,56.1431 -56.143108,56.1431 -31.0069828,0 -56.143109,-25.13612 -56.143109,-56.1431 0,-31.00699 25.1361262,-56.14311 56.143109,-56.14311 31.006982,0 56.143108,25.13612 56.143108,56.14311 z"
         id="path1714"
         inkscape:connector-curvature="0" />
    </g>
    <text
       id="text1232"
       y="106.18829"
       x="0"
       style="font-size:6px;line-height:0%;font-family:'Liberation Sans',Arial,sans-serif;stroke-width:0.981927pt"
       xml:space="preserve"><tspan
         id="tspan1233"
         style="stroke-width:0.981927pt">Random Ant &amp; 4WD</tspan></text>
    <text
       id="text1235"
       y="111"
       x="0"
       style="font-size:3px;line-height:0%;font-family:'Liberation Sans',Arial,sans-serif;stroke-width:0.512643pt"
       xml:space="preserve"><tspan
         id="tspan1236"
         style="line-height:1.1;stroke-width:0.512643pt"
         sodipodi:role="line"
         x="0"
         y="111">SVG  Image Created by Andrew Fitzsimon</tspan><tspan
         y="114"
         x="0"
         id="tspan2442"
         sodipodi:role="line"
         style="line-height:1.1;stroke-width:0.512643pt">Courtesy of Open Clip Art Library</tspan><tspan
         y="117"
         x="0"
         sodipodi:role="line"
         id="tspan2444"
         style="line-height:1.1;stroke-width:0.512643pt">http://www.openclipart.org/</tspan></text>
    <g
       transform="matrix(1.0999014,0,0,1.0999014,-203.01325,-2517.7952)"
       id="g2864">
      <path
         transform="matrix(0.311908,0,0,0.311908,184.8265,2289.17)"
         id="path924"
         d="m 147.45065,91.907853 -16.7563,-7.698839 28.531,-4.075855 2.26436,3.17011"
         style="fill:none;fill-opacity:0.75;fill-rule:evenodd;stroke:#000000;stroke-width:4.53084"
         inkscape:connector-curvature="0" />
      <path
         transform="matrix(0.311908,0,0,0.311908,184.8265,2289.17)"
         id="path923"
         d="m 155.46029,108.55426 4.9816,18.11492 14.49193,-24.45514"
         style="fill:none;fill-opacity:0.75;fill-rule:evenodd;stroke:#000000;stroke-width:4.53084"
         inkscape:connector-curvature="0" />
      <path
         transform="matrix(0.311908,0,0,0.311908,184.8265,2289.17)"
         id="path909"
         d="m 97.068918,145.26319 c 0,0 -17.932845,-7.68551 -25.938588,4.80344 -8.005732,12.48896 -10.247338,28.82065 -4.16298,35.22525 6.084366,6.40458 25.938587,1.92137 30.101568,-6.4046 4.162992,-8.32596 8.325972,-25.29812 6.404592,-29.4611 -1.92137,-4.16299 -6.404592,-4.16299 -6.404592,-4.16299 z"
         style="fill:#7c5a08;fill-opacity:1;fill-rule:evenodd;stroke-width:1pt"
         inkscape:connector-curvature="0" />
      <path
         transform="matrix(0.311908,0,0,0.311908,184.8265,2289.17)"
         sodipodi:nodetypes="ccccccccccccccccc"
         id="path1569"
         d="m 142.41549,138.79278 -0.52832,0.11123 -15.20991,3.30892 -4.76281,-5.90308 -3.23359,2.95941 7.24563,5.41841 0.41709,0.22245 0.4449,-0.11123 15.07088,-3.28111 18.60226,12.4015 0.38928,0.25026 0.50051,-0.0556 21.71654,-2.94744 -0.10724,-0.9453 -21.47027,1.30678 -18.63006,-12.42931 z"
         style="fill:#3e3e3e;fill-rule:evenodd;stroke-width:2.875"
         inkscape:connector-curvature="0" />
      <path
         transform="matrix(0.372559,0,0,0.372559,189.9867,2308.318)"
         sodipodi:nodetypes="cccccccccccccccccccccccccccccccc"
         id="path1568"
         d="m 85.379947,67.643027 -1.952126,4.074161 0.372472,9.660924 0.02327,0.395746 0.256075,0.279358 8.636639,9.56781 c -0.0031,0.394893 -0.04656,5.80164 -0.04656,11.709514 0,3.05963 0.01085,6.14609 0.04656,8.52023 0.01785,1.18708 0.03794,2.18383 0.06984,2.9332 0.01594,0.3747 0.02448,0.68365 0.04656,0.93118 0.01103,0.12376 0.02949,0.24166 0.04656,0.34919 0.01707,0.10753 -8.79e-4,0.1612 0.139679,0.44231 0.08156,0.16311 0.136188,0.24393 0.256067,0.4423 0.119888,0.19837 0.267571,0.47102 0.465595,0.7915 0.396039,0.64096 0.942582,1.51457 1.582993,2.53745 1.280805,2.04574 2.950215,4.70215 4.609311,7.33299 3.318168,5.26168 6.588048,10.40587 6.588048,10.40587 l 1.43665,1.13419 c 0,0 -2.89202,-7.44438 -6.20891,-12.70403 -1.65845,-2.62982 -3.330885,-5.26778 -4.609312,-7.30971 -0.639214,-1.02097 -1.167841,-1.90323 -1.55972,-2.53745 -0.195939,-0.31711 -0.375477,-0.55731 -0.48886,-0.74493 -0.06866,-0.11362 -0.06308,-0.13417 -0.09312,-0.18624 -0.0046,-0.0363 -0.01764,-0.0765 -0.02327,-0.13968 -0.01681,-0.18845 -0.0314,-0.45857 -0.04657,-0.81477 -0.03032,-0.71242 -0.05214,-1.70998 -0.06983,-2.88664 -0.03539,-2.35334 -0.04657,-5.44286 -0.04657,-8.49696 0,-6.108217 0.04657,-12.128543 0.04657,-12.128543 V 90.782968 L 94.57863,90.480336 85.918718,80.935808 Z"
         style="fill:#3e3e3e;fill-rule:evenodd;stroke-width:2.875"
         inkscape:connector-curvature="0" />
      <path
         transform="matrix(0.311908,0,0,0.311908,184.8265,2289.17)"
         sodipodi:nodetypes="ccccccccccccccccccccc"
         id="path1567"
         d="m 109.23089,147.26942 -1.12808,9.51389 -0.0556,0.16683 v 0.19464 10.81656 l -10.538502,22.60633 -0.08342,0.19464 -0.02781,0.22245 -2.502545,28.55682 v 0.27806 l 0.111224,0.30587 5.644623,14.26451 1.93845,1.77183 -5.108334,-16.70369 2.446934,-28.0007 10.53849,-22.68974 0.13903,-0.25026 v -0.27806 -10.92778 l 3.33684,-10.67786 z"
         style="fill:#3e3e3e;fill-rule:evenodd;stroke-width:2.875"
         inkscape:connector-curvature="0" />
      <path
         transform="matrix(0.311908,0,0,0.311908,184.8265,2289.17)"
         sodipodi:nodetypes="czzzzzzz"
         id="path919"
         d="m 129.57222,103.15301 c 0.0932,3.85836 0.37893,4.97672 1.92137,6.72482 l 9.60689,10.8878 c 1.52864,1.73246 4.08626,2.0784 6.88493,0.80058 2.99073,-1.36552 9.47179,-9.65446 10.72768,-14.25021 1.28074,-4.68666 2.33581,-12.620218 0.16012,-14.250216 -2.07456,-1.554234 -9.53244,-3.934994 -15.2109,-1.120803 -5.74004,2.84471 -14.18699,7.194903 -14.09009,11.208029 z"
         style="fill-rule:evenodd;stroke-width:1pt"
         inkscape:connector-curvature="0" />
      <path
         transform="matrix(0.311908,0,0,0.311908,184.8265,2289.17)"
         sodipodi:nodetypes="cczz"
         id="path1143"
         d="m 134.56159,103.95723 c -1.38723,-9.248221 20.8085,-17.571615 24.04538,-9.710628 3.23687,7.860998 -6.70496,21.964528 -11.09786,23.582968 -4.3929,1.61844 -11.63703,-5.13573 -12.94752,-13.87234 z"
         style="fill:url(#linearGradient2187);fill-opacity:0.75;fill-rule:evenodd;stroke-width:1pt"
         inkscape:connector-curvature="0" />
      <path
         transform="matrix(0.311908,0,0,0.311908,184.8265,2289.17)"
         sodipodi:nodetypes="ccccccccccccc"
         id="path1571"
         d="m 63.390663,136.26243 -0.500509,0.50051 -18.324194,18.3242 -12.556375,5.11642 -0.03977,0.88968 13.597163,-3.61478 0.333673,-0.0834 0.250254,-0.25026 18.046133,-18.07393 34.178184,5.26719 0.583928,-2.47474 -34.873336,-5.43403 z"
         style="fill:#3e3e3e;fill-rule:evenodd;stroke-width:2.875"
         inkscape:connector-curvature="0" />
      <path
         transform="matrix(0.311908,0,0,0.311908,184.8265,2289.17)"
         sodipodi:nodetypes="ccccccccccccccccccccc"
         id="path1572"
         d="m 51.298905,101.68765 -0.810254,0.42894 6.339782,10.39947 0.305866,0.50051 0.556121,0.11122 14.931855,2.69719 0.13903,0.0278 h 0.111224 l 23.941018,-0.41709 -1.668364,15.76604 -0.111224,1.08444 1.05663,0.27806 8.592071,2.28009 2.47884,-3.15405 -9.374741,-1.32272 1.69617,-16.09971 0.166836,-1.44592 -1.445915,0.0278 -25.275709,0.4449 -14.236702,-2.58597 z"
         style="fill:#3e3e3e;fill-rule:evenodd;stroke-width:2.875"
         inkscape:connector-curvature="0" />
      <path
         transform="matrix(0.311908,0,0,0.311908,184.8265,2289.17)"
         sodipodi:nodetypes="ccccccccccccccccccccccc"
         id="path1570"
         d="m 123.72172,70.139622 -0.52022,0.111224 0.4727,8.786715 v 0.05561 l -2.22448,13.875224 -0.0278,0.111224 -3.55918,13.764001 -9.42625,15.68262 -0.27806,0.4727 0.16684,0.55612 1.13606,6.57032 4.25842,-0.75076 -2.78071,-6.042 9.2038,-15.34895 0.11123,-0.16684 0.0278,-0.16683 3.6426,-14.042066 v -0.05561 -0.05561 l 2.28009,-14.042061 0.0278,-0.13903 -0.0278,-0.13903 z"
         style="fill:#3e3e3e;fill-rule:evenodd;stroke-width:2.875"
         inkscape:connector-curvature="0" />
      <path
         transform="matrix(0.311908,0,0,0.311908,184.8265,2289.17)"
         id="path925"
         d="m 159.23201,101.09795 c 0,0 5.43447,-0.67931 5.88735,-7.245962"
         style="fill:none;fill-opacity:0.75;fill-rule:evenodd;stroke:#000000;stroke-width:2.13216pt"
         inkscape:connector-curvature="0" />
      <path
         transform="matrix(0.311908,0,0,0.311908,184.8265,2289.17)"
         id="path926"
         d="m 151.98605,91.13475 c 0,0 0.45287,-3.622983 8.15171,-2.717237"
         style="fill:none;fill-opacity:0.75;fill-rule:evenodd;stroke:#000000;stroke-width:2.13216pt"
         inkscape:connector-curvature="0" />
      <path
         transform="matrix(0.311908,0,0,0.311908,184.8265,2289.17)"
         sodipodi:nodetypes="cccczccccccc"
         id="path911"
         d="m 89.282954,144.024 c 1.307896,-1.63487 10.027577,-4.84517 11.948956,-4.20471 1.92137,0.64046 0.78919,-8.64619 9.43538,-10.8878 6.38183,-4.73241 3.34437,-9.35103 6.51449,-13.20044 0.90573,-2.26437 8.20051,-8.47186 14.16779,-6.69264 6.10712,1.82092 9.91102,11.56711 6.06826,17.65147 -3.84275,6.08437 -6.72481,4.80344 -6.72481,4.80344 0,0 1.28091,4.16299 -6.08437,6.40459 -7.36527,2.24161 -6.72481,6.72482 -6.72481,6.72482 0,0 -4.80345,5.76413 -9.92712,4.48321 -5.12366,-1.28091 -3.51578,3.71299 -4.66018,5.02089 z"
         style="fill:#3c2b00;fill-rule:evenodd;stroke-width:1pt"
         inkscape:connector-curvature="0" />
      <path
         transform="matrix(0.311908,0,0,0.311908,184.8265,2289.17)"
         sodipodi:nodetypes="cccz"
         id="path1730"
         d="m 104.63166,140.75881 c -2.94277,-3.59671 4.74113,-12.91547 10.62666,-8.33784 5.88553,4.57764 3.59672,12.5885 -1.30789,13.8964 -4.90461,1.3079 -6.30938,-1.88042 -9.31877,-5.55856 z"
         style="fill:url(#linearGradient2189);fill-opacity:0.75;fill-rule:evenodd;stroke-width:1pt"
         inkscape:connector-curvature="0" />
      <path
         transform="matrix(0.311908,0,0,0.311908,184.8265,2289.17)"
         sodipodi:nodetypes="czzzzz"
         id="path1733"
         d="m 117.87411,120.81339 c -1.28065,-2.45231 0.65394,-5.6403 2.94276,-7.35691 2.28882,-1.71661 8.1471,-4.14168 10.79014,-2.94277 2.64304,1.19891 5.58581,7.19343 5.0681,10.1362 -0.51771,2.94277 -5.04085,7.49315 -8.17435,7.5204 -3.1335,0.0273 -9.346,-4.90461 -10.62665,-7.35692 z"
         style="fill:url(#linearGradient2191);fill-opacity:0.75;fill-rule:evenodd;stroke-width:1pt"
         inkscape:connector-curvature="0" />
      <path
         transform="matrix(0.372559,0,0,0.372559,189.9867,2308.318)"
         sodipodi:nodetypes="czzc"
         id="path2381"
         d="m 43.043287,81.709895 c 0,0 -5.562038,15.032378 0.05852,19.906665 5.445618,4.72256 19.409685,6.16337 27.360861,-10.857655 7.951177,-17.021021 -18.302651,-32.734164 -27.419381,-9.04901 z"
         style="fill:url(#radialGradient2193);fill-opacity:0.75;fill-rule:evenodd;stroke-width:1pt"
         inkscape:connector-curvature="0" />
      <path
         transform="matrix(0.372559,0,0,0.372559,189.9867,2308.318)"
         sodipodi:nodetypes="ccczzz"
         id="path910"
         d="M 58.620022,74.099282 C 52.599836,74.675844 48.439316,83.33 46.25962,90.111002 c -1.209423,0.518323 -1.047565,-6.826414 -0.529241,-8.035844 0.518322,-1.20942 2.322228,-7.97988 5.205073,-9.961836 2.764396,-1.900525 6.654261,-2.000209 9.676788,-0.916372 2.993487,1.073425 3.765812,2.350879 -1.992218,2.902332 z"
         style="fill:url(#linearGradient2195);fill-opacity:0.75;fill-rule:evenodd;stroke-width:1pt"
         inkscape:connector-curvature="0" />
    </g>
    <use
       height="3146.25"
       width="320"
       transform="matrix(1.7184882,0,0,1.7184882,141.69884,-40.575916)"
       id="use1"
       xlink:href="#g2864"
       y="0"
       x="0" />
    <use
       height="3146.25"
       width="320"
       transform="matrix(0.25,0,0,0.25,242.02053,39.846956)"
       id="use7"
       xlink:href="#g2952"
       y="0"
       x="0" />
  </g>
</svg>
