<?xml version="1.0" encoding="UTF-8" standalone="no"?>
<!-- Created with Inkscape (http://www.inkscape.org/) -->
<svg
   xmlns:dc="http://purl.org/dc/elements/1.1/"
   xmlns:cc="http://web.resource.org/cc/"
   xmlns:rdf="http://www.w3.org/1999/02/22-rdf-syntax-ns#"
   xmlns:svg="http://www.w3.org/2000/svg"
   xmlns="http://www.w3.org/2000/svg"
   xmlns:sodipodi="http://sodipodi.sourceforge.net/DTD/sodipodi-0.dtd"
   xmlns:inkscape="http://www.inkscape.org/namespaces/inkscape"
   width="84"
   height="118"
   id="svg2467"
   sodipodi:version="0.32"
   inkscape:version="0.44+devel"
   sodipodi:modified="true"
   version="1.0">
  <defs
     id="defs2469" />
  <sodipodi:namedview
     id="base"
     pagecolor="#ffffff"
     bordercolor="#666666"
     borderopacity="1.0"
     gridtolerance="10000"
     guidetolerance="10"
     objecttolerance="10"
     inkscape:pageopacity="0.0"
     inkscape:pageshadow="2"
     inkscape:zoom="0.35"
     inkscape:cx="375"
     inkscape:cy="520"
     inkscape:document-units="px"
     inkscape:current-layer="layer1"
     inkscape:window-width="640"
     inkscape:window-height="538"
     inkscape:window-x="3"
     inkscape:window-y="28" />
  <metadata
     id="metadata2472">
    <rdf:RDF>
      <cc:Work
         rdf:about="">
        <dc:format>image/svg+xml</dc:format>
        <dc:type
           rdf:resource="http://purl.org/dc/dcmitype/StillImage" />
      </cc:Work>
    </rdf:RDF>
  </metadata>
  <g
     inkscape:label="Layer 1"
     inkscape:groupmode="layer"
     id="layer1"
     transform="translate(-249.42857,-676.21933)">
    <path
       style="fill:#ff80ff;fill-opacity:1;fill-rule:evenodd;stroke:#000000;stroke-width:5;stroke-linecap:butt;stroke-linejoin:round;stroke-miterlimit:4;stroke-dasharray:none;stroke-opacity:1"
       d="M 328.36607,762.71933 L 254.49107,762.71933 C 260.32459,779.11043 275.79018,791.71933 291.42857,791.71933 C 307.06696,791.71933 322.53255,779.11043 328.36607,762.71933 z "
       id="path4873" />
    <path
       style="fill:#ffff00;fill-opacity:1;fill-rule:evenodd;stroke:#000000;stroke-width:5;stroke-linecap:butt;stroke-linejoin:round;stroke-miterlimit:4;stroke-dasharray:none;stroke-opacity:1"
       d="M 319.99107,708.71933 L 262.86607,708.71933 C 256.30278,722.82683 251.92857,738.74913 251.92857,749.21933 C 251.92857,753.90343 252.95733,758.40983 254.49107,762.71933 C 254.49107,762.71933 274.52232,771.71933 292.99107,771.71933 C 311.45982,771.71933 328.36607,762.71933 328.36607,762.71933 C 329.89981,758.40983 330.92857,753.90343 330.92857,749.21933 C 330.92857,738.74913 326.55436,722.82683 319.99107,708.71933 z "
       id="path4875"
       sodipodi:nodetypes="ccscscsc" />
    <path
       style="fill:#ff80ff;fill-opacity:1;fill-rule:evenodd;stroke:#000000;stroke-width:5;stroke-linecap:butt;stroke-linejoin:round;stroke-miterlimit:4;stroke-dasharray:none;stroke-opacity:1"
       d="M 291.42857,678.71933 C 280.86905,678.71933 270.40704,692.51033 262.86607,708.71933 C 262.86607,708.71933 277.70982,715.71933 291.99107,715.71933 C 306.27232,715.71933 319.99107,708.71933 319.99107,708.71933 C 312.4501,692.51033 301.98809,678.71933 291.42857,678.71933 z "
       id="path4877"
       sodipodi:nodetypes="ccscc" />
  </g>
</svg>
