<?xml version="1.0" encoding="UTF-8" standalone="no"?>
<svg
   xmlns:dc="http://purl.org/dc/elements/1.1/"
   xmlns:cc="http://creativecommons.org/ns#"
   xmlns:rdf="http://www.w3.org/1999/02/22-rdf-syntax-ns#"
   xmlns:svg="http://www.w3.org/2000/svg"
   xmlns="http://www.w3.org/2000/svg"
   xmlns:sodipodi="http://sodipodi.sourceforge.net/DTD/sodipodi-0.dtd"
   xmlns:inkscape="http://www.inkscape.org/namespaces/inkscape"
   version="1.1"
   width="300"
   height="74"
   viewBox="0 0 300 74"
   id="svg1871"
   sodipodi:version="0.32"
   inkscape:version="1.0beta1 (a4ee55bc41, 2019-11-15)"
   sodipodi:docname="advanced-f02.svg">
  <defs
     id="defs3" />
  <sodipodi:namedview
     inkscape:lockguides="true"
     id="base"
     pagecolor="#ffffff"
     bordercolor="#666666"
     borderopacity="1.0"
     inkscape:pageopacity="0.0"
     inkscape:pageshadow="2"
     inkscape:zoom="1.4"
     inkscape:cx="160"
     inkscape:cy="37"
     inkscape:document-units="px"
     inkscape:current-layer="layer1"
     inkscape:document-rotation="0"
     showgrid="false"
     units="px"
     showguides="true"
     inkscape:guide-bbox="true"
     inkscape:window-width="1866"
     inkscape:window-height="1053"
     inkscape:window-x="54"
     inkscape:window-y="27"
     inkscape:window-maximized="0" />
  <metadata
     id="metadata4">
    <rdf:RDF>
      <cc:Work
         rdf:about="">
        <dc:format>image/svg+xml</dc:format>
        <dc:type
           rdf:resource="http://purl.org/dc/dcmitype/StillImage" />
        <dc:title />
      </cc:Work>
    </rdf:RDF>
  </metadata>
  <g
     inkscape:label="Layer 1"
     inkscape:groupmode="layer"
     id="layer1">
    <path
       inkscape:connector-curvature="0"
       style="fill:none;fill-opacity:0.75;fill-rule:evenodd;stroke:#000000;stroke-width:1pt"
       d="m 39.034861,8.40531 h 23.45651 c 0,0 -12.689587,-18.80207 -12.689587,2.0512 0,20.8533 0.384532,55.38077 0.384532,55.38077 h 16.91945 c 0,0 -47.489818,14.52877 -31.147168,0"
       id="path1317" />
    <path
       inkscape:connector-curvature="0"
       style="fill:none;fill-opacity:0.75;fill-rule:evenodd;stroke:#000000;stroke-width:1pt"
       d="M 82.323007,37.31888 H 71.206501 c 0,0 15.086688,27.151 0,27.151"
       id="path1318" />
    <path
       inkscape:connector-curvature="0"
       style="fill:none;fill-opacity:0.75;fill-rule:evenodd;stroke:#000000;stroke-width:1pt"
       d="m 79.001992,43.65408 c 7.830163,-15.45807 13.000432,-8.555 13.000432,-8.555 v 28.9182 h -5.854106"
       id="path1320" />
    <path
       inkscape:connector-curvature="0"
       style="fill:none;fill-opacity:0.75;fill-rule:evenodd;stroke:#000000;stroke-width:1pt"
       d="m 93.638541,29.94241 9.300499,-14.3213 v 48.84877 c 0,0 -0.84079,-24.2719 9.92612,-29.3997 10.76692,-5.12777 11.79419,12.616 0.64274,12.616 -11.15145,0 -7.56432,0.0326 -7.56432,0.0326 l 18.64984,16.5801 h -13.26639"
       id="path1321"
       sodipodi:nodetypes="cccccccc" />
    <path
       inkscape:connector-curvature="0"
       style="fill:none;fill-opacity:0.75;fill-rule:evenodd;stroke:#000000;stroke-width:1pt"
       d="m 148.48641,45.32578 c 0,0 6.15757,-15.12537 0,-11.9649 -6.15758,3.1606 -21.14931,17.2637 -19.41891,17.2637 1.73039,0 19.85403,-1.8543 18.64984,0 -1.20419,1.8542 -5.76799,15.2127 -11.53599,14.1871 -5.76799,-1.0255 -9.22878,-10.9395 -9.22878,-10.9395"
       id="path1322" />
    <path
       inkscape:connector-curvature="0"
       style="fill:none;fill-opacity:0.75;fill-rule:evenodd;stroke:#000000;stroke-width:1pt"
       d="m 174.77497,46.69318 c -7.80196,-12.0135 -18.45759,-12.6485 -18.45759,-12.6485 v 20.5112 l 12.30506,10.9395 c 0,0 9.61332,3.07677 9.61332,-8.2046"
       id="path1323" />
    <path
       inkscape:connector-curvature="0"
       style="font-size:12px;fill:none;fill-opacity:0.75;fill-rule:evenodd;stroke:#000000;stroke-width:1pt"
       d="m 171.94292,33.51508 h 25.41075 c 0,0 -15.37194,0.2789 -15.99936,13.3869 -0.62742,13.1081 7.39801,17.1953 13.01908,11.5742 5.95201,-5.952 7.42912,-24.6486 7.42912,-24.6486 v 31.2028"
       id="path1324"
       sodipodi:nodetypes="cccscc" />
    <path
       inkscape:connector-curvature="0"
       style="font-size:12px;fill:none;fill-opacity:0.75;fill-rule:evenodd;stroke:#000000;stroke-width:1pt"
       d="M 208.33363,73.39715 V 33.23618 h 13.60043 c 14.15825,0 5.22399,11.8404 -0.83268,18.686 -6.02498,6.8097 -8.80011,5.641 -8.80011,-2.2312"
       id="path1325"
       sodipodi:nodetypes="cccsc" />
    <path
       inkscape:connector-curvature="0"
       style="font-size:12px;fill:none;fill-opacity:0.75;fill-rule:evenodd;stroke:#000000;stroke-width:1pt"
       d="m 229.79347,44.94978 h 37.64555 c 0,0 -0.31371,-11.1558 -17.56792,-11.4347 -17.25422,-0.2789 -15.68565,17.8493 -15.68565,23.4272 0,5.5779 5.0194,15.89717 17.88163,15.89717 12.86224,0 15.37194,-13.66597 15.37194,-20.08057"
       id="path1328" />
  </g>
</svg>
