<?xml version="1.0" encoding="UTF-8" standalone="no"?>
<svg
   xmlns:dc="http://purl.org/dc/elements/1.1/"
   xmlns:cc="http://creativecommons.org/ns#"
   xmlns:rdf="http://www.w3.org/1999/02/22-rdf-syntax-ns#"
   xmlns:svg="http://www.w3.org/2000/svg"
   xmlns="http://www.w3.org/2000/svg"
   xmlns:sodipodi="http://sodipodi.sourceforge.net/DTD/sodipodi-0.dtd"
   xmlns:inkscape="http://www.inkscape.org/namespaces/inkscape"
   sodipodi:docname="calligraphy-f09.svg"
   inkscape:version="1.0beta1 (a4ee55bc41, 2019-11-15)"
   sodipodi:version="0.32"
   id="svg3054"
   viewBox="0 0 300 32"
   height="32"
   width="300"
   version="1.1">
  <defs
     id="defs3" />
  <sodipodi:namedview
     inkscape:window-maximized="0"
     inkscape:window-y="27"
     inkscape:window-x="54"
     inkscape:window-height="1053"
     inkscape:window-width="1866"
     inkscape:guide-bbox="true"
     showguides="true"
     units="px"
     showgrid="false"
     inkscape:document-rotation="0"
     inkscape:current-layer="layer1"
     inkscape:document-units="px"
     inkscape:cy="-3.0856281"
     inkscape:cx="324.66411"
     inkscape:zoom="1.4"
     inkscape:pageshadow="2"
     inkscape:pageopacity="0.0"
     borderopacity="1.0"
     bordercolor="#666666"
     pagecolor="#ffffff"
     id="base"
     inkscape:lockguides="true" />
  <metadata
     id="metadata4">
    <rdf:RDF>
      <cc:Work
         rdf:about="">
        <dc:format>image/svg+xml</dc:format>
        <dc:type
           rdf:resource="http://purl.org/dc/dcmitype/StillImage" />
        <dc:title />
      </cc:Work>
    </rdf:RDF>
  </metadata>
  <g
     id="layer1"
     inkscape:groupmode="layer"
     inkscape:label="Layer 1">
    <path

       id="path8610"
       d="M 10.512859,1.4559 H 300.8131"
       style="display:block;fill:none;fill-opacity:0.75;fill-rule:evenodd;stroke:#aeaeae;stroke-width:0.594897;stroke-linecap:butt;stroke-linejoin:miter;stroke-miterlimit:4;stroke-dasharray:0.594897, 1.78469;stroke-dashoffset:0;stroke-opacity:1"
       inkscape:connector-curvature="0" />
    <path

       id="path8611"
       d="M 10.512821,29.9131 H 300.8131"
       style="display:block;fill:none;fill-opacity:0.75;fill-rule:evenodd;stroke:#aeaeae;stroke-width:0.594897;stroke-linecap:butt;stroke-linejoin:miter;stroke-miterlimit:4;stroke-dasharray:0.594897, 1.78469;stroke-dashoffset:0;stroke-opacity:1"
       inkscape:connector-curvature="0" />
    <path
       d="m 19.226495,4.8689 c 5.086917,-5.4229 10.288079,-7.0634 10.025431,0.7726 -0.09213,5.9106 -0.936574,11.8215 -0.548794,17.7328 0.43176,2.4124 0.390643,5.0419 3.359415,4.2217 5.237619,-2.8926 -6.55326,4.5145 -0.972545,-0.1179 l 5.917493,-2.4131 c -3.012644,2.6677 -6.825824,4.1129 -10.572193,5.5599 -3.051646,0.5684 -3.131134,-2.1534 -3.562602,-4.6341 -0.401934,-5.9196 0.437396,-11.839 0.537464,-17.7582 0.242437,-6.597 -4.12307,-3.8734 3.218538,-7.2484 0.613158,-0.2819 -2.159596,0.9679 -1.56409,1.2854 z"
       id="path8631"
       style="display:block;fill:#000000;fill-opacity:1;fill-rule:nonzero;stroke:none;stroke-width:1pt;stroke-linecap:butt;stroke-linejoin:miter;stroke-opacity:1"
       inkscape:connector-curvature="0" />
    <path
       d="m 33.869486,3.1675 c 5.028889,-2.6743 7.800863,-5.5588 10.235909,0.0497 1.726376,5.2046 0.956782,10.7797 0.864093,16.1644 0.180991,2.744 -0.650992,5.9511 0.584479,8.3293 2.573771,0.5364 5.818024,-1.5061 -3.00163,2.2895 -1.900241,0.8177 3.22272,-2.6233 4.596856,-4.1697 l 5.909806,-2.4319 c -3.081727,3.5224 -8.299666,8.6427 -13.243623,7.1243 -1.617298,-2.2808 -0.348574,-5.856 -0.685771,-8.5462 0.08974,-5.3525 0.866072,-10.8964 -0.823441,-16.0748 -2.291795,-5.2866 -7.701625,-0.9293 1.401439,-5.3339 z"
       id="path8642"
       style="display:block;fill:#000000;fill-opacity:1;fill-rule:nonzero;stroke:none;stroke-width:1pt;stroke-linecap:butt;stroke-linejoin:miter;stroke-opacity:1"
       inkscape:connector-curvature="0" />
    <path
       d="m 49.512683,5.594 c 1.009639,-2.7917 8.699498,-7.3762 10.788684,-3.8006 1.195198,4.7495 0.688578,9.6469 0.492148,14.4734 0.01397,2.9594 0.08954,5.8983 -0.06914,8.8524 -0.97926,3.3455 4.543147,1.2493 3.902837,1.5868 -8.819473,4.6491 -4.894404,2.6063 -2.96621,1.1296 2.35212,-2.0789 -0.56145,0.5451 1.54763,-1.5024 l 5.81661,-2.647 c -2.08165,2.0994 0.79537,-0.5767 -1.52953,1.5426 -2.39927,1.8915 -11.856673,9.0377 -12.510547,2.7012 0.143938,-2.9542 0.10761,-5.8927 0.06883,-8.8529 C 55.240097,14.284 55.76141,9.4295 54.612317,4.7045 52.899443,1.816 45.173218,7.2622 56.100963,1.6994 c 0.406722,-0.207 -1.273429,0.8818 -0.856764,1.068 z"
       id="path8644"
       style="display:block;fill:#000000;fill-opacity:1;fill-rule:nonzero;stroke:none;stroke-width:1pt;stroke-linecap:butt;stroke-linejoin:miter;stroke-opacity:1"
       inkscape:connector-curvature="0" />
    <path
       d="m 79.772559,3.5669 c 4.655135,0 9.31027,0 13.965406,0 3.39176,0.0526 6.747175,-1.0978 10.100035,-0.538 l -5.687845,2.9135 c -3.3515,-0.4316 -6.69446,0.6614 -10.075577,0.5852 -4.655135,0 -9.31027,0 -13.965405,0 z"
       id="path8647"
       style="display:block;fill:#000000;fill-opacity:1;fill-rule:nonzero;stroke:none;stroke-width:1pt;stroke-linecap:butt;stroke-linejoin:miter;stroke-opacity:1"
       inkscape:connector-curvature="0" />
    <path
       d="m 79.116978,8.4479 c 4.292519,0.9962 8.78118,0.3496 13.141187,0.0215 3.29132,-0.2538 6.5914,-0.3486 9.891425,-0.3741 l -5.662635,2.9621 c -3.29749,0.0312 -6.594763,0.1322 -9.883266,0.3897 -4.379332,0.3286 -8.82396,0.897 -13.150097,-0.0385 z"
       id="path8651"
       style="display:block;fill:#000000;fill-opacity:1;fill-rule:nonzero;stroke:none;stroke-width:1pt;stroke-linecap:butt;stroke-linejoin:miter;stroke-opacity:1"
       inkscape:connector-curvature="0" />
    <path
       d="m 78.726632,14.7234 c 3.561961,0.134 7.098065,-0.1977 10.647741,-0.4274 3.879992,-0.2886 7.773542,-0.1571 11.651367,-0.4405 l -5.654725,2.9773 c -3.87839,0.271 -7.773281,0.1358 -11.652257,0.4388 -3.551608,0.2357 -7.09178,0.5395 -10.655512,0.4126 z"
       id="path8654"
       style="display:block;fill:#000000;fill-opacity:1;fill-rule:nonzero;stroke:none;stroke-width:1pt;stroke-linecap:butt;stroke-linejoin:miter;stroke-opacity:1"
       inkscape:connector-curvature="0" />
    <path
       d="m 77.722409,20.3017 c 2.813709,0 5.627419,0 8.441129,0 3.899535,-0.1049 7.820727,0.209 11.707797,-0.1684 1.45913,-0.1327 2.924535,-0.156 4.388495,-0.177 l -5.661875,2.9636 c -1.46104,0.0251 -2.92337,0.0545 -4.37892,0.1952 -3.891823,0.3545 -7.816739,0.0363 -11.718883,0.1474 -2.81371,0 -5.627419,0 -8.441129,0 z"
       id="path8656"
       style="display:block;fill:#000000;fill-opacity:1;fill-rule:nonzero;stroke:none;stroke-width:1pt;stroke-linecap:butt;stroke-linejoin:miter;stroke-opacity:1"
       inkscape:connector-curvature="0" />
    <path
       d="m 121.33518,5.003 c -2.86418,-0.364 -11.77397,3.1282 -1.99652,-0.5935 0.50987,-0.194 -0.94506,0.5466 -1.4007,0.8466 -1.47206,0.9694 -2.71752,2.0912 -3.95545,3.3363 -5.48433,6.2108 -4.62719,15.4317 3.43478,18.6567 -2.72274,3.8121 16.45344,-2.642 12.95986,-1.2215 -7.97318,3.2418 -3.18834,1.2105 -1.11024,-0.4236 l 5.79186,-2.7008 c -6.46566,5.0842 -15.13234,9.4202 -23.43335,7.0466 -8.06196,-3.2249 -8.9191,-12.4458 -3.43477,-18.6566 4.89087,-4.9191 11.93375,-8.8027 18.93639,-8.991 z"
       id="path8668"
       style="display:block;fill:#000000;fill-opacity:1;fill-rule:nonzero;stroke:none;stroke-width:1pt;stroke-linecap:butt;stroke-linejoin:miter;stroke-opacity:1"
       inkscape:connector-curvature="0" />
    <path
       d="m 142.25372,3.6085 c -2.72334,-0.0444 -9.78248,3.0733 0.19317,-1.0704 0.36858,-0.1531 -0.69461,0.3941 -1.02977,0.6108 -1.43855,0.93 -2.67236,2.0701 -3.86642,3.2884 -4.6773,4.5665 -5.33502,11.2036 -0.87766,16.0995 4.30563,4.7309 10.10892,4.6543 15.94573,3.4814 2.32053,-0.4395 8.74222,-3.0279 -0.95291,1.0623 -1.60805,0.6784 2.80497,-2.1352 3.89775,-3.496 l 5.79186,-2.7008 c -3.5433,4.4125 -9.13311,6.5104 -14.52856,7.8353 -5.83681,1.1729 -11.6401,1.2495 -15.94574,-3.4815 -4.45735,-4.8958 -3.79963,-11.5329 0.87766,-16.0994 4.25323,-4.3396 10.21917,-7.6532 16.28677,-8.2304 z"
       id="path8671"
       style="display:block;fill:#000000;fill-opacity:1;fill-rule:nonzero;stroke:none;stroke-width:1pt;stroke-linecap:butt;stroke-linejoin:miter;stroke-opacity:1"
       inkscape:connector-curvature="0" />
    <path
       d="m 143.03441,8.0156 c 3.63159,-6.2319 15.31299,-8.2112 21.94491,-6.2059 7.89173,4.4498 7.16439,17.4665 0.8188,22.9628 -4.61462,2.7192 -9.51906,5.1497 -14.76767,6.2583 l 5.79186,-2.7008 c 10.00434,-2.1131 -6.14357,3.2984 3.18394,-0.8568 6.34559,-5.4962 7.07294,-18.5129 -0.81879,-22.9627 -3.07477,-0.9297 -6.07283,-0.9715 -9.23096,-0.3805 -1.05574,0.1975 -4.05351,1.3409 -3.11778,0.8136 9.11752,-5.1376 2.84645,-1.9127 1.98756,0.3712 z"
       id="path8700"
       style="display:block;fill:#000000;fill-opacity:1;fill-rule:nonzero;stroke:none;stroke-width:1pt;stroke-linecap:butt;stroke-linejoin:miter;stroke-opacity:1"
       inkscape:connector-curvature="0" />
    <path
       d="m 165.73787,7.3185 c 6.24513,-7.1109 20.64099,-9.6534 27.45105,-2.0885 8.00685,13.5722 -5.76652,22.7183 -17.9865,24.8188 -1.72185,0.234 -3.4009,0.0951 -5.09397,-0.2114 l 5.79185,-2.7008 c 1.6931,0.3065 3.37213,0.4454 5.09398,0.2114 1.47312,-0.2532 5.53528,-1.9473 4.36813,-1.0135 -1.07621,0.861 -2.43446,1.3005 -3.70253,1.8405 -3.44195,1.4658 4.452,-2.1919 6.42161,-5.4997 2.66945,-4.4833 1.88365,-10.4459 -0.68444,-14.7445 -3.24625,-3.6061 -7.44392,-4.7604 -12.24258,-4.4724 -1.45025,0.087 -5.40772,1.6054 -4.30911,0.6547 1.16964,-1.0121 2.74496,-1.4279 4.09235,-2.1876 1.26106,-0.7109 -4.66405,1.9724 -3.40798,2.6922 z"
       id="path8705"
       style="display:block;fill:#000000;fill-opacity:1;fill-rule:nonzero;stroke:none;stroke-width:1pt;stroke-linecap:butt;stroke-linejoin:miter;stroke-opacity:1"
       inkscape:connector-curvature="0" />
    <path
       d="m 204.78582,6.7046 c 3.51131,-2.7111 9.01024,-8.0683 12.47187,-3.7249 2.58218,4.4358 3.19709,9.6467 4.73679,14.4953 0.71795,2.7041 2.13106,5.1333 3.3922,7.6063 -0.93084,2.6612 4.21936,2.1687 3.79415,2.371 -9.13004,4.3448 -5.1239,2.475 -3.12833,1.0696 0.32179,-0.2418 0.64357,-0.4836 0.96536,-0.7254 l 5.79187,-2.7008 c -0.32178,0.2418 -0.64358,0.4836 -0.96537,0.7254 -3.55469,2.5035 -10.31936,7.8927 -12.24953,1.961 -1.26115,-2.473 -2.67425,-4.9022 -3.39221,-7.6063 -1.53971,-4.8486 -2.1546,-10.0595 -4.73679,-14.4953 -0.70611,-0.886 -4.08217,-0.9852 -3.06131,-1.4765 9.95955,-4.7933 4.1684,-2.2166 2.17318,-0.2002 z"
       id="path8711"
       style="display:block;fill:#000000;fill-opacity:1;fill-rule:nonzero;stroke:none;stroke-width:1pt;stroke-linecap:butt;stroke-linejoin:miter;stroke-opacity:1"
       inkscape:connector-curvature="0" />
    <path
       d="m 228.70709,4.3941 c -13.76955,6.8489 1.61264,-4.9758 4.46848,-2.5521 3.14482,3.6062 3.37959,8.179 4.71646,12.5377 1.43044,3.3108 2.72609,6.6843 4.09271,10.0222 1.69874,5.6996 12.33521,-0.5962 1.88779,4.2353 0.24968,-0.171 0.49936,-0.3421 0.74904,-0.5132 l 5.79186,-2.7008 c -0.24968,0.1711 -0.49936,0.3422 -0.74903,0.5133 -3.47851,1.6322 -11.14498,7.0917 -13.47152,1.1662 -1.36663,-3.3379 -2.66227,-6.7114 -4.09271,-10.0222 -1.33687,-4.3587 -1.57164,-8.9316 -4.71646,-12.5377 -2.35341,-1.9973 -2.92572,-0.1843 4.00216,-3.3562 0.17305,-0.0792 -11.41271,9.3043 -8.47064,5.9083 z"
       id="path8713"
       style="display:block;fill:#000000;fill-opacity:1;fill-rule:nonzero;stroke:none;stroke-width:1pt;stroke-linecap:butt;stroke-linejoin:miter;stroke-opacity:1"
       inkscape:connector-curvature="0" />
    <path
       d="m 259.82961,5.3873 c 2.10389,-2.0986 10.45152,-7.2855 10.2018,-2.8943 -1.99185,5.9246 -4.92783,11.6282 -8.52034,16.7237 -1.83868,2.52 -3.70211,5.1014 -5.2434,7.7995 1.72535,1.1728 4.67097,-0.5604 6.56437,-1.3426 l -5.79186,2.7469 c -1.89341,0.7822 -4.83904,2.5154 -6.56437,1.3426 1.54129,-2.6981 3.40472,-5.2795 5.2434,-7.7995 3.59252,-5.0955 6.5285,-10.7991 8.52035,-16.7237 0.0496,-0.8716 -3.00722,-0.9188 -2.23526,-1.3006 9.54311,-4.7197 5.48495,-2.9735 3.61719,-1.2989 z"
       id="path8725"
       style="display:block;fill:#000000;fill-opacity:1;fill-rule:nonzero;stroke:none;stroke-width:1pt;stroke-linecap:butt;stroke-linejoin:miter;stroke-opacity:1"
       inkscape:connector-curvature="0" />
    <path
       d="m 271.30507,5.4551 c 2.09962,-2.633 7.04822,-5.9631 9.46843,-4.456 -1.79579,7.1986 -7.38245,13.1791 -11.14791,19.4605 -0.87385,2.4376 -5.43261,7.541 -0.59849,6.0492 0.8992,-0.1326 1.72774,-0.4556 2.56333,-0.7989 l -5.67796,3.0349 c -0.83558,0.3432 -1.66413,0.6662 -2.56333,0.7989 -4.83411,1.4918 -0.27535,-3.6117 0.5985,-6.0492 3.76546,-6.2813 9.35211,-12.2619 11.1479,-19.4605 -0.61037,-0.3801 -2.76522,0.329 -2.13704,-0.0186 9.2998,-5.1467 5.51863,-3.6581 4.02452,-1.5951 z"
       id="path8727"
       style="display:block;fill:#000000;fill-opacity:1;fill-rule:nonzero;stroke:none;stroke-width:1pt;stroke-linecap:butt;stroke-linejoin:miter;stroke-opacity:1"
       inkscape:connector-curvature="0" />
  </g>
</svg>
