<?xml version="1.0" encoding="UTF-8" standalone="no"?>
<svg
   xmlns:dc="http://purl.org/dc/elements/1.1/"
   xmlns:cc="http://creativecommons.org/ns#"
   xmlns:rdf="http://www.w3.org/1999/02/22-rdf-syntax-ns#"
   xmlns:svg="http://www.w3.org/2000/svg"
   xmlns="http://www.w3.org/2000/svg"
   xmlns:sodipodi="http://sodipodi.sourceforge.net/DTD/sodipodi-0.dtd"
   xmlns:inkscape="http://www.inkscape.org/namespaces/inkscape"
   version="1.1"
   sodipodi:docname="calligraphy-f10.svg"
   inkscape:version="1.0beta1 (a4ee55bc41, 2019-11-15)"
   sodipodi:version="0.32"
   viewBox="0 0 300 554"
   id="svg3117"
   height="554"
   width="300">
  <defs
     id="defs3" />
  <sodipodi:namedview
     inkscape:lockguides="true"
     id="base"
     pagecolor="#ffffff"
     bordercolor="#666666"
     borderopacity="1.0"
     inkscape:pageopacity="0.0"
     inkscape:pageshadow="2"
     inkscape:zoom="1.4"
     inkscape:cx="160"
     inkscape:cy="277"
     inkscape:document-units="px"
     inkscape:current-layer="layer1"
     inkscape:document-rotation="0"
     showgrid="false"
     units="px"
     showguides="true"
     inkscape:guide-bbox="true"
     inkscape:window-width="1866"
     inkscape:window-height="1053"
     inkscape:window-x="54"
     inkscape:window-y="27"
     inkscape:window-maximized="0" />
  <metadata
     id="metadata4">
    <rdf:RDF>
      <cc:Work
         rdf:about="">
        <dc:format>image/svg+xml</dc:format>
        <dc:type
           rdf:resource="http://purl.org/dc/dcmitype/StillImage" />
        <dc:title />
      </cc:Work>
    </rdf:RDF>
  </metadata>
  <g
     id="layer1"
     inkscape:groupmode="layer"
     inkscape:label="Layer 1">
    <path
       inkscape:connector-curvature="0"

       id="path10059"
       d="M 10.512859,15.8249 H 300.8131"
       style="display:block;fill:none;fill-opacity:0.75;fill-rule:evenodd;stroke:#aeaeae;stroke-width:0.594897;stroke-linecap:butt;stroke-linejoin:miter;stroke-miterlimit:4;stroke-dasharray:0.594897, 1.78469;stroke-dashoffset:0;stroke-opacity:1" />
    <path
       inkscape:connector-curvature="0"

       id="path10060"
       d="M 10.512821,44.2821 H 300.8131"
       style="display:block;fill:none;fill-opacity:0.75;fill-rule:evenodd;stroke:#aeaeae;stroke-width:0.594897;stroke-linecap:butt;stroke-linejoin:miter;stroke-miterlimit:4;stroke-dasharray:0.594897, 1.78469;stroke-dashoffset:0;stroke-opacity:1" />
    <path
       inkscape:connector-curvature="0"

       id="path10134"
       d="M 10.512859,90.8249 H 300.8131"
       style="display:block;fill:none;fill-opacity:0.75;fill-rule:evenodd;stroke:#aeaeae;stroke-width:0.594897;stroke-linecap:butt;stroke-linejoin:miter;stroke-miterlimit:4;stroke-dasharray:0.594897, 1.78469;stroke-dashoffset:0;stroke-opacity:1" />
    <path
       inkscape:connector-curvature="0"

       id="path10135"
       d="M 10.512821,119.2821 H 300.8131"
       style="display:block;fill:none;fill-opacity:0.75;fill-rule:evenodd;stroke:#aeaeae;stroke-width:0.594897;stroke-linecap:butt;stroke-linejoin:miter;stroke-miterlimit:4;stroke-dasharray:0.594897, 1.78469;stroke-dashoffset:0;stroke-opacity:1" />
    <path
       inkscape:connector-curvature="0"

       id="path10280"
       d="M 10.512859,185.8249 H 300.8131"
       style="display:block;fill:none;fill-opacity:0.75;fill-rule:evenodd;stroke:#aeaeae;stroke-width:0.594897;stroke-linecap:butt;stroke-linejoin:miter;stroke-miterlimit:4;stroke-dasharray:0.594897, 1.78469;stroke-dashoffset:0;stroke-opacity:1" />
    <path
       inkscape:connector-curvature="0"

       id="path10281"
       d="M 10.512821,214.2821 H 300.8131"
       style="display:block;fill:none;fill-opacity:0.75;fill-rule:evenodd;stroke:#aeaeae;stroke-width:0.594897;stroke-linecap:butt;stroke-linejoin:miter;stroke-miterlimit:4;stroke-dasharray:0.594897, 1.78469;stroke-dashoffset:0;stroke-opacity:1" />
    <path
       inkscape:connector-curvature="0"

       id="path10452"
       d="M 10.512859,270.8249 H 300.8131"
       style="display:block;fill:none;fill-opacity:0.75;fill-rule:evenodd;stroke:#aeaeae;stroke-width:0.594897;stroke-linecap:butt;stroke-linejoin:miter;stroke-miterlimit:4;stroke-dasharray:0.594897, 1.78469;stroke-dashoffset:0;stroke-opacity:1" />
    <path
       inkscape:connector-curvature="0"

       id="path10453"
       d="M 10.512821,299.2821 H 300.8131"
       style="display:block;fill:none;fill-opacity:0.75;fill-rule:evenodd;stroke:#aeaeae;stroke-width:0.594897;stroke-linecap:butt;stroke-linejoin:miter;stroke-miterlimit:4;stroke-dasharray:0.594897, 1.78469;stroke-dashoffset:0;stroke-opacity:1" />
    <text
       id="text10638"
       y="6"
       x="150"
       style="font-style:normal;font-variant:normal;font-weight:normal;font-stretch:normal;line-height:0%;font-family:'Liberation Sans',Arial,sans-serif;writing-mode:lr-tb;text-align:center;text-anchor:middle;display:block;fill:#000000;fill-opacity:1;stroke:none;stroke-width:1pt;stroke-linecap:butt;stroke-linejoin:miter;stroke-opacity:1"
       xml:space="preserve"><tspan
         style="font-size:6px;line-height:1.1;text-align:center;text-anchor:middle"
         y="6"
         x="150"
         id="tspan10639"
         sodipodi:role="line">Uncial hand</tspan></text>
    <text
       id="text10644"
       y="79.558548"
       x="150"
       style="font-style:normal;font-variant:normal;font-weight:normal;font-stretch:normal;line-height:0%;font-family:'Liberation Sans',Arial,sans-serif;writing-mode:lr-tb;text-align:center;text-anchor:middle;display:block;fill:#000000;fill-opacity:1;stroke:none;stroke-width:1pt;stroke-linecap:butt;stroke-linejoin:miter;stroke-opacity:1"
       xml:space="preserve"><tspan
         style="font-size:6px;line-height:1.1;text-align:center;text-anchor:middle"
         y="79.558548"
         x="150"
         id="tspan10645"
         sodipodi:role="line">Carolingian hand</tspan></text>
    <text
       id="text10648"
       y="172.05855"
       x="150"
       style="font-style:normal;font-variant:normal;font-weight:normal;font-stretch:normal;line-height:0%;font-family:'Liberation Sans',Arial,sans-serif;writing-mode:lr-tb;text-align:center;text-anchor:middle;display:block;fill:#000000;fill-opacity:1;stroke:none;stroke-width:1pt;stroke-linecap:butt;stroke-linejoin:miter;stroke-opacity:1"
       xml:space="preserve"><tspan
         style="font-size:6px;line-height:1.1;text-align:center;text-anchor:middle"
         y="172.05855"
         x="150"
         id="tspan10649"
         sodipodi:role="line">Gothic hand</tspan></text>
    <text
       id="text10652"
       y="257.05853"
       x="150"
       style="font-style:normal;font-variant:normal;font-weight:normal;font-stretch:normal;line-height:0%;font-family:'Liberation Sans',Arial,sans-serif;writing-mode:lr-tb;text-align:center;text-anchor:middle;display:block;fill:#000000;fill-opacity:1;stroke:none;stroke-width:1pt;stroke-linecap:butt;stroke-linejoin:miter;stroke-opacity:1"
       xml:space="preserve"><tspan
         style="font-size:6px;line-height:1.1;text-align:center;text-anchor:middle"
         y="257.05853"
         x="150"
         id="tspan10653"
         sodipodi:role="line">Bâtarde hand</tspan></text>
    <path
       inkscape:connector-curvature="0"

       sodipodi:nodetypes="cc"
       id="path10657"
       d="m 57.07552,430.38118 213.69149,2e-5"
       style="display:block;fill:none;fill-opacity:0.75;fill-rule:evenodd;stroke:#aeaeae;stroke-width:0.658201;stroke-linecap:butt;stroke-linejoin:miter;stroke-miterlimit:4;stroke-dasharray:0.6582, 1.9746;stroke-dashoffset:0;stroke-opacity:1" />
    <path
       inkscape:connector-curvature="0"

       sodipodi:nodetypes="cc"
       id="path10658"
       d="M 57.075478,461.86659 H 270.76701"
       style="display:block;fill:none;fill-opacity:0.75;fill-rule:evenodd;stroke:#aeaeae;stroke-width:0.658201;stroke-linecap:butt;stroke-linejoin:miter;stroke-miterlimit:4;stroke-dasharray:0.6582, 1.9746;stroke-dashoffset:0;stroke-opacity:1" />
    <text
       id="text10681"
       y="359.55853"
       x="150"
       style="font-style:normal;font-variant:normal;font-weight:normal;font-stretch:normal;line-height:0%;font-family:'Liberation Sans',Arial,sans-serif;writing-mode:lr-tb;text-align:center;text-anchor:middle;display:block;fill:#000000;fill-opacity:1;stroke:none;stroke-width:1pt;stroke-linecap:butt;stroke-linejoin:miter;stroke-opacity:1"
       xml:space="preserve"><tspan
         style="font-size:6px;line-height:1.1;text-align:center;text-anchor:middle"
         y="359.55853"
         x="150"
         id="tspan10682"
         sodipodi:role="line">Flourished Italic hand</tspan></text>
    <path
       inkscape:connector-curvature="0"
       d="m 50.90371,28.6303 c 12.545137,-7.0488 -5.071604,5.4998 -7.646928,10.1389 -1.877285,4.8471 5.578243,1.714 5.350067,1.8055 -9.235881,3.7027 1.243427,-1.9412 3.785716,-4.2463 0.395306,-0.3825 0.790611,-0.765 1.185918,-1.1476 l 5.912294,-2.757 c -0.395306,0.3826 -0.790612,0.7651 -1.185917,1.1477 -4.172821,3.7835 -20.211642,16.5391 -20.960373,7.9546 4.065688,-7.3236 12.118499,-12.2782 19.471518,-15.6528 z"
       id="path10071"
       style="display:block;fill:#000000;fill-opacity:1;fill-rule:nonzero;stroke:none;stroke-width:1pt;stroke-linecap:butt;stroke-linejoin:miter;stroke-opacity:1" />
    <path
       inkscape:connector-curvature="0"
       d="m 39.600315,21.4699 c 2.914741,-4.1907 10.292727,-8.167 14.399908,-3.9491 5.017672,6.6461 6.851764,14.9293 9.933027,22.5219 -0.294549,3.1391 6.286946,0.0479 5.075187,0.6246 -9.181339,4.3695 -5.446776,2.5794 -3.344607,1.3008 l 5.912295,-2.757 c -2.739582,1.6663 -10.917866,7.9834 -13.55517,3.5886 -3.081263,-7.5927 -4.915355,-15.8758 -9.933026,-22.522 -1.29137,-1.3262 -7.021512,-0.6351 -5.36014,-1.4513 9.885661,-4.8569 4.044132,-2.5258 2.78482,-0.1134 z"
       id="path10086"
       style="display:block;fill:#000000;fill-opacity:1;fill-rule:nonzero;stroke:none;stroke-width:1pt;stroke-linecap:butt;stroke-linejoin:miter;stroke-opacity:1" />
    <path
       inkscape:connector-curvature="0"
       d="m 116.40192,18.3728 c -2.93621,-0.3084 -11.85849,3.3326 -1.59934,-0.87 1.76748,-0.724 -2.96806,2.549 -4.16872,4.1072 -5.96733,8.6068 -0.52379,17.4637 8.19451,19.846 -1.00088,1.959 11.43035,-2.0802 10.01724,-1.438 -8.12824,3.6938 -3.73573,1.6967 -1.64916,-0.1482 l 5.79186,-2.873 c -5.40384,4.7777 -12.8098,8.5859 -19.9518,7.3322 -8.71831,-2.3822 -14.161844,-11.2391 -8.19451,-19.8459 4.12758,-5.3568 10.85594,-8.7983 17.35178,-8.9834 z"
       id="path10102"
       style="display:block;fill:#000000;fill-opacity:1;fill-rule:nonzero;stroke:none;stroke-width:1pt;stroke-linecap:butt;stroke-linejoin:miter;stroke-opacity:1" />
    <path
       inkscape:connector-curvature="0"
       d="m 119.22282,15.4996 c 3.2959,0.3999 6.64074,0.5455 9.96305,0.6605 1.83108,-0.1045 3.60226,0.3095 5.39372,0.6097 l -5.79187,2.7008 c -1.79146,-0.3002 -3.56264,-0.7143 -5.39371,-0.6097 -3.32231,-0.115 -6.66715,-0.2606 -9.96306,-0.6605 z"
       id="path10103"
       style="display:block;fill:#000000;fill-opacity:1;fill-rule:nonzero;stroke:none;stroke-width:1pt;stroke-linecap:butt;stroke-linejoin:miter;stroke-opacity:1" />
    <path
       inkscape:connector-curvature="0"
       d="m 127.55864,18.9932 c -1.9e-4,-0.0053 -3.7e-4,-0.0106 -5.5e-4,-0.0159 1.8998,-0.9379 3.77476,-1.928 5.69937,-2.814 1.23055,-0.5665 -0.37282,2.6862 -0.45753,4.0382 -0.26656,4.2548 -0.30209,8.5279 -0.4426,12.788 -0.63346,8.7078 -0.5953,17.39 -0.11155,26.0968 0.2313,1.9969 -0.39469,4.236 0.48032,5.7041 -8.31386,4.8969 -3.40587,1.494 0.13685,-0.9362 l 5.69655,-2.8963 c -3.71919,2.5512 -7.11932,5.2614 -11.52998,6.7288 -0.87498,-1.4681 -0.249,-3.707 -0.4803,-5.704 -0.48375,-8.7068 -0.52192,-17.3889 0.11155,-26.0968 0.28044,-8.5028 -2.37984,-16.4321 6.59442,-19.789 z"
       id="path10106"
       style="display:block;fill:#000000;fill-opacity:1;fill-rule:nonzero;stroke:none;stroke-width:1pt;stroke-linecap:butt;stroke-linejoin:miter;stroke-opacity:1" />
    <path
       inkscape:connector-curvature="0"
       d="m 138.91744,20.053 c 3.17662,-2.2091 8.25453,-4.5746 11.18826,-3.9876 -3.19732,5.2443 -5.79358,10.4648 -5.90095,16.8417 0.40861,9.3594 9.82437,9.7303 16.42124,7.0935 6.06761,-4.0587 -6.91264,4.7245 2.56772,-2.2153 l 5.79186,-2.8046 c -4.39297,3.2157 -9.21712,5.6071 -14.15144,7.8246 -6.59688,2.6368 -16.01264,2.2658 -16.42124,-7.0936 0.10737,-6.3769 2.70362,-11.5974 5.90094,-16.8417 -4.05055,-0.8104 -6.59161,2.2423 0.39548,-1.6216 z"
       id="path10119"
       style="display:block;fill:#000000;fill-opacity:1;fill-rule:nonzero;stroke:none;stroke-width:1pt;stroke-linecap:butt;stroke-linejoin:miter;stroke-opacity:1" />
    <path
       inkscape:connector-curvature="0"
       d="m 164.66709,16.1952 c 1.44416,-0.014 2.79819,-0.5768 4.1496,-1.0196 1.70547,1.369 1.13691,4.7905 1.18186,7.0481 -0.0489,3.7857 0.36595,7.5874 0.14642,11.369 -0.074,2.2377 -0.19742,4.4557 -0.38774,6.6822 0.007,0.4711 -0.0406,0.9394 -0.0609,1.4088 l -5.7302,2.8292 c 0.0203,-0.4693 0.068,-0.9377 0.0608,-1.4088 0.19033,-2.2265 0.31373,-4.4445 0.38776,-6.6821 0.21952,-3.7816 -0.19536,-7.5833 -0.14643,-11.369 -0.045,-2.2576 0.52361,-5.6791 -1.18186,-7.0481 -1.3514,0.4428 -2.70544,1.0055 -4.1496,1.0195 z"
       id="path10120"
       style="display:block;fill:#000000;fill-opacity:1;fill-rule:nonzero;stroke:none;stroke-width:1pt;stroke-linecap:butt;stroke-linejoin:miter;stroke-opacity:1" />
    <path
       inkscape:connector-curvature="0"
       d="m 180.36366,17.9402 c -14.65962,6.79 -0.0431,0.0243 0.39813,-0.1986 1.77694,-0.8976 -3.60939,1.6813 -5.42397,2.5002 -2.29563,1.036 4.54985,-2.1616 6.83433,-3.222 1.71358,-0.7953 -6.86791,3.1514 -5.13942,2.389 3.34544,-1.4757 7.54158,-4.6715 11.44516,-3.1848 2.99175,2.6457 4.35159,6.6379 5.84289,10.2439 1.48872,3.854 3.30104,7.5623 5.02097,11.3127 1.34458,3.5568 3.03708,4.3304 6.69539,2.924 3.96513,-2.4358 -7.10526,4.4793 -2.14178,0.4937 l 5.79186,-2.7008 c -2.78995,2.2403 -6.18421,3.462 -9.44194,4.9079 -3.65831,1.4064 -5.35081,0.6328 -6.6954,-2.924 -1.71992,-3.7504 -3.53224,-7.4587 -5.02097,-11.3127 -1.4913,-3.606 -2.85114,-7.5982 -5.84288,-10.244 -1.5329,-0.5837 -6.38461,0.9171 -4.91747,0.1836 2.72282,-1.3614 12.43432,-5.8035 -1.38827,0.6123 -1.7401,0.8077 3.46849,-1.6405 5.21205,-2.4407 2.22331,-1.0203 -4.43896,2.0595 -6.62242,3.1625 -0.44259,0.2236 15.91391,-7.4564 -0.39812,0.1986 z"
       id="path10125"
       style="display:block;fill:#000000;fill-opacity:1;fill-rule:nonzero;stroke:none;stroke-width:1pt;stroke-linecap:butt;stroke-linejoin:miter;stroke-opacity:1" />
    <path
       inkscape:connector-curvature="0"
       d="m 189.82865,28.4249 c 0.003,-0.0091 -1.41585,0.7716 -1.41136,0.7687 11.70788,-7.7296 -4.54433,3.3923 -7.47234,7.0358 -4.94216,8.5141 7.92325,1.3061 11.00903,-0.446 5.28597,-3.6058 -6.69322,5.0609 -1.86229,0.9359 l 5.79186,-3.8098 c -3.02617,2.5839 -6.4049,4.5924 -9.72143,6.6838 -3.08579,1.7521 -15.95119,8.9601 -11.00903,0.4459 5.3586,-6.6681 13.61619,-10.9721 20.46742,-15.4242 z"
       id="path10128"
       style="display:block;fill:#000000;fill-opacity:1;fill-rule:nonzero;stroke:none;stroke-width:1pt;stroke-linecap:butt;stroke-linejoin:miter;stroke-opacity:1" />
    <path
       inkscape:connector-curvature="0"
       d="m 223.94238,45.031 c -3.54447,0.0531 -7.11258,0.2812 -10.17035,-1.7805 -5.89471,-4.4527 -5.44403,-10.6326 -3.43864,-17.0057 3.60121,-7.7592 15.08653,-11.83 23.37774,-11.0083 5.57631,0.9619 8.12354,5.2378 8.81571,10.4393 0.4128,5.4164 0.0861,10.8402 0.25937,16.2681 l -5.5332,2.5804 c -0.17326,-5.4279 0.15341,-10.8517 -0.25939,-16.2681 -0.69218,-5.2015 -3.2394,-9.4778 -8.81569,-10.4393 -9.32544,-0.9242 -8.25379,-1.0743 -12.31131,5.8476 -2.0054,6.3733 -2.45608,12.5529 3.43863,17.006 3.05777,2.0614 6.62588,1.8336 10.17035,1.7805 z"
       id="path10130"
       style="display:block;fill:#000000;fill-opacity:1;fill-rule:nonzero;stroke:none;stroke-width:1pt;stroke-linecap:butt;stroke-linejoin:miter;stroke-opacity:1" />
    <path
       inkscape:connector-curvature="0"
       d="m 237.30518,27.2587 c 1.02573,-4.2747 5.0176,-8.0622 8.84326,-10.0525 9.52264,-6.1467 20.13705,-1.1902 22.39995,9.9732 0.98307,10.6092 -5.36753,14.2165 -13.97734,17.7434 l 5.53322,-2.58 c 0.23438,-0.0232 0.46876,-0.0461 0.70315,-0.0689 -1.56023,0.775 -3.12041,1.5499 -4.68063,2.3253 -1.06949,0.5269 2.1036,-1.1894 2.93602,-2.0429 3.22509,-3.3072 4.20503,-8.3512 3.95236,-12.7969 -1.04979,-5.1788 -5.25316,-10.1324 -9.97836,-12.5289 -2.99338,-1.518 -6.48487,0.0465 -5.57004,-0.526 1.32782,-0.8312 2.80993,-1.3855 4.2149,-2.0785 -3.82566,1.9905 -7.81753,5.7776 -8.84329,10.0527 z"
       id="path10133"
       style="display:block;fill:#000000;fill-opacity:1;fill-rule:nonzero;stroke:none;stroke-width:1pt;stroke-linecap:butt;stroke-linejoin:miter;stroke-opacity:1" />
    <path
       inkscape:connector-curvature="0"
       d="m 35.089079,96.8075 c 12.002578,-10.5465 18.806627,-7.7504 23.456976,2.1337 2.905259,5.9344 5.363239,14.8914 12.815794,16.5446 l -10.490673,4.5013 c -7.452555,-1.6532 -9.910535,-10.6102 -12.815793,-16.5446 -1.373756,-2.9198 -2.844375,-6.1192 -5.467341,-8.0733 -0.890635,-0.6636 -4.465531,-0.4258 -3.299262,-1.0214 3.100928,-1.5837 6.307807,-2.8585 9.468145,-4.2666 1.15981,-0.5167 -4.232667,1.8573 -3.177173,2.225 z"
       id="path10157"
       style="display:block;fill:#000000;fill-opacity:1;fill-rule:nonzero;stroke:none;stroke-width:1pt;stroke-linecap:butt;stroke-linejoin:miter;stroke-opacity:1" />
    <path
       inkscape:connector-curvature="0"
       d="m 54.821869,99.139 c -5.016542,4.1907 -10.337733,8.2613 -14.311319,13.5097 -2.044764,6.7677 11.147838,0.4892 11.03107,0.5423 -14.379014,6.5371 0.610031,-1.586 3.877596,-4.1971 l 9.653107,-4.5013 c -4.791031,3.8285 -36.040637,23.5007 -34.21488,12.6574 3.973587,-5.2484 9.294778,-9.319 14.311319,-13.5097 z"
       id="path10158"
       style="display:block;fill:#000000;fill-opacity:1;fill-rule:nonzero;stroke:none;stroke-width:1pt;stroke-linecap:butt;stroke-linejoin:miter;stroke-opacity:1" />
    <path
       inkscape:connector-curvature="0"
       d="m 70.468613,105.6715 c 5.606711,-4.9097 16.258872,-6.1463 25.361093,-7.4321 3.74769,-0.5156 1.9467,-0.2724 5.402454,-0.7317 l -9.069508,4.6181 c -3.455749,0.4593 -1.65477,0.216 -5.402455,0.7317 -6.311669,0.8916 -29.019399,6.1718 -7.222049,-1.804 z"
       id="path10160"
       style="display:block;fill:#000000;fill-opacity:1;fill-rule:nonzero;stroke:none;stroke-width:1pt;stroke-linecap:butt;stroke-linejoin:miter;stroke-opacity:1" />
    <path
       inkscape:connector-curvature="0"
       d="m 84.780888,103.467 c -0.367935,-3.4483 -0.08013,-6.4338 -3.711812,-7.5839 0.471654,-1.7733 -6.528802,2.0277 -5.025356,1.2187 15.48164,-8.3307 -0.450205,-1.0774 3.732118,10.349 3.86027,7.1549 12.362128,8.8961 18.769888,7.6432 1.623454,-0.3175 6.057464,-2.4348 4.647944,-1.6102 -2.27264,1.3297 -4.649804,2.4723 -6.974694,3.7085 l 9.069524,-4.9098 c -8.814074,4.8247 -25.710969,15.3032 -34.582184,0.0781 -4.568865,-12.4825 10.267577,-21.0537 19.432283,-21.3874 3.631671,1.1502 3.343887,4.1357 3.711822,7.584 z"
       id="path10168"
       style="display:block;fill:#000000;fill-opacity:1;fill-rule:nonzero;stroke:none;stroke-width:1pt;stroke-linecap:butt;stroke-linejoin:miter;stroke-opacity:1" />
    <path
       inkscape:connector-curvature="0"
       d="m 118.51755,96.2353 c -2.9887,-1.7214 -6.64096,-1.8643 -10.00423,-1.4384 0.7993,-0.5659 -2.56842,0.7915 -1.95978,0.5013 15.75108,-7.5108 4.37531,-2.0568 3.42083,6.419 0.14261,6.9639 5.13153,11.404 11.53856,12.7148 4.5687,0.8176 9.10994,0.7953 13.44528,-0.9375 l -9.65311,4.5013 c -4.33533,1.7328 -8.87658,1.7551 -13.44528,0.9375 -6.40702,-1.3107 -11.39595,-5.7509 -11.53856,-12.7148 1.03527,-9.1931 8.87672,-14.4415 17.84517,-15.9229 3.36326,-0.4259 7.01553,-0.283 10.00423,1.4384 z"
       id="path10170"
       style="display:block;fill:#000000;fill-opacity:1;fill-rule:nonzero;stroke:none;stroke-width:1pt;stroke-linecap:butt;stroke-linejoin:miter;stroke-opacity:1" />
    <path
       inkscape:connector-curvature="0"
       d="m 125.88074,94.1018 c 3.2038,-1.4779 6.38016,-3.0169 9.6114,-4.4338 0.61707,-0.2706 -0.5438,1.2345 -0.76602,1.8706 -0.9622,2.7543 -1.51214,5.6223 -1.974,8.4977 -1.52772,9.5113 -2.46678,19.1447 -3.61441,28.7072 -0.78776,7.7818 -1.7118,15.5442 -3.0008,23.2593 l -9.65311,4.5013 c 1.28901,-7.7151 2.21304,-15.4774 3.0008,-23.2593 0.39415,-3.2842 4.01192,-37.9204 6.35443,-39.0755 3.20416,-1.5799 6.46321,-3.0459 9.69481,-4.5688 z"
       id="path10196"
       style="display:block;fill:#000000;fill-opacity:1;fill-rule:nonzero;stroke:none;stroke-width:1pt;stroke-linecap:butt;stroke-linejoin:miter;stroke-opacity:1" />
    <path
       inkscape:connector-curvature="0"
       d="m 124.83484,95.845 c 1.5561,-3.4759 6.9537,-4.2822 10.3465,-5.5574 1.96071,-0.8047 3.93611,-1.5661 5.92036,-2.2946 l -6.37428,3.3216 c -1.98425,0.7284 -3.95965,1.4898 -5.92036,2.2945 -8.50833,3.1979 4.9435,-4.4084 2.40206,-1.0856 z"
       id="path10197"
       style="display:block;fill:#000000;fill-opacity:1;fill-rule:nonzero;stroke:none;stroke-width:1pt;stroke-linecap:butt;stroke-linejoin:miter;stroke-opacity:1" />
    <path
       inkscape:connector-curvature="0"
       d="m 135.67566,96.5423 c 3.24124,-0.8343 14.36681,-10.2324 16.10556,-2.478 0.54946,5.9063 -2.4472,11.2041 -1.92897,17.1628 -2.16112,5.136 9.38983,2.6341 8.50993,3.048 -14.45526,6.7993 -8.45033,4.0859 -5.0509,1.4269 l 9.65311,-4.5013 c -4.82662,3.7753 -18.84231,14.075 -22.76525,4.5277 -0.51822,-5.9587 2.47843,-11.2565 1.92898,-17.1627 -1.74356,-7.7759 -16.48831,3.4536 3.20065,-6.5247 z"
       id="path10200"
       style="display:block;fill:#000000;fill-opacity:1;fill-rule:nonzero;stroke:none;stroke-width:1pt;stroke-linecap:butt;stroke-linejoin:miter;stroke-opacity:1" />
    <path
       inkscape:connector-curvature="0"
       d="m 166.55426,90.3395 c 4.82178,-0.4395 5.50315,3.0337 4.84233,7.2041 -1.48149,6.6399 -5.3752,16.9986 4.6907,17.0473 2.30087,-0.2513 1.14684,-0.0634 3.46066,-0.5723 l -9.65311,4.5013 c -2.31382,0.5089 -1.15979,0.321 -3.46066,0.5723 -10.0659,-0.0487 -6.17219,-10.4073 -4.6907,-17.0473 0.66083,-4.1704 -0.0206,-7.6436 -4.84232,-7.2041 z"
       id="path10206"
       style="display:block;fill:#000000;fill-opacity:1;fill-rule:nonzero;stroke:none;stroke-width:1pt;stroke-linecap:butt;stroke-linejoin:miter;stroke-opacity:1" />
    <path
       inkscape:connector-curvature="0"
       d="m 125.3365,91.0367 c 3.38232,0.4437 6.68575,1.8276 9.69484,3.4237 l -9.65311,4.5014 c -3.00908,-1.5962 -6.31251,-2.9801 -9.69484,-3.4237 z"
       id="path10225"
       style="display:block;fill:#000000;fill-opacity:1;fill-rule:nonzero;stroke:none;stroke-width:1pt;stroke-linecap:butt;stroke-linejoin:miter;stroke-opacity:1" />
    <path
       inkscape:connector-curvature="0"
       d="m 181.34781,94.4504 c 7.99083,-4.1402 12.3128,-7.9771 17.57817,-0.2953 4.60094,6.0677 5.04619,15.5438 11.78444,19.8412 1.81096,0.9289 3.82276,1.3295 5.79817,1.7431 l -9.65311,4.5013 c -1.9754,-0.4136 -3.9872,-0.8141 -5.79817,-1.7431 -6.73825,-4.2974 -7.1835,-13.7735 -11.78444,-19.8412 -5.14912,-7.5121 -14.09318,-1.8162 1.72805,-8.7073 z"
       id="path10226"
       style="display:block;fill:#000000;fill-opacity:1;fill-rule:nonzero;stroke:none;stroke-width:1pt;stroke-linecap:butt;stroke-linejoin:miter;stroke-opacity:1" />
    <path
       inkscape:connector-curvature="0"
       d="m 188.02873,106.0807 c 24.90343,-12.2571 -8.63765,3.872 0.88522,9.0946 -0.50441,1.4869 8.85475,-1.5519 8.3704,-1.3473 -14.62285,6.1783 -5.89944,2.0331 -1.99695,-1.0387 l 9.65311,-4.5013 c -7.2054,5.6717 -16.19521,12.5269 -25.67967,11.3886 -8.24655,-4.5226 16.94753,-20.4171 18.421,-18.0972 z"
       id="path10229"
       style="display:block;fill:#000000;fill-opacity:1;fill-rule:nonzero;stroke:none;stroke-width:1pt;stroke-linecap:butt;stroke-linejoin:miter;stroke-opacity:1" />
    <path
       inkscape:connector-curvature="0"
       d="m 212.30475,97.2396 c 2.81605,-2.3399 12.5377,-10.1865 15.4634,-3.3427 1.13849,7.2409 -0.71975,14.2916 -0.6075,21.5248 l -9.23193,4.5013 c -0.11225,-7.2332 1.746,-14.2839 0.60749,-21.5248 -2.72148,-6.3661 -13.26992,1.7885 3.94144,-6.4905 0.38083,-0.1832 -1.36009,0.6588 -0.94096,0.8306 z"
       id="path10231"
       style="display:block;fill:#000000;fill-opacity:1;fill-rule:nonzero;stroke:none;stroke-width:1pt;stroke-linecap:butt;stroke-linejoin:miter;stroke-opacity:1" />
    <path
       inkscape:connector-curvature="0"
       d="m 216.25725,103.1248 c 6.39601,-6.0802 16.05094,-13.1276 25.4599,-13.0095 8.04463,3.102 7.60352,15.6224 6.38525,21.9568 -0.2462,1.0793 -0.55664,2.1367 -0.85134,3.1993 l -9.23193,4.5013 c 0.29469,-1.0626 0.60514,-2.12 0.85134,-3.1993 1.21826,-6.3344 1.65937,-18.8548 -6.38525,-21.9567 -4.2411,-0.0533 -13.72667,5.1277 1.45791,-2.1619 0.71349,-0.3425 -9.45195,6.0588 -8.45394,6.1687 z"
       id="path10239"
       style="display:block;fill:#000000;fill-opacity:1;fill-rule:nonzero;stroke:none;stroke-width:1pt;stroke-linecap:butt;stroke-linejoin:miter;stroke-opacity:1" />
    <path
       inkscape:connector-curvature="0"
       d="m 247.31557,97.2835 c -24.20834,12.2074 7.75178,-8.0971 16.71924,-7.6526 5.66518,3.7921 3.4337,16.9722 2.49461,22.7561 -0.12412,0.5948 -0.24004,1.1922 -0.36007,1.7882 l -9.23192,4.6587 c 0.0311,-0.1546 0.33614,-1.6912 0.36006,-1.7884 0.93909,-5.7837 3.17056,-18.964 -2.49462,-22.756 -4.83101,-0.2394 -16.55598,5.9686 -1.57517,-1.6584 0.16089,-0.0819 -12.9089,9.4327 -15.14406,9.311 z"
       id="path10251"
       style="display:block;fill:#000000;fill-opacity:1;fill-rule:nonzero;stroke:none;stroke-width:1pt;stroke-linecap:butt;stroke-linejoin:miter;stroke-opacity:1" />
    <path
       inkscape:connector-curvature="0"
       d="m 69.751192,30.2011 c 6.417649,-0.2349 12.931813,-2.8204 19.172748,-4.5631 2.747698,-1.0597 5.653565,-1.4539 8.518996,-2.0181 l -5.791857,2.7008 c -2.865434,0.5642 -5.771304,0.9584 -8.519003,2.0181 -6.240935,1.7427 -12.755099,4.3282 -19.172747,4.5631 z"
       id="path10259"
       style="display:block;fill:#000000;fill-opacity:1;fill-rule:nonzero;stroke:none;stroke-width:1pt;stroke-linecap:butt;stroke-linejoin:miter;stroke-opacity:1" />
    <path
       inkscape:connector-curvature="0"
       d="m 92.157658,25.491 c -0.797956,-2.3127 -2.420793,-4.2048 -4.318958,-5.9205 0.926776,-3.2401 -9.828758,0.2899 -8.297486,-0.3129 4.931758,-1.9416 6.033966,-2.5572 3.418473,-1.212 -4.225276,2.3898 -6.979509,6.6191 -8.278591,10.7882 0.157134,3.3645 1.865075,6.797 4.305089,9.3878 3.180355,2.7308 6.65445,4.4651 11.211954,4.1796 0.742296,0.3279 8.092737,-2.3546 6.795787,-1.9326 -8.098395,2.6351 -0.96665,-0.3951 1.2618,-2.3563 l 5.791864,-2.3604 c -5.269754,4.6377 -12.361572,7.655 -19.641315,9.0097 -4.557504,0.2855 -8.031599,-1.4488 -11.211954,-4.1795 -2.440014,-2.5908 -4.147955,-6.0234 -4.305089,-9.3878 1.299082,-4.1692 4.053315,-8.3984 8.278591,-10.7883 4.28306,-2.2028 11.698089,-7.0262 16.462741,-3.196 1.898162,1.7157 3.521002,3.6079 4.318962,5.9206 z"
       id="path10279"
       style="display:block;fill:#000000;fill-opacity:1;fill-rule:nonzero;stroke:none;stroke-width:1pt;stroke-linecap:butt;stroke-linejoin:miter;stroke-opacity:1" />
    <path
       inkscape:connector-curvature="0"
       d="m 79.653904,170.7802 c 7.295059,-12.0266 10.891785,-5.5026 11.671126,3.9126 1.743088,21.4542 -11.926758,37.3188 -31.150882,42.9327 l 4.895495,-4.3333 c 16.049054,-4.6867 21.97859,-13.8761 21.359892,-34.2661 -0.248703,-3.0046 -0.34175,-6.4007 -1.763993,-9.1193 -0.559411,-1.0693 -4.189587,-0.2201 -3.330718,-1.0391 7.938105,-7.5698 4.375597,-4.5133 3.214575,-2.4208 z"
       id="path10286"
       style="display:block;fill:#000000;fill-opacity:1;fill-rule:nonzero;stroke:none;stroke-width:1pt;stroke-linecap:butt;stroke-linejoin:miter;stroke-opacity:1" />
    <path
       inkscape:connector-curvature="0"
       d="m 103.80896,167.2269 c 0.36853,-0.4928 -2.07708,1.3187 -1.57711,0.9598 1.43134,-1.0272 2.82945,-2.1058 4.31929,-3.0461 1.7363,-1.0959 -2.69625,3.1773 -3.50731,5.0637 -1.79964,4.1853 -2.66601,8.7382 -2.98673,13.2546 0.47774,11.359 1.91003,28.2058 16.34187,27.4032 l -5.18951,3.7296 c -14.431835,0.8025 -15.864124,-16.0443 -16.341864,-27.4033 0.75613,-10.648 4.129769,-18.6491 14.130854,-23.6909 z"
       id="path10307"
       style="display:block;fill:#000000;fill-opacity:1;fill-rule:nonzero;stroke:none;stroke-width:1pt;stroke-linecap:butt;stroke-linejoin:miter;stroke-opacity:1" />
    <path
       inkscape:connector-curvature="0"
       d="m 84.576601,195.1825 c 4.436079,-5.0613 9.925945,-6.5011 15.837679,-8.9022 0.22146,-0.0801 0.44291,-0.1602 0.66436,-0.2403 l -4.895494,4.1079 c -0.22146,0.08 -0.44291,0.1601 -0.66436,0.2402 -3.849757,1.5636 -16.527331,7.4778 -6.04669,0.6866 z"
       id="path10312"
       style="display:block;fill:#000000;fill-opacity:1;fill-rule:nonzero;stroke:none;stroke-width:1pt;stroke-linecap:butt;stroke-linejoin:miter;stroke-opacity:1" />
    <path
       inkscape:connector-curvature="0"
       d="m 86.465123,195.0427 c 2.958647,-1.3915 6.07722,-2.393 9.183612,-3.3963 l -2.28456,1.917 c -3.106397,1.0033 -6.224969,2.0048 -9.183617,3.3962 z"
       id="path10313"
       style="display:block;fill:#000000;fill-opacity:1;fill-rule:nonzero;stroke:none;stroke-width:1pt;stroke-linecap:butt;stroke-linejoin:miter;stroke-opacity:1" />
    <path
       inkscape:connector-curvature="0"
       d="m 65.621989,215.1295 c 2.28195,-0.045 -7.613257,2.79 -5.706356,2.1024 6.617095,-2.3862 14.816109,-6.1164 22.025254,-4.7255 6.221798,3.845 9.329447,8.2492 17.354239,8.5184 0.753764,-0.0279 1.507514,-0.0557 2.261274,-0.0836 l -6.005214,2.1857 c -0.75376,0.0279 -1.507515,0.0558 -2.26127,0.0836 -8.024795,-0.2692 -11.132445,-4.6734 -17.354242,-8.5184 -3.874349,-0.7475 -7.884807,0.2778 -11.669216,1.1755 -1.359075,0.3224 -5.310056,1.7332 -3.999843,1.2491 1.882741,-0.6956 7.542361,-2.7514 5.654232,-2.0706 -2.07165,0.7471 -4.136534,1.5128 -6.204801,2.2692 -0.03309,0 -0.06618,0 -0.09927,0 z"
       id="path10334"
       style="display:block;fill:#000000;fill-opacity:1;fill-rule:nonzero;stroke:none;stroke-width:1pt;stroke-linecap:butt;stroke-linejoin:miter;stroke-opacity:1" />
    <path
       inkscape:connector-curvature="0"
       d="m 120.97834,186.0119 c 0.64492,4.4879 0.68441,9.0448 0.48513,13.5696 -0.1643,2.5114 -0.0962,5.0323 -0.17924,7.5434 -0.70523,3.1266 3.22023,3.6183 5.30077,5.1701 l -4.8955,4.1078 c -2.08053,-1.5518 -6.006,-2.0434 -5.30076,-5.17 0.083,-2.5112 0.0149,-5.0321 0.17923,-7.5435 0.19928,-4.5248 0.1598,-9.0816 -0.48512,-13.5696 z"
       id="path10336"
       style="display:block;fill:#000000;fill-opacity:1;fill-rule:nonzero;stroke:none;stroke-width:1pt;stroke-linecap:butt;stroke-linejoin:miter;stroke-opacity:1" />
    <path
       inkscape:connector-curvature="0"
       d="m 124.54817,184.2687 c 2.22855,2.3532 5.20264,3.9253 8.03474,5.4539 0.16496,0.0949 0.32993,0.1897 0.49489,0.2846 l -4.89549,4.1078 c -0.16497,-0.0949 -0.32993,-0.1897 -0.4949,-0.2846 -2.83209,-1.5286 -5.80618,-3.1007 -8.03473,-5.4539 z"
       id="path10339"
       style="display:block;fill:#000000;fill-opacity:1;fill-rule:nonzero;stroke:none;stroke-width:1pt;stroke-linecap:butt;stroke-linejoin:miter;stroke-opacity:1" />
    <path
       inkscape:connector-curvature="0"
       d="m 128.94091,193.5227 c -3.65605,0.9384 -16.26572,11.7284 -7.1865,4.1504 -0.50082,0.1948 -0.58029,0.7142 -0.87043,1.0713 l -4.8955,4.1078 c 0.29014,-0.3571 0.36961,-0.8765 0.87043,-1.0713 5.09933,-4.2944 10.77324,-9.7418 16.9775,-12.366 z"
       id="path10343"
       style="display:block;fill:#000000;fill-opacity:1;fill-rule:nonzero;stroke:none;stroke-width:1pt;stroke-linecap:butt;stroke-linejoin:miter;stroke-opacity:1" />
    <path
       inkscape:connector-curvature="0"
       d="m 115.02835,198.7486 c 5.52597,-1.033 11.22406,-0.6492 16.82209,-0.4046 0.29449,0.0104 0.58897,0.0208 0.88346,0.0311 h -6.39062 c -0.29448,-0.0103 -0.58897,-0.0207 -0.88345,-0.0311 -11.03812,-0.4824 9.23867,-0.7373 -4.04087,0.4046 z"
       id="path10353"
       style="display:block;fill:#000000;fill-opacity:1;fill-rule:nonzero;stroke:none;stroke-width:1pt;stroke-linecap:butt;stroke-linejoin:miter;stroke-opacity:1" />
    <path
       inkscape:connector-curvature="0"
       d="m 120.34996,216.4497 c 3.57231,-3.0124 7.19843,-6.085 11.20898,-8.5237 l -4.8955,4.1078 c -4.14949,2.5232 -8.36056,6.254 -1.41798,0.3081 z"
       id="path10357"
       style="display:block;fill:#000000;fill-opacity:1;fill-rule:nonzero;stroke:none;stroke-width:1pt;stroke-linecap:butt;stroke-linejoin:miter;stroke-opacity:1" />
    <path
       inkscape:connector-curvature="0"
       d="m 138.7845,185.3146 c -0.10173,3.9811 0.0709,7.9416 0.41054,11.9065 0.25621,3.2042 0.33369,6.4249 0.24876,9.635 l -4.8955,4.1078 c 0.0849,-3.2101 0.007,-6.4307 -0.24876,-9.635 -0.33959,-3.9649 -0.51226,-7.9254 -0.41053,-11.9065 z"
       id="path10361"
       style="display:block;fill:#000000;fill-opacity:1;fill-rule:nonzero;stroke:none;stroke-width:1pt;stroke-linecap:butt;stroke-linejoin:miter;stroke-opacity:1" />
    <path
       inkscape:connector-curvature="0"
       d="m 133.8473,210.6062 c 5.51151,-5.6998 5.748,-2.8929 11.4399,0.5036 l -4.8955,4.1078 c -5.56588,-3.3213 -9.48126,-3.4591 -1.6489,-8.7192 z"
       id="path10364"
       style="display:block;fill:#000000;fill-opacity:1;fill-rule:nonzero;stroke:none;stroke-width:1pt;stroke-linecap:butt;stroke-linejoin:miter;stroke-opacity:1" />
    <path
       inkscape:connector-curvature="0"
       d="m 139.50899,214.7482 c 2.37912,-3.7327 5.73942,-3.996 8.81872,-6.2078 l -4.89549,4.1078 c -2.39511,1.7203 -9.34326,4.683 0.97226,-2.0078 z"
       id="path10365"
       style="display:block;fill:#000000;fill-opacity:1;fill-rule:nonzero;stroke:none;stroke-width:1pt;stroke-linecap:butt;stroke-linejoin:miter;stroke-opacity:1" />
    <path
       inkscape:connector-curvature="0"
       d="m 141.61535,182.7907 c 2.39651,1.0011 3.88709,3.3319 5.68446,5.1199 0.73541,0.6143 1.57091,1.0703 2.39572,1.5448 l -4.89549,4.1078 c -0.82481,-0.4744 -1.66032,-0.9305 -2.39573,-1.5448 -1.79737,-1.788 -3.28795,-4.1188 -5.68446,-5.1199 z"
       id="path10367"
       style="display:block;fill:#000000;fill-opacity:1;fill-rule:nonzero;stroke:none;stroke-width:1pt;stroke-linecap:butt;stroke-linejoin:miter;stroke-opacity:1" />
    <path
       inkscape:connector-curvature="0"
       d="m 150.2897,187.0161 c -1.32333,5.9376 -1.08778,12.1861 -0.84564,18.2355 0.4533,7.8899 0.42812,15.8169 -0.0262,23.7022 -0.0452,0.3286 -0.0904,0.6573 -0.13558,0.9859 l -4.89549,4.1078 c 0.0452,-0.3286 0.0904,-0.6572 0.13558,-0.9859 0.45426,-7.8852 0.47944,-15.8123 0.0262,-23.7022 -0.24215,-6.0494 -0.47769,-12.2978 0.84564,-18.2355 z"
       id="path10369"
       style="display:block;fill:#000000;fill-opacity:1;fill-rule:nonzero;stroke:none;stroke-width:1pt;stroke-linecap:butt;stroke-linejoin:miter;stroke-opacity:1" />
    <path
       inkscape:connector-curvature="0"
       d="m 146.17642,232.222 c 8.00709,-7.567 1.55632,-1.136 -1.1539,2.3671 -0.12779,0.1766 -0.25559,0.3531 -0.38339,0.5297 l -4.89549,4.1078 c 0.1278,-0.1766 0.25559,-0.3531 0.38339,-0.5297 3.14985,-4.0713 6.66128,-7.6615 10.94489,-10.5827 z"
       id="path10371"
       style="display:block;fill:#000000;fill-opacity:1;fill-rule:nonzero;stroke:none;stroke-width:1pt;stroke-linecap:butt;stroke-linejoin:miter;stroke-opacity:1" />
    <path
       inkscape:connector-curvature="0"
       d="m 155.23781,183.8366 c 1.40056,0.6379 2.64754,1.7277 3.96349,2.5966 -0.0112,0.04 0.59603,0.4126 0.62053,0.4296 l -4.89549,4.1078 c -0.20684,-0.1432 -0.43599,-0.2541 -0.62053,-0.4296 -1.31595,-0.8689 -2.56293,-1.9587 -3.9635,-2.5966 z"
       id="path10397"
       style="display:block;fill:#000000;fill-opacity:1;fill-rule:nonzero;stroke:none;stroke-width:1pt;stroke-linecap:butt;stroke-linejoin:miter;stroke-opacity:1" />
    <path
       inkscape:connector-curvature="0"
       d="m 159.74183,185.5285 c -0.625,3.5736 -0.32005,7.2307 -0.14964,10.8334 0.257,3.2779 0.0357,6.5576 0.15327,9.8394 -0.0765,0.7254 0.16362,1.3707 0.34278,2.0404 l -4.68077,4.3509 c -0.17916,-0.6697 -0.41923,-1.3148 -0.34277,-2.0404 -0.11759,-3.2819 0.10373,-6.5615 -0.15328,-9.8395 -0.17041,-3.6026 -0.47535,-7.2597 0.14965,-10.8333 z"
       id="path10398"
       style="display:block;fill:#000000;fill-opacity:1;fill-rule:nonzero;stroke:none;stroke-width:1pt;stroke-linecap:butt;stroke-linejoin:miter;stroke-opacity:1" />
    <path
       inkscape:connector-curvature="0"
       d="m 155.53024,211.22 c 5.59302,-5.4944 4.07375,-3.9032 8.56661,-0.5077 0.82115,0.7846 1.71241,1.4604 2.64083,2.1053 l -4.89549,4.1078 c -0.92843,-0.6449 -1.81969,-1.3207 -2.64084,-2.1053 -4.45258,-3.3651 -5.31739,-3.1085 1.22438,-7.7079 z"
       id="path10399"
       style="display:block;fill:#000000;fill-opacity:1;fill-rule:nonzero;stroke:none;stroke-width:1pt;stroke-linecap:butt;stroke-linejoin:miter;stroke-opacity:1" />
    <path
       inkscape:connector-curvature="0"
       d="m 166.743,183.8366 c -10.0164,9.6059 -0.74999,-4.3034 4.11261,1.7718 0.25091,0.4826 0.75038,0.7181 1.12168,1.0734 l -4.89549,4.1078 c -0.37131,-0.3553 -0.87078,-0.5908 -1.12168,-1.0734 -0.67631,-0.845 -1.36789,-1.9215 -2.4869,-2.1921 -0.41439,-0.1002 -1.59567,0.3852 -1.27474,0.1045 9.3617,-8.1863 2.97276,-2.2954 -0.35098,0.3158 z"
       id="path10400"
       style="display:block;fill:#000000;fill-opacity:1;fill-rule:nonzero;stroke:none;stroke-width:1pt;stroke-linecap:butt;stroke-linejoin:miter;stroke-opacity:1" />
    <path
       inkscape:connector-curvature="0"
       d="m 171.27535,186.0119 c 0.47194,3.486 0.30931,7.0576 0.30919,10.5763 -0.0575,3.1603 0.11318,6.3326 -0.10154,9.4843 -0.2712,1.0764 -0.13728,2.0241 0.11963,3.0593 l -4.89549,4.1078 c -0.25692,-1.0352 -0.39083,-1.9829 -0.11963,-3.0593 0.21472,-3.1517 0.044,-6.324 0.10153,-9.4843 1.3e-4,-3.5187 0.16275,-7.0903 -0.30919,-10.5763 z"
       id="path10401"
       style="display:block;fill:#000000;fill-opacity:1;fill-rule:nonzero;stroke:none;stroke-width:1pt;stroke-linecap:butt;stroke-linejoin:miter;stroke-opacity:1" />
    <path
       inkscape:connector-curvature="0"
       d="m 177.00315,188.4206 c 5.59376,-6.2462 3.27188,-2.1542 3.22702,3.406 -0.0651,3.3934 0.30724,6.7696 0.35674,10.1613 0.0949,1.6892 -0.14869,3.6517 0.65686,5.082 2.57292,0.77 4.67696,2.3152 6.7972,3.8421 0.19839,0.127 0.39677,0.2539 0.59516,0.3808 l -4.8955,3.8867 c -0.19838,-0.1269 -0.39677,-0.2538 -0.59516,-0.3807 -2.12024,-1.527 -4.22428,-3.0722 -6.7972,-3.8422 -0.80555,-1.4302 -0.562,-3.3928 -0.65685,-5.0819 -0.0495,-3.3918 -0.42184,-6.7679 -0.35674,-10.1613 0.0492,-6.1003 -0.003,-7.4905 6.56396,-11.1795 z"
       id="path10403"
       style="display:block;fill:#000000;fill-opacity:1;fill-rule:nonzero;stroke:none;stroke-width:1pt;stroke-linecap:butt;stroke-linejoin:miter;stroke-opacity:1" />
    <path
       inkscape:connector-curvature="0"
       d="m 182.3724,184.5339 c 1.80926,-0.141 3.32827,0.0134 4.92899,0.8529 1.14755,0.6966 2.42885,0.948 3.73308,1.1457 l -4.8955,4.1078 c -1.30423,-0.1977 -2.58552,-0.4491 -3.73307,-1.1457 -1.60073,-0.8395 -3.11973,-0.9939 -4.929,-0.8529 z"
       id="path10404"
       style="display:block;fill:#000000;fill-opacity:1;fill-rule:nonzero;stroke:none;stroke-width:1pt;stroke-linecap:butt;stroke-linejoin:miter;stroke-opacity:1" />
    <path
       inkscape:connector-curvature="0"
       d="m 190.6419,186.2015 c -4.60867,3.2396 5.39804,-5.8243 2.0845,-1.7324 -1.38117,1.6714 -1.33105,3.6203 -1.33977,5.6763 0.007,2.5846 0.009,5.1691 0.009,7.7537 -4e-5,2.3546 -6e-5,4.7092 -6e-5,7.0638 -0.0639,2.5694 0.26832,4.4299 2.83793,5.3201 2.09645,0.9045 3.86411,1.3429 6.079,0.7945 l -4.89549,4.1078 c -2.2149,0.5485 -3.98255,0.11 -6.079,-0.7945 -2.56961,-0.8901 -2.90178,-2.7507 -2.83793,-5.3201 0,-2.3546 1e-5,-4.7092 6e-5,-7.0638 -1.1e-4,-2.5846 -0.002,-5.1691 -0.009,-7.7537 0.009,-2.056 -0.0414,-4.0049 1.33977,-5.6763 2.11445,-2.6112 4.81713,-4.8612 7.70649,-6.4832 z"
       id="path10409"
       style="display:block;fill:#000000;fill-opacity:1;fill-rule:nonzero;stroke:none;stroke-width:1pt;stroke-linecap:butt;stroke-linejoin:miter;stroke-opacity:1" />
    <path
       inkscape:connector-curvature="0"
       d="m 204.71142,184.9713 c 0.10493,3.6183 0.30996,7.2312 0.34402,10.8537 0.012,2.7002 0.005,5.4004 0.005,8.1007 0.0714,1.7737 -0.3174,3.5181 -0.20309,5.2646 1.30654,1.3616 3.31868,2.3489 5.20382,2.9352 l -4.89549,3.7512 c -1.88515,-0.5863 -3.89729,-1.5736 -5.20383,-2.9353 -0.1143,-1.7464 0.27452,-3.4908 0.20309,-5.2647 5.5e-4,-2.7002 0.007,-5.4004 -0.005,-8.1006 -0.0341,-3.6225 -0.23909,-7.2354 -0.34402,-10.8536 z"
       id="path10419"
       style="display:block;fill:#000000;fill-opacity:1;fill-rule:nonzero;stroke:none;stroke-width:1pt;stroke-linecap:butt;stroke-linejoin:miter;stroke-opacity:1" />
    <path
       inkscape:connector-curvature="0"
       d="m 198.88277,183.1717 c 2.14374,0.5032 4.03652,1.9907 6.17617,2.8051 l -4.89549,4.0881 c -2.13965,-0.8145 -4.03243,-2.302 -6.17617,-2.8052 z"
       id="path10420"
       style="display:block;fill:#000000;fill-opacity:1;fill-rule:nonzero;stroke:none;stroke-width:1pt;stroke-linecap:butt;stroke-linejoin:miter;stroke-opacity:1" />
    <path
       inkscape:connector-curvature="0"
       d="m 201.60084,191.8283 c 4.83767,-2.999 -0.14565,-2.801 10.37309,-7.7725 l -4.8955,4.5271 c -1.72617,0.816 -6.44718,4.1742 -5.01043,2.841 1.56108,-1.4487 6.24757,-5.7901 4.68549,-4.3429 -6.11296,5.6637 -7.25017,6.7282 -0.25716,0.2199 z"
       id="path10437"
       style="display:block;fill:#000000;fill-opacity:1;fill-rule:nonzero;stroke:none;stroke-width:1pt;stroke-linecap:butt;stroke-linejoin:miter;stroke-opacity:1" />
    <path
       inkscape:connector-curvature="0"
       d="m 211.37732,183.5047 c 1.71989,-0.2361 2.79419,0.5456 4.05633,1.7347 0.11872,0.0938 0.23744,0.1873 0.35616,0.2811 l -4.8955,4.5272 c -0.11872,-0.0938 -0.23744,-0.1875 -0.35615,-0.281 -1.26214,-1.1891 -2.33644,-1.9708 -4.05633,-1.7349 z"
       id="path10438"
       style="display:block;fill:#000000;fill-opacity:1;fill-rule:nonzero;stroke:none;stroke-width:1pt;stroke-linecap:butt;stroke-linejoin:miter;stroke-opacity:1" />
    <path
       inkscape:connector-curvature="0"
       d="m 210.93077,188.0318 c 7.79179,-8.258 3.33997,-0.1617 4.79239,8.1452 0.93627,3.802 0.43379,7.6304 0.17231,11.4689 l -4.89549,4.5272 c 0.26147,-3.8385 0.76396,-7.6669 -0.17231,-11.4689 -1.36579,-7.8114 -1.52032,-12.3946 4.9986,-17.1995 z"
       id="path10440"
       style="display:block;fill:#000000;fill-opacity:1;fill-rule:nonzero;stroke:none;stroke-width:1pt;stroke-linecap:butt;stroke-linejoin:miter;stroke-opacity:1" />
    <path
       inkscape:connector-curvature="0"
       d="m 209.61961,212.5772 c 3.05736,-3.1242 6.06043,-7.1374 9.286,-3.1046 0.40655,0.6844 1.00031,1.1429 1.56382,1.649 l -4.8955,4.5272 c -0.56351,-0.5062 -1.15726,-0.9646 -1.56381,-1.6491 -3.16421,-3.9561 -7.97847,1.6486 0.50499,-5.9498 z"
       id="path10441"
       style="display:block;fill:#000000;fill-opacity:1;fill-rule:nonzero;stroke:none;stroke-width:1pt;stroke-linecap:butt;stroke-linejoin:miter;stroke-opacity:1" />
    <path
       inkscape:connector-curvature="0"
       d="m 212.36705,191.0598 c 13.3019,-12.2647 0.21952,-0.203 0.24024,-0.2201 4.3391,-3.5635 5.74204,-4.9705 10.12622,-7.019 l -4.8955,4.5273 c -1.65579,0.7736 -6.32637,3.6121 -4.97252,2.3074 1.52702,-1.4715 6.26383,-5.6788 4.6373,-4.3428 -0.0358,0.0294 -13.04376,12.0968 -0.24025,0.22 z"
       id="path10442"
       style="display:block;fill:#000000;fill-opacity:1;fill-rule:nonzero;stroke:none;stroke-width:1pt;stroke-linecap:butt;stroke-linejoin:miter;stroke-opacity:1" />
    <path
       inkscape:connector-curvature="0"
       d="m 222.92423,183.5047 c 1.62936,0.2421 2.91079,1.4937 4.12271,2.6493 l -4.89549,4.5272 c -1.21193,-1.1556 -2.49336,-2.4071 -4.12272,-2.6494 z"
       id="path10445"
       style="display:block;fill:#000000;fill-opacity:1;fill-rule:nonzero;stroke:none;stroke-width:1pt;stroke-linecap:butt;stroke-linejoin:miter;stroke-opacity:1" />
    <path
       inkscape:connector-curvature="0"
       d="m 227.02453,185.8559 c -0.15378,3.4873 -0.3741,6.958 -0.24475,10.4541 0.22874,3.0349 0.24689,6.0775 0.24658,9.1204 0.0877,1.2657 -0.13783,2.4992 -0.32897,3.7361 l -4.8955,4.5272 c 0.19114,-1.2369 0.4167,-2.4703 0.32897,-3.7362 3.2e-4,-3.0427 -0.0178,-6.0854 -0.24657,-9.1203 -0.12936,-3.4962 0.091,-6.9667 0.24474,-10.4541 z"
       id="path10449"
       style="display:block;fill:#000000;fill-opacity:1;fill-rule:nonzero;stroke:none;stroke-width:1pt;stroke-linecap:butt;stroke-linejoin:miter;stroke-opacity:1" />
    <path
       inkscape:connector-curvature="0"
       d="m 225.9786,207.7575 c 1.39589,0.3026 2.60298,1.2241 3.83823,2.0434 0.55208,0.3161 0.99196,0.8033 1.46814,1.2349 l -4.8955,4.5272 c -0.47617,-0.4314 -0.91605,-0.9189 -1.46813,-1.2349 -1.23525,-0.8194 -2.44234,-1.7408 -3.83823,-2.0433 z"
       id="path10451"
       style="display:block;fill:#000000;fill-opacity:1;fill-rule:nonzero;stroke:none;stroke-width:1pt;stroke-linecap:butt;stroke-linejoin:miter;stroke-opacity:1" />
    <path
       inkscape:connector-curvature="0"
       d="m 56.134258,239.378 c -3.815085,14.5126 -9.169399,28.2327 -17.028067,40.7069 -4.474207,6.9999 -9.892113,13.2974 -16.219958,18.6467 l -4.835575,3.6655 c 6.327856,-5.3492 11.745751,-11.6468 16.219958,-18.6467 7.858668,-12.4742 13.212982,-26.1943 17.028067,-40.7069 z"
       id="path10456"
       style="display:block;fill:#000000;fill-opacity:1;fill-rule:nonzero;stroke:none;stroke-width:1pt;stroke-linecap:butt;stroke-linejoin:miter;stroke-opacity:1" />
    <path
       inkscape:connector-curvature="0"
       d="m 22.217328,298.1317 c 3.428596,-1.1824 7.144865,-1.5618 10.932556,-1.1439 6.697007,1.4942 12.620541,5.4953 19.563608,4.9646 0.609225,-0.119 1.218451,-0.238 1.827675,-0.357 l -4.835574,3.6655 c -0.609226,0.119 -1.218452,0.238 -1.827676,0.357 -6.943067,0.5307 -12.866601,-3.4704 -19.563608,-4.9646 -3.787692,-0.4179 -7.50396,-0.0385 -10.932556,1.1439 z"
       id="path10461"
       style="display:block;fill:#000000;fill-opacity:1;fill-rule:nonzero;stroke:none;stroke-width:1pt;stroke-linecap:butt;stroke-linejoin:miter;stroke-opacity:1" />
    <path
       inkscape:connector-curvature="0"
       d="m 64.707614,235.6468 c -1.122892,13.3124 -1.160563,26.2182 2.774559,39.7077 4.755427,14.4512 7.667145,23.1969 22.92424,15.4743 l -7.481896,5.6714 c -14.99978,7.5594 -18.22603,-1.1885 -22.999565,-15.4172 -4.023924,-13.6384 -3.91572,-26.6669 -2.318403,-40.0534 z"
       id="path10471"
       style="display:block;fill:#000000;fill-opacity:1;fill-rule:nonzero;stroke:none;stroke-width:1pt;stroke-linecap:butt;stroke-linejoin:miter;stroke-opacity:1" />
    <path
       inkscape:connector-curvature="0"
       d="m 43.703539,235.2574 c -1.335935,3.6734 -0.70735,6.5584 3.962809,6.3926 5.783932,-0.791 10.868394,-3.4707 15.986319,-5.8098 l -7.394077,5.605 c -5.060209,2.3139 -10.092886,4.9834 -15.834525,5.6947 -4.649845,0.0789 -5.251389,-2.9081 -3.81899,-6.5017 z"
       id="path10476"
       style="display:block;fill:#000000;fill-opacity:1;fill-rule:nonzero;stroke:none;stroke-width:1pt;stroke-linecap:butt;stroke-linejoin:miter;stroke-opacity:1" />
    <path
       inkscape:connector-curvature="0"
       d="m 45.225196,271.4314 c 5.189263,-3.3931 10.916214,-5.0613 16.936012,-6.2474 1.03693,-0.2221 2.088388,-0.3565 3.135384,-0.5169 l -7.781192,5.4485 c -1.069878,0.1768 -2.144523,0.3275 -3.203908,0.5649 -5.940293,1.2092 -11.632175,2.7976 -16.774883,6.1345 z"
       id="path10481"
       style="display:block;fill:#000000;fill-opacity:1;fill-rule:nonzero;stroke:none;stroke-width:1pt;stroke-linecap:butt;stroke-linejoin:miter;stroke-opacity:1" />
    <path
       inkscape:connector-curvature="0"
       sodipodi:nodetypes="ccccccccccccc"
       d="m 107.30532,269.9367 c -9.595884,10.0785 -6.80953,1.9718 -14.825829,5.149 2.647985,-1.6266 5.247265,-3.3167 7.943909,-4.8797 1.623,-0.9407 -2.476614,2.6841 -3.302644,4.235 -2.22668,4.1807 -3.212845,7.5927 -1.6236,11.9517 2.24753,7.5077 7.650584,9.8589 16.352904,7.6329 14.96054,-7.3627 -6.7014,5.4725 1.15883,0.1583 l 8.97027,-5.5437 c -6.0062,4.0618 -12.03904,8.362 -19.08197,10.9184 -8.625539,2.1843 -13.323385,-0.2735 -15.582181,-7.6783 -3.831637,-10.4472 4.220882,-17.1714 13.972311,-22.2379 6.94137,-2.734 11.51269,4.3191 -2.686484,5.6737 z"
       id="path10489"
       style="display:block;fill:#000000;fill-opacity:1;fill-rule:nonzero;stroke:none;stroke-width:1pt;stroke-linecap:butt;stroke-linejoin:miter;stroke-opacity:1" />
    <path
       inkscape:connector-curvature="0"
       d="m 108.58337,279.9925 c -0.0493,0.0295 -0.0987,0.0589 -0.14801,0.0884 2.48295,-1.7324 4.96095,-3.472 7.44886,-5.1973 0.32656,-0.2264 -0.62432,0.4926 -0.94981,0.7206 -3.46494,2.4272 -6.71722,4.8566 -10.27124,7.0285 -1.5437,0.9434 -3.14061,1.7976 -4.665084,2.7729 -0.39715,0.2541 -1.56397,1.0536 -1.178641,0.7819 11.787365,-8.3104 8.284025,-5.8082 5.769825,-4.0082 -2.12227,1.6378 0.27994,-0.26 -1.09178,1.014 l -7.742185,5.4212 c 0.33984,-0.3212 0.49689,-0.8262 1.01953,-0.9635 4.047725,-2.8991 8.024705,-5.9411 12.302445,-8.4999 1.72251,-1.0303 6.80028,-4.2581 5.16891,-3.0887 -18.627015,13.3511 1.68887,-1.529 2.01982,-1.4493 z"
       id="path10490"
       style="display:block;fill:#000000;fill-opacity:1;fill-rule:nonzero;stroke:none;stroke-width:1pt;stroke-linecap:butt;stroke-linejoin:miter;stroke-opacity:1" />
    <path
       inkscape:connector-curvature="0"
       d="m 129.29864,272.2531 c -2.55828,4.9153 -3.71202,10.846 -3.29128,16.2753 0.43602,2.9587 2.67575,7.9999 6.95757,6.7479 2.00586,-0.5865 11.49146,-6.5425 5.37693,-2.8561 -1.91486,1.1544 -3.80814,2.3382 -5.7122,3.5073 l 8.00778,-5.0931 c -6.21336,4.028 -20.03683,16.5597 -22.51234,2.7073 -0.42067,-5.4723 0.73364,-11.5078 3.4821,-16.3966 z"
       id="path10513"
       style="display:block;fill:#000000;fill-opacity:1;fill-rule:nonzero;stroke:none;stroke-width:1pt;stroke-linecap:butt;stroke-linejoin:miter;stroke-opacity:1" />
    <path
       inkscape:connector-curvature="0"
       d="m 133.329,269.7318 c -2.74768,1.7796 -11.23852,6.7349 -8.24305,5.3389 3.06892,-1.4303 5.6433,-3.6292 8.46572,-5.4427 6.83008,-4.3887 -27.79747,17.7449 1.23273,-0.8163 1.5207,-0.9724 3.61017,-0.7632 5.31927,-0.6072 3.88709,1.2357 6.87625,2.7526 10.88025,1.059 l -8.45103,5.4751 c -3.97334,1.667 -6.97171,0.1254 -10.82299,-1.0962 -1.76282,-0.1661 -6.72246,1.5313 -5.27864,0.5809 2.63918,-1.7373 10.54307,-6.9644 7.95939,-5.1571 -28.10856,19.6625 17.27095,-12.7888 -9.36509,6.045 z"
       id="path10515"
       style="display:block;fill:#000000;fill-opacity:1;fill-rule:nonzero;stroke:none;stroke-width:1pt;stroke-linecap:butt;stroke-linejoin:miter;stroke-opacity:1" />
    <path
       inkscape:connector-curvature="0"
       d="m 148.90398,269.8138 c -5.80398,15.6655 -7.97267,32.1133 -7.94782,48.8215 0.0677,1.1271 0.13548,2.2543 0.20321,3.3814 l -8.06477,5.647 c -0.10221,-1.103 -0.20442,-2.206 -0.30662,-3.309 -0.39423,-16.9428 2.08185,-33.4559 8.42855,-49.1581 z"
       id="path10521"
       style="display:block;fill:#000000;fill-opacity:1;fill-rule:nonzero;stroke:none;stroke-width:1pt;stroke-linecap:butt;stroke-linejoin:miter;stroke-opacity:1" />
    <path
       inkscape:connector-curvature="0"
       d="m 152.29042,276.5916 c 7.83163,-9.8595 11.44655,-10.8718 8.54332,0.9937 -3.13015,8.8816 -2.52951,21.1737 8.44169,13.5498 0.61902,-0.5552 2.39858,-2.3091 1.85706,-1.6658 -11.01974,13.0901 1.58259,-4.2171 3.80962,-8.1595 l 6.90447,-7.476 c -5.23352,9.345 -11.27264,17.9711 -19.41445,24.7111 -10.83955,7.4829 -11.57698,-4.7699 -8.44491,-13.5464 4.55785,-18.2073 -7.26866,-0.9 4.94258,-15.5958 z"
       id="path10538"
       style="display:block;fill:#000000;fill-opacity:1;fill-rule:nonzero;stroke:none;stroke-width:1pt;stroke-linecap:butt;stroke-linejoin:miter;stroke-opacity:1" />
    <path
       inkscape:connector-curvature="0"
       d="m 176.24502,273.0234 c 15.54579,-9.3958 4.16849,-0.3421 4.77388,12.7465 0.56396,8.3047 5.5585,12.7635 13.88918,9.0937 l -8.79184,4.8373 c -8.23889,3.6219 -13.34513,-0.8441 -13.9271,-9.0728 -0.45663,-10.8486 2.12483,-17.8726 12.57889,-22.2941 z"
       id="path10547"
       style="display:block;fill:#000000;fill-opacity:1;fill-rule:nonzero;stroke:none;stroke-width:1pt;stroke-linecap:butt;stroke-linejoin:miter;stroke-opacity:1" />
    <path
       inkscape:connector-curvature="0"
       sodipodi:nodetypes="ccccccccccccccc"
       d="m 203.67401,272.438 c 0.23109,-0.1504 -0.34085,0.4259 -0.46931,0.6626 -0.81945,1.5092 -1.3042,3.2039 -1.80635,4.8235 -1.1953,3.8555 -2.00507,7.7021 -2.33162,11.7108 -0.0345,2.928 0.82619,6.8374 4.83467,6.1932 1.61053,-0.2587 5.77167,-2.8297 4.48899,-1.8682 -1.7692,1.3264 -3.57176,2.6545 -5.57792,3.6292 -1.99089,0.9673 3.30193,-2.8885 4.7155,-4.5355 2.90593,-3.386 5.05667,-7.1504 6.99725,-11.0877 0.32865,-0.7683 0.65729,-1.5366 0.98594,-2.3048 l 7.97649,-5.3108 c -0.31081,0.7564 -0.62163,1.5128 -0.93244,2.2692 -3.86017,8.0062 -27.83628,37.207 -31.47004,18.3297 0.82518,-10.5747 2.80584,-17.5496 12.98701,-22.6773 0,0 -8.88009,5.6862 -0.39817,0.1661 z"
       id="path10561"
       style="display:block;fill:#000000;fill-opacity:1;fill-rule:nonzero;stroke:none;stroke-width:1pt;stroke-linecap:butt;stroke-linejoin:miter;stroke-opacity:1" />
    <path
       inkscape:connector-curvature="0"
       d="m 223.64266,270.0671 c -1.19462,7.8695 -4.66388,16.9094 -1.10314,24.6197 0.80634,2.8446 7.85721,-1.7419 5.75257,-0.6172 -11.59364,6.1958 -3.68555,1.0525 -0.72778,-2.8431 l 8.00399,-5.052 c -4.2488,5.6251 -13.29883,16.8582 -20.90721,13.485 -3.87751,-7.6414 -0.23395,-16.9312 1.28931,-24.7372 z"
       id="path10564"
       style="display:block;fill:#000000;fill-opacity:1;fill-rule:nonzero;stroke:none;stroke-width:1pt;stroke-linecap:butt;stroke-linejoin:miter;stroke-opacity:1" />
    <path
       inkscape:connector-curvature="0"
       d="m 236.0495,270.1577 c 6.08575,-2.0762 6.9529,1.5837 7.14356,6.7359 -0.10018,6.1094 -1.18072,12.1444 -1.90883,18.2011 l -7.28533,6.5151 c 0.61546,-6.0267 1.61159,-12.0263 1.78251,-18.088 -0.11833,-5.1514 -0.77687,-8.8577 -6.93539,-6.9221 z"
       id="path10577"
       style="display:block;fill:#000000;fill-opacity:1;fill-rule:nonzero;stroke:none;stroke-width:1pt;stroke-linecap:butt;stroke-linejoin:miter;stroke-opacity:1" />
    <path
       inkscape:connector-curvature="0"
       d="m 238.05348,286.2789 c 1.898,-6.9656 10.19194,-12.7709 16.94786,-16.1068 7.48144,-3.0722 5.43073,8.3699 4.88926,12.2032 -0.6698,3.8278 -1.16413,7.7161 -1.39871,11.5724 l -7.05015,6.6713 c 0.12396,-3.8167 0.65283,-7.6678 1.27758,-11.4578 0.54161,-3.8714 2.69546,-15.4322 -4.86682,-12.2245 -1.91213,0.9544 -3.69396,2.046 -5.36409,3.3516 -0.40192,0.3142 -1.53331,1.3358 -1.171,0.9811 12.27627,-12.0193 4.02886,-5.3504 3.7445,-1.6223 z"
       id="path10582"
       style="display:block;fill:#000000;fill-opacity:1;fill-rule:nonzero;stroke:none;stroke-width:1pt;stroke-linecap:butt;stroke-linejoin:miter;stroke-opacity:1" />
    <path
       inkscape:connector-curvature="0"
       d="m 264.56079,273.7619 c -12.36673,15.3446 -0.738,-2.8401 5.42304,-4.1144 3.42157,0.8589 5.52889,1.9809 8.85374,0.1011 0.28099,-0.1744 0.56193,-0.3488 0.8429,-0.5231 l -5.981,6.7357 c -0.28158,0.1751 -0.5632,0.3501 -0.8448,0.5252 -3.28661,1.8383 -5.43411,0.7131 -8.80833,-0.1522 -1.24166,0.2595 -4.332,2.7858 -3.4464,1.7719 1.82481,-2.0892 3.67719,-4.1477 5.51942,-6.2174 2.50295,-2.8121 -9.82651,11.4501 -7.44731,8.505 z"
       id="path10585"
       style="display:block;fill:#000000;fill-opacity:1;fill-rule:nonzero;stroke:none;stroke-width:1pt;stroke-linecap:butt;stroke-linejoin:miter;stroke-opacity:1" />
    <path
       inkscape:connector-curvature="0"
       d="m 273.79241,274.4251 c 12.98806,-13.5413 0.65045,0.01 2.15511,12.2727 1.32968,5.7617 5.33734,9.9737 11.49079,6.9193 l -7.21045,6.823 c -6.10338,2.9969 -10.20712,-1.1256 -11.55009,-6.8633 -1.34917,-10.9475 3.5519,-18.936 12.12306,-25.7835 z"
       id="path10588"
       style="display:block;fill:#000000;fill-opacity:1;fill-rule:nonzero;stroke:none;stroke-width:1pt;stroke-linecap:butt;stroke-linejoin:miter;stroke-opacity:1" />
    <path
       inkscape:connector-curvature="0"
       d="m 205.50739,270.682 c 5.59705,2.2223 11.90163,2.0612 17.63826,0.401 2.55805,-0.8522 4.85818,-2.2274 7.12735,-3.6347 l -6.5914,6.4779 c -2.27908,1.4243 -4.59048,2.8147 -7.16586,3.6725 -5.65953,1.6406 -11.98132,1.8517 -17.42492,-0.6107 z"
       id="path10596"
       style="display:block;fill:#000000;fill-opacity:1;fill-rule:nonzero;stroke:none;stroke-width:1pt;stroke-linecap:butt;stroke-linejoin:miter;stroke-opacity:1" />
    <path
       inkscape:connector-curvature="0"
       d="m 108.96547,279.3003 c -3.26828,0.278 -6.00214,-1.6374 -8.65312,-3.3256 -0.818644,-0.4436 -1.529404,-1.0401 -2.271025,-1.5918 l 8.204455,-4.7369 c 0.76765,0.5343 1.51284,1.1032 2.3366,1.554 2.61936,1.6583 5.2789,3.6337 8.51043,3.408 z"
       id="path10601"
       style="display:block;fill:#000000;fill-opacity:1;fill-rule:nonzero;stroke:none;stroke-width:1pt;stroke-linecap:butt;stroke-linejoin:miter;stroke-opacity:1" />
    <path
       inkscape:connector-curvature="0"
       d="m 83.382927,443.38085 c 1.123273,-5.41146 13.389579,-11.99428 19.355253,-13.77228 9.67848,-1.641 1.02023,17.45527 -0.42722,20.34246 -9.817924,17.51354 -26.851415,29.12153 -45.388438,42.6948 l -4.81779,3.13966 c 18.401531,-13.45885 35.496902,-25.01582 45.020644,-42.45513 1.45251,-2.99145 9.584744,-21.28113 -0.21038,-19.92694 -3.364913,0.95006 -7.357406,3.53969 -7.391159,5.97553 z"
       id="path3335"
       style="display:block;fill:#000000;fill-opacity:1;fill-rule:nonzero;stroke:none;stroke-width:1pt;stroke-linecap:butt;stroke-linejoin:miter;stroke-opacity:1" />
    <path
       inkscape:connector-curvature="0"
       d="m 133.13623,376.96166 c -1.90092,0.32418 -9.0166,5.08594 3.36839,-2.59139 0.6168,-0.38236 -1.02798,0.91314 -1.47753,1.3991 -2.69752,2.91616 -3.88981,6.28604 -5.0971,9.49253 -4.39778,11.91151 -7.14192,24.04607 -9.68871,36.00825 -2.37952,11.14364 -4.46353,22.27341 -6.74667,33.41399 -0.31233,1.60301 -0.62557,3.20604 -0.93742,4.80902 l -5.72125,3.79122 c 0.42079,-1.66866 0.83335,-3.3371 1.23464,-5.00597 2.52112,-11.23323 4.85719,-22.47874 7.19484,-33.71096 2.48096,-11.86867 5.15883,-23.88455 9.25084,-35.71808 1.95348,-5.51234 5.553,-13.71787 14.68135,-15.9043 z"
       id="path3338"
       style="display:block;fill:#000000;fill-opacity:1;fill-rule:nonzero;stroke:none;stroke-width:1pt;stroke-linecap:butt;stroke-linejoin:miter;stroke-opacity:1" />
    <path
       inkscape:connector-curvature="0"
       d="m 112.69843,440.09719 c 3.3146,-2.61102 13.57119,-8.80012 3.44291,-2.47324 -0.55219,0.34494 1.09252,-0.71272 1.63984,-1.06712 2.92993,-1.89725 5.81737,-3.82709 8.88491,-5.40482 2.52277,-1.16742 6.33536,-2.45261 7.99932,-0.69132 1.12688,5.25913 -7.89345,9.8946 -11.2135,12.00288 -3.81103,2.3473 -7.8169,4.22339 -11.86483,5.86166 -2.99894,1.05298 -7.41063,3.78398 1.15461,-1.58695 l -5.69818,2.99388 c 4.31507,-2.73584 5.60345,-3.59004 9.44769,-5.05907 4.02132,-1.64805 7.95571,-3.51471 11.73954,-5.86056 -9.02764,5.76132 1.85151,-0.60377 1.0063,-5.02711 -1.77265,-1.25694 -5.01447,-0.12376 -7.39708,1.00271 -5.40367,2.86603 6.33423,-4.22629 -0.0747,-0.11801 -2.20763,1.41514 -8.83887,5.64424 -6.63756,4.21717 7.85688,-5.09347 5.28795,-3.50239 3.38619,-1.89103 z"
       id="path3353"
       style="display:block;fill:#000000;fill-opacity:1;fill-rule:nonzero;stroke:none;stroke-width:1pt;stroke-linecap:butt;stroke-linejoin:miter;stroke-opacity:1" />
    <path
       inkscape:connector-curvature="0"
       d="m 120.93799,443.11012 c -1.12478,4.06094 10.84982,23.54739 12.99625,26.62801 10.4996,11.8188 26.08539,14.43649 43.42677,4.58364 l -3.89743,2.95633 c -17.64989,9.90069 -33.27794,7.26102 -43.81677,-4.87948 -5.27137,-7.66356 -11.25953,-16.91164 -14.37399,-26.01929 z"
       id="path3363"
       style="display:block;fill:#000000;fill-opacity:1;fill-rule:nonzero;stroke:none;stroke-width:1pt;stroke-linecap:butt;stroke-linejoin:miter;stroke-opacity:1" />
    <path
       inkscape:connector-curvature="0"
       d="m 76.754686,437.81543 c 1.279524,-4.10391 7.741607,-7.0144 10.976101,-8.64507 4.41358,-1.66529 1.090759,12.34128 0.618478,14.27761 -1.259101,4.99879 -2.411886,10.15837 -4.035168,15.13474 -0.445938,1.2575 0.107449,-0.31477 -0.31626,0.92657 l -5.51452,3.34925 c 0.416301,-1.23904 -0.116979,0.31932 0.311516,-0.92716 1.868448,-5.02287 3.197174,-10.31667 4.45342,-15.37873 0.454943,-1.87002 3.605623,-15.60002 -0.847167,-13.88514 -2.040043,1.04773 -4.789684,2.78134 3.484761,-2.32211 1.512327,-0.93278 -3.257416,2.45263 -3.478506,4.02854 z"
       id="path3372"
       style="display:block;fill:#000000;fill-opacity:1;fill-rule:nonzero;stroke:none;stroke-width:1pt;stroke-linecap:butt;stroke-linejoin:miter;stroke-opacity:1" />
    <path
       inkscape:connector-curvature="0"
       d="m 153.39569,436.59486 c 1.31317,-1.15704 6.38612,-4.10212 -4.16537,2.84039 -1.82342,1.19978 3.53107,-2.96402 4.68345,-4.92159 -2.69502,-3.29058 -9.72245,-2.02653 -13.73753,0.13864 -0.48568,0.32279 -1.94272,1.29124 -1.45706,0.96839 1.0375,-0.68977 2.02826,-1.53838 3.11262,-2.06904 1.59429,-0.78018 -2.78018,2.84288 -3.43426,4.58812 -1.45114,3.87211 1.56724,5.27779 4.29793,5.49172 4.67627,-0.30704 13.87506,-4.17865 10.79676,4.47156 -4.58994,9.01907 -17.46291,15.09479 -25.56597,15.45704 l 4.61632,-3.29541 c 8.43529,-0.0964 13.35709,-2.96557 16.42234,-9.09542 2.79859,-8.35509 -6.2124,-4.65274 -10.75768,-4.33283 -11.72211,-0.80911 1.41901,-12.15071 6.33293,-15.37618 4.37106,-2.34054 11.03175,-3.28762 14.20972,-0.26586 -1.70431,2.99797 -7.57543,7.8221 -10.17316,8.85155 z"
       id="path3374"
       style="display:block;fill:#000000;fill-opacity:1;fill-rule:nonzero;stroke:none;stroke-width:1pt;stroke-linecap:butt;stroke-linejoin:miter;stroke-opacity:1" />
    <path
       inkscape:connector-curvature="0"
       d="m 169.69079,437.29583 c 1.08704,-3.63964 -0.32531,-5.23824 -4.12702,-4.3595 -1.00548,0.52952 1.89338,-1.34051 2.92467,-1.79234 2.17292,-0.95197 -2.96995,3.84323 -3.81046,5.95198 -2.28263,5.72675 -3.98005,11.824 -5.1016,17.61643 -1.00084,12.43192 15.04349,-3.06651 19.22871,-6.82694 0.74306,-0.68245 1.48609,-1.36489 2.22915,-2.04735 l 4.72323,-2.80463 c -0.77973,0.70454 -1.55945,1.4091 -2.33918,2.11364 -4.77432,4.25892 -30.56564,27.03087 -28.74498,12.53515 2.52309,-11.02394 3.8503,-21.87381 16.00196,-28.0606 4.03765,-0.89419 5.10515,0.68374 4.52143,4.34089 z"
       id="path3377"
       style="display:block;fill:#000000;fill-opacity:1;fill-rule:nonzero;stroke:none;stroke-width:1pt;stroke-linecap:butt;stroke-linejoin:miter;stroke-opacity:1" />
    <path
       inkscape:connector-curvature="0"
       d="m 192.4454,433.37857 c -2.88175,-0.37946 -5.19884,-1.11922 -8.3931,-0.60758 -1.17004,0.44705 -10.68001,4.10263 4.45336,-2.12661 1.49167,-0.61399 -2.43462,2.11559 -3.27465,3.36633 -2.10919,3.14033 -3.07192,6.53738 -3.88536,9.86694 -0.96929,4.53381 -1.69202,9.06909 -2.76095,13.6024 -0.87559,3.18976 4.67721,1.10383 6.61831,0.39401 3.30332,-1.56884 -2.52101,1.20299 -4.16487,1.88566 -1.3003,0.53999 2.35461,-1.55228 3.41667,-2.4461 2.68102,-2.25627 4.08059,-5.23115 5.38967,-8.05554 1.2069,-2.84013 2.21512,-5.69336 3.49733,-8.52228 l 6.00681,-2.76708 c -1.39002,2.842 -2.40219,5.70448 -3.61679,8.57572 -3.48898,7.79761 -7.66699,10.22057 -16.48435,14.33366 -2.04825,0.72781 -7.90472,2.84896 -6.85615,-0.53041 1.26093,-4.57761 2.13551,-9.16214 3.06527,-13.74083 1.92206,-8.14649 4.59639,-13.26286 14.59581,-16.83456 3.23034,-0.4595 5.651,0.39818 8.64811,0.53392 z"
       id="path3384"
       style="display:block;fill:#000000;fill-opacity:1;fill-rule:nonzero;stroke:none;stroke-width:1pt;stroke-linecap:butt;stroke-linejoin:miter;stroke-opacity:1" />
    <path
       inkscape:connector-curvature="0"
       d="m 209.38232,441.65003 c 1.27266,-4.62018 11.5178,-9.80167 15.2103,-11.04035 5.45896,-1.02082 8.59312,0.12943 9.11078,5.59235 -0.1585,6.05966 -3.97573,13.38322 -8.69003,18.09016 -5.74709,4.75144 -10.96019,8.20875 -17.53928,8.57448 -0.66744,0.0179 -1.33334,0.0297 -1.99949,0.041 l 5.05929,-3.77884 c 0.65466,-0.002 1.30803,-0.005 1.9658,-0.0223 3.16711,-0.19206 6.31498,-0.92935 9.38015,-2.73795 0.35973,-0.21225 1.39639,-0.94051 1.05992,-0.68187 -7.27955,5.59533 -4.4708,3.32855 -2.9922,2.12102 4.90821,-4.51645 8.68029,-12.05754 8.76903,-18.04954 -0.61856,-5.28957 -3.67325,-6.50369 -9.04487,-5.42697 -2.75218,0.9522 -7.57043,4.45172 -0.0544,-1.14179 0.90829,-0.67597 -4.59857,2.52513 -4.93047,4.70484 z"
       id="path3410"
       style="display:block;fill:#000000;fill-opacity:1;fill-rule:nonzero;stroke:none;stroke-width:1pt;stroke-linecap:butt;stroke-linejoin:miter;stroke-opacity:1" />
    <path
       inkscape:connector-curvature="0"
       sodipodi:nodetypes="ccccccccccccc"
       d="m 195.44466,431.78516 c 1.74505,-1.07867 4.35806,-2.2066 6.13218,-3.23597 1.09764,-0.63684 -0.61439,2.16578 -0.87916,3.24974 -0.77044,3.15429 -1.41144,6.3117 -2.22782,9.46478 -1.06601,3.8855 -1.69104,7.69811 -2.52139,11.57825 -0.59394,2.71687 -1.35616,5.39739 2.0468,5.85957 5.75156,-1.49933 3.14955,-1.35599 8.70084,-5.32865 l 4.4025,-2.70417 c -5.4217,3.89676 -11.57466,9.67745 -18.07629,11.33157 -3.4936,-0.49909 -3.64475,-3.17194 -3.0185,-5.98443 0.83459,-3.92144 1.59314,-7.77981 2.71238,-11.70175 2.09218,-7.76025 0.82456,-10.68411 8.87953,-15.83174 z"
       id="path3411"
       style="display:block;fill:#000000;fill-opacity:1;fill-rule:nonzero;stroke:none;stroke-width:1pt;stroke-linecap:butt;stroke-linejoin:miter;stroke-opacity:1" />
    <path
       inkscape:connector-curvature="0"
       d="m 231.64807,448.92813 c 0.28933,-0.99548 19.64078,-12.1707 9.62538,-5.44571 3.80596,-3.038 5.13999,-5.81155 2.95077,-9.18695 -0.6601,-0.82992 -4.44863,0.0157 -3.37167,-0.72969 7.66336,-5.30424 0.82328,1.23148 -1.11504,5.49217 -2.52437,6.0398 -6.77152,17.64911 0.6723,20.10493 5.25982,0.42677 10.64363,-2.32864 15.52792,-5.10122 l -4.43829,3.16256 c -4.98168,2.80262 -10.51612,5.62602 -15.87291,5.2153 -7.43056,-2.50569 -3.01882,-14.28519 -0.53513,-20.3408 1.71847,-3.9358 9.90503,-16.95788 14.12791,-11.15408 2.16433,3.49089 0.93015,6.19931 -2.98519,9.3524 -3.11479,2.12119 -6.11589,4.39337 -9.46381,6.077 -1.47474,0.74165 -5.83912,3.04128 -4.4741,2.0914 20.52732,-14.28437 4.71389,-4.02538 4.5849,-2.98177 z"
       id="path3413"
       style="display:block;fill:#000000;fill-opacity:1;fill-rule:nonzero;stroke:none;stroke-width:1pt;stroke-linecap:butt;stroke-linejoin:miter;stroke-opacity:1" />
    <path
       inkscape:connector-curvature="0"
       d="m 232.38555,448.90639 c 8.56898,-6.69686 17.73324,-9.97172 27.18213,-7.93751 11.01915,2.60115 18.27192,0.36458 29.22151,-6.55578 l -3.55731,2.54047 c -11.33553,7.19067 -18.67583,9.61975 -30.14797,7.10184 -5.56253,-1.09305 -10.30651,-0.88398 -16.20005,1.60135 -1.79488,0.75689 -6.89003,3.7345 -5.27639,2.59364 9.11225,-6.44239 5.46967,-3.89831 4.0603,-2.74502 z"
       id="path3416"
       style="display:block;fill:#000000;fill-opacity:1;fill-rule:nonzero;stroke:none;stroke-width:1pt;stroke-linecap:butt;stroke-linejoin:miter;stroke-opacity:1" />
    <path
       inkscape:connector-curvature="0"
       d="m 79.360711,384.91363 c 2.178243,-1.82006 4.349077,-3.6587 6.534813,-5.46019 0.348628,-0.28736 -0.489409,0.85077 -0.663817,1.30334 -0.89515,2.32298 -1.37992,4.7454 -1.793491,7.09381 -0.671248,3.81166 -1.217624,7.5868 -1.987967,11.40747 -2.801927,14.51831 -5.210958,29.07609 -8.83098,43.61491 -0.985976,3.90207 -2.526955,8.48019 -2.882907,12.28194 0.801744,3.02947 1.522591,2.24166 4.677427,0.32132 l -5.84394,5.1825 c -3.395804,2.10436 -4.385159,3.17643 -5.364964,-0.0358 0.514094,-4.06082 2.448346,-8.80109 3.590194,-12.94774 3.91374,-14.63254 7.089651,-29.47379 9.385041,-44.05982 1.91301,-14.21099 -1.002538,-15.32226 9.69838,-24.36217 z"
       id="path3422"
       style="display:block;fill:#000000;fill-opacity:1;fill-rule:nonzero;stroke:none;stroke-width:1pt;stroke-linecap:butt;stroke-linejoin:miter;stroke-opacity:1" />
    <path
       inkscape:connector-curvature="0"
       d="m 105.71976,368.18381 c -11.979315,11.33188 -22.61657,15.88438 -37.233684,15.84403 -19.492248,-0.94697 -41.197898,-3.8031 -51.153453,17.8595 l -6.121809,4.10257 c 13.359083,-27.60507 41.507882,-27.32061 63.738731,-26.5595 17.548445,-0.27522 16.162331,0.58294 22.608801,-5.82904 z"
       id="path3426"
       style="display:block;fill:#000000;fill-opacity:1;fill-rule:nonzero;stroke:none;stroke-width:1pt;stroke-linecap:butt;stroke-linejoin:miter;stroke-opacity:1" />
    <path
       inkscape:connector-curvature="0"
       d="m 201.84505,437.58399 c 4.00505,-4.1973 12.75578,-12.6709 13.56704,-4.80291 -0.0524,12.28189 -5.98454,26.33316 -9.09145,38.76758 -4.42099,18.09768 -8.3108,36.19869 -17.33475,53.75663 -10.75358,18.43434 -32.81207,32.08795 -51.55004,27.32117 -5.87603,-3.10677 -9.99279,-7.1568 -12.02129,-13.71214 -6.90208,-22.30467 18.74951,-37.19797 39.33239,-40.67847 1.62853,-0.11434 3.25708,-0.22869 4.88561,-0.34302 l -4.91753,3.5061 c -1.5583,0.0697 -3.11658,0.13938 -4.67487,0.20907 -5.03536,0.77158 -13.31324,1.76994 -17.90641,4.50352 -21.57703,12.84134 -14.64915,35.85938 0.30259,42.99529 18.87633,4.4079 31.51094,-3.72111 41.53316,-20.44386 9.28101,-17.50871 13.06228,-35.70724 17.45247,-53.81315 2.99114,-12.04608 8.4667,-26.05592 7.78791,-37.84846 -0.21452,-1.12997 -0.40288,-2.38563 -1.49062,-2.9209 -0.49608,-0.24414 -2.38164,0.55912 -1.83912,0.15865 10.81894,-7.98617 4.82047,-3.68088 2.75281,-1.16093 z"
       id="path3433"
       style="display:block;fill:#000000;fill-opacity:1;fill-rule:nonzero;stroke:none;stroke-width:1pt;stroke-linecap:butt;stroke-linejoin:miter;stroke-opacity:1" />
  </g>
</svg>
